run,agent_name,action_name,action_count,avg_precision,avg_recall,global_precision,global_recall
0,explore,close_door_e,1116,1.0,1.0,4.0,4.0
0,explore,move_e,1116,1.0,1.0,324.0,324.0
0,explore,move_nw,1116,0.875,1.0,280.0,100.0
0,explore,move_n,1116,1.0,0.5,4.0,36.0
0,explore,move_se,1116,0.9375,1.0,120.0,100.0
0,explore,move_sw,1116,0.9375,1.0,120.0,100.0
0,explore,move_w,1116,0.9375,1.0,360.0,324.0
0,explore,open_door_e,1116,0.9375,1.0,8.0,4.0
0,explore,open_door_n,1116,0.9375,1.0,8.0,4.0
0,explore,close_door_e,1310,1.0,1.0,4.0,4.0
0,explore,close_door_n,1310,1.0,1.0,4.0,4.0
0,explore,move_e,1310,1.0,1.0,324.0,324.0
0,explore,move_nw,1310,0.875,1.0,280.0,100.0
0,explore,move_n,1310,1.0,0.5,4.0,36.0
0,explore,move_se,1310,0.9375,1.0,120.0,100.0
0,explore,move_sw,1310,0.9375,1.0,120.0,100.0
0,explore,move_w,1310,0.9375,1.0,360.0,324.0
0,explore,open_door_e,1310,0.9375,1.0,8.0,4.0
0,explore,open_door_n,1310,0.9375,1.0,8.0,4.0
0,explore,close_door_e,1484,1.0,1.0,4.0,4.0
0,explore,close_door_n,1484,1.0,1.0,4.0,4.0
0,explore,move_e,1484,1.0,1.0,324.0,324.0
0,explore,move_nw,1484,0.875,1.0,280.0,100.0
0,explore,move_n,1484,1.0,0.5,4.0,36.0
0,explore,move_se,1484,0.9375,1.0,120.0,100.0
0,explore,move_sw,1484,0.9375,1.0,120.0,100.0
0,explore,move_s,1484,1.0,0.5625,16.0,72.0
0,explore,move_w,1484,0.9375,1.0,360.0,324.0
0,explore,open_door_e,1484,0.9375,1.0,8.0,4.0
0,explore,move_w,148,0.875,1.0,792.0,324.0
0,explore,close_door_e,1716,1.0,1.0,4.0,4.0
0,explore,close_door_n,1716,1.0,1.0,4.0,4.0
0,explore,move_e,1716,1.0,1.0,324.0,324.0
0,explore,move_nw,1716,0.875,1.0,280.0,100.0
0,explore,move_n,1716,1.0,0.5,4.0,36.0
0,explore,move_se,1716,0.9375,1.0,120.0,100.0
0,explore,move_sw,1716,0.9375,1.0,120.0,100.0
0,explore,move_s,1716,1.0,0.5625,16.0,72.0
0,explore,move_w,1716,0.9375,1.0,360.0,324.0
0,explore,open_door_e,1716,0.9375,1.0,8.0,4.0
0,explore,open_door_n,1716,0.9375,1.0,8.0,4.0
0,explore,close_door_e,1924,1.0,1.0,4.0,4.0
0,explore,move_e,1924,1.0,1.0,324.0,324.0
0,explore,move_nw,1924,0.875,1.0,280.0,100.0
0,explore,move_n,1924,1.0,0.5,4.0,36.0
0,explore,move_se,1924,0.9375,1.0,120.0,100.0
0,explore,move_sw,1924,0.9375,1.0,120.0,100.0
0,explore,move_s,1924,1.0,0.5625,16.0,72.0
0,explore,move_w,1924,0.9375,1.0,360.0,324.0
0,explore,open_door_e,1924,0.9375,1.0,8.0,4.0
0,explore,open_door_n,1924,0.9375,1.0,8.0,4.0
0,explore,close_door_e,1988,1.0,1.0,4.0,4.0
0,explore,close_door_n,1988,1.0,1.0,4.0,4.0
0,explore,open_door_nw,1988,1.0,0.9375,0.0,0.0
0,explore,move_e,2048,1.0,1.0,324.0,324.0
0,explore,move_s,2048,1.0,0.5625,16.0,72.0
0,explore,move_w,2048,0.9375,1.0,360.0,324.0
0,explore,close_door_e,2183,1.0,1.0,4.0,4.0
0,explore,close_door_n,2183,1.0,1.0,4.0,4.0
0,explore,move_e,2183,1.0,1.0,324.0,324.0
0,explore,move_nw,2183,0.875,1.0,280.0,100.0
0,explore,move_n,2183,1.0,0.5,4.0,36.0
0,explore,move_se,2183,0.9375,1.0,120.0,100.0
0,explore,move_sw,2183,0.9375,1.0,120.0,100.0
0,explore,move_w,2183,0.9375,1.0,360.0,324.0
0,explore,open_door_e,2183,0.9375,1.0,8.0,4.0
0,explore,open_door_nw,2183,1.0,0.9375,0.0,0.0
0,explore,open_door_n,2183,0.9375,1.0,8.0,4.0
0,explore,close_door_e,2448,1.0,1.0,4.0,4.0
0,explore,close_door_n,2448,1.0,1.0,4.0,4.0
0,explore,move_e,2448,1.0,1.0,324.0,324.0
0,explore,move_nw,2448,0.875,1.0,280.0,100.0
0,explore,move_n,2448,1.0,0.625,36.0,108.0
0,explore,move_se,2448,0.9375,1.0,120.0,100.0
0,explore,move_sw,2448,0.9375,1.0,120.0,100.0
0,explore,move_s,2448,1.0,0.5625,16.0,72.0
0,explore,move_w,2448,0.9375,1.0,360.0,324.0
0,explore,open_door_e,2448,0.9375,1.0,8.0,4.0
0,explore,open_door_nw,2448,1.0,0.9375,0.0,0.0
0,explore,open_door_n,2448,0.9375,1.0,8.0,4.0
0,explore,move_se,2449,1.0,0.6875,0.0,0.0
0,explore,move_e,2450,1.0,1.0,324.0,324.0
0,explore,move_e,2452,1.0,1.0,324.0,324.0
0,explore,move_n,2456,1.0,0.625,36.0,108.0
0,explore,move_e,256,0.9375,1.0,360.0,324.0
0,explore,move_e,271,0.9375,1.0,360.0,324.0
0,explore,move_w,271,0.875,1.0,792.0,324.0
0,explore,move_w,272,0.875,1.0,792.0,324.0
0,explore,close_door_e,2779,1.0,1.0,4.0,4.0
0,explore,close_door_n,2779,1.0,1.0,4.0,4.0
0,explore,move_e,2779,1.0,1.0,324.0,324.0
0,explore,move_ne,2779,1.0,0.6875,0.0,0.0
0,explore,move_nw,2779,0.875,1.0,280.0,100.0
0,explore,move_n,2779,1.0,0.625,36.0,108.0
0,explore,move_se,2779,0.9375,1.0,120.0,100.0
0,explore,move_sw,2779,0.9375,1.0,120.0,100.0
0,explore,move_s,2779,1.0,0.5625,16.0,72.0
0,explore,move_w,2779,0.9375,1.0,360.0,324.0
0,explore,open_door_e,2779,0.9375,1.0,8.0,4.0
0,explore,open_door_nw,2779,1.0,0.9375,0.0,0.0
0,explore,open_door_n,2779,0.9375,1.0,8.0,4.0
0,explore,move_sw,2780,1.0,0.6875,0.0,0.0
0,explore,move_w,2781,0.9375,1.0,360.0,324.0
0,explore,move_ne,2786,0.9375,1.0,120.0,100.0
0,explore,move_w,2787,0.9375,1.0,360.0,324.0
0,explore,close_door_n,2788,1.0,0.9375,0.0,0.0
0,explore,move_w,2789,0.9375,1.0,360.0,324.0
0,explore,move_e,2792,1.0,1.0,324.0,324.0
0,explore,move_e,2793,1.0,1.0,324.0,324.0
0,explore,move_e,2794,1.0,1.0,324.0,324.0
0,explore,move_ne,2795,1.0,0.6875,0.0,0.0
0,explore,move_nw,2806,0.875,1.0,280.0,100.0
0,explore,move_s,2806,0.9375,1.0,360.0,324.0
0,explore,move_sw,2807,1.0,0.6875,0.0,0.0
0,explore,move_w,2808,0.9375,1.0,360.0,324.0
0,explore,move_w,2809,0.9375,1.0,360.0,324.0
0,explore,move_w,2810,0.9375,1.0,360.0,324.0
0,explore,move_w,2811,0.9375,1.0,360.0,324.0
0,explore,move_ne,2812,1.0,0.6875,0.0,0.0
0,explore,move_e,2813,1.0,1.0,324.0,324.0
0,explore,open_door_n,2814,0.9375,1.0,8.0,4.0
0,explore,move_n,2815,1.0,0.4375,0.0,0.0
0,explore,move_w,281,0.9375,1.0,360.0,324.0
0,explore,move_ne,2820,1.0,0.6875,0.0,0.0
0,explore,move_e,2849,1.0,1.0,324.0,324.0
0,explore,move_s,2849,0.9375,1.0,360.0,324.0
0,explore,move_n,2850,1.0,0.4375,0.0,0.0
0,explore,move_ne,2854,1.0,0.6875,0.0,0.0
0,explore,close_door_n,2901,1.0,1.0,4.0,4.0
0,explore,move_se,2901,1.0,0.6875,0.0,0.0
0,explore,move_s,2901,0.9375,1.0,360.0,324.0
0,explore,open_door_n,2901,0.9375,1.0,8.0,4.0
0,explore,move_w,2902,0.9375,1.0,360.0,324.0
0,explore,move_n,2903,1.0,0.4375,0.0,0.0
0,explore,move_n,2904,1.0,0.625,36.0,108.0
0,explore,move_w,2904,0.9375,1.0,360.0,324.0
0,explore,move_ne,2907,1.0,0.6875,0.0,0.0
0,explore,move_sw,298,0.375,0.6875,0.0,0.0
0,explore,close_door_e,3178,1.0,1.0,4.0,4.0
0,explore,close_door_n,3178,1.0,1.0,4.0,4.0
0,explore,move_e,3178,1.0,1.0,324.0,324.0
0,explore,move_ne,3178,1.0,0.6875,0.0,0.0
0,explore,move_nw,3178,1.0,0.875,180.0,60.0
0,explore,move_n,3178,1.0,0.625,36.0,108.0
0,explore,move_se,3178,0.9375,1.0,120.0,100.0
0,explore,move_sw,3178,0.9375,1.0,120.0,100.0
0,explore,move_s,3178,0.9375,1.0,360.0,324.0
0,explore,move_w,3178,0.9375,1.0,360.0,324.0
0,explore,open_door_e,3178,0.9375,1.0,8.0,4.0
0,explore,open_door_nw,3178,1.0,0.9375,0.0,0.0
0,explore,open_door_n,3178,0.9375,1.0,8.0,4.0
0,explore,close_door_e,3276,1.0,1.0,4.0,4.0
0,explore,move_e,3276,1.0,1.0,324.0,324.0
0,explore,move_ne,3276,1.0,0.6875,0.0,0.0
0,explore,move_n,3276,1.0,0.75,100.0,180.0
0,explore,move_se,3276,0.9375,1.0,120.0,100.0
0,explore,open_door_e,3276,0.9375,1.0,8.0,4.0
0,explore,open_door_nw,3276,1.0,0.9375,0.0,0.0
0,explore,open_door_n,3276,0.9375,1.0,8.0,4.0
0,explore,move_e,349,0.9375,1.0,360.0,324.0
0,explore,close_door_e,3641,1.0,1.0,4.0,4.0
0,explore,close_door_n,3641,1.0,1.0,4.0,4.0
0,explore,move_e,3641,1.0,1.0,324.0,324.0
0,explore,move_ne,3641,1.0,0.6875,0.0,0.0
0,explore,move_nw,3641,1.0,0.875,180.0,60.0
0,explore,move_n,3641,1.0,0.75,100.0,180.0
0,explore,move_se,3641,0.9375,1.0,120.0,100.0
0,explore,move_sw,3641,0.9375,1.0,120.0,100.0
0,explore,move_s,3641,0.9375,1.0,360.0,324.0
0,explore,move_w,3641,0.9375,1.0,360.0,324.0
0,explore,open_door_e,3641,0.9375,1.0,8.0,4.0
0,explore,open_door_nw,3641,1.0,0.9375,0.0,0.0
0,explore,open_door_n,3641,0.9375,1.0,8.0,4.0
0,explore,close_door_e,3943,1.0,1.0,4.0,4.0
0,explore,close_door_n,3943,1.0,1.0,4.0,4.0
0,explore,move_e,3943,1.0,1.0,324.0,324.0
0,explore,move_ne,3943,1.0,0.6875,0.0,0.0
0,explore,move_nw,3943,1.0,0.875,180.0,60.0
0,explore,move_n,3943,1.0,0.75,100.0,180.0
0,explore,move_se,3943,0.9375,1.0,120.0,100.0
0,explore,move_sw,3943,0.9375,1.0,120.0,100.0
0,explore,move_s,3943,0.9375,1.0,360.0,324.0
0,explore,move_w,3943,0.9375,1.0,360.0,324.0
0,explore,open_door_e,3943,0.9375,1.0,8.0,4.0
0,explore,open_door_nw,3943,1.0,0.9375,0.0,0.0
0,explore,open_door_n,3943,0.9375,1.0,8.0,4.0
0,explore,close_door_e,4015,1.0,1.0,4.0,4.0
0,explore,move_ne,4015,1.0,0.6875,0.0,0.0
0,explore,move_n,4015,1.0,0.75,100.0,180.0
0,explore,move_se,4015,0.9375,1.0,120.0,100.0
0,explore,move_sw,4015,1.0,0.6875,0.0,0.0
0,explore,open_door_nw,4015,1.0,0.9375,0.0,0.0
0,explore,move_e,4016,1.0,1.0,324.0,324.0
0,explore,move_n,4017,1.0,0.4375,0.0,0.0
0,explore,move_ne,4022,1.0,0.6875,0.0,0.0
0,explore,close_door_e,4238,1.0,1.0,4.0,4.0
0,explore,close_door_n,4238,1.0,1.0,4.0,4.0
0,explore,move_e,4238,1.0,1.0,324.0,324.0
0,explore,move_ne,4238,1.0,0.6875,0.0,0.0
0,explore,move_nw,4238,1.0,0.875,180.0,60.0
0,explore,move_n,4238,1.0,0.75,100.0,180.0
0,explore,move_se,4238,0.9375,1.0,120.0,100.0
0,explore,move_sw,4238,0.9375,1.0,120.0,100.0
0,explore,move_s,4238,0.9375,1.0,360.0,324.0
0,explore,move_w,4238,0.9375,1.0,360.0,324.0
0,explore,open_door_e,4238,0.9375,1.0,8.0,4.0
0,explore,open_door_nw,4238,1.0,0.9375,0.0,0.0
0,explore,open_door_n,4238,0.9375,1.0,8.0,4.0
0,explore,move_n,4239,1.0,0.4375,0.0,0.0
0,explore,move_ne,4244,1.0,0.6875,0.0,0.0
0,explore,move_e,4337,1.0,1.0,324.0,324.0
0,explore,move_ne,4337,1.0,0.6875,0.0,0.0
0,explore,move_s,4337,0.9375,1.0,360.0,324.0
0,explore,open_door_e,4337,0.9375,1.0,8.0,4.0
0,explore,move_n,4338,1.0,0.4375,0.0,0.0
0,explore,move_n,4339,1.0,0.75,100.0,180.0
0,explore,move_ne,4343,1.0,0.6875,0.0,0.0
0,explore,close_door_e,4406,1.0,1.0,4.0,4.0
0,explore,close_door_se,4406,0.875,1.0,12.0,4.0
0,explore,move_nw,4406,1.0,0.875,180.0,60.0
0,explore,move_sw,4406,0.9375,1.0,120.0,100.0
0,explore,move_w,4406,0.9375,1.0,360.0,324.0
0,explore,open_door_n,4406,0.9375,1.0,8.0,4.0
0,explore,move_ne,4408,1.0,0.6875,0.0,0.0
0,explore,move_se,4411,1.0,0.6875,0.0,0.0
0,explore,move_se,449,0.9375,1.0,120.0,100.0
0,explore,move_sw,449,0.9375,1.0,120.0,100.0
0,explore,move_w,449,0.9375,1.0,360.0,324.0
0,explore,move_se,450,0.9375,1.0,120.0,100.0
0,explore,move_sw,451,0.9375,1.0,120.0,100.0
0,explore,move_w,452,0.9375,1.0,360.0,324.0
0,explore,move_w,453,0.9375,1.0,360.0,324.0
0,explore,close_door_e,4588,1.0,1.0,4.0,4.0
0,explore,close_door_n,4588,1.0,1.0,4.0,4.0
0,explore,close_door_se,4588,0.875,1.0,12.0,4.0
0,explore,move_e,4588,1.0,1.0,324.0,324.0
0,explore,move_n,4588,1.0,0.75,100.0,180.0
0,explore,move_se,4588,1.0,0.6875,0.0,0.0
0,explore,move_sw,4588,0.9375,1.0,120.0,100.0
0,explore,move_s,4588,0.9375,1.0,360.0,324.0
0,explore,move_w,4588,0.9375,1.0,360.0,324.0
0,explore,open_door_e,4588,0.9375,1.0,8.0,4.0
0,explore,open_door_nw,4588,1.0,0.9375,0.0,0.0
0,explore,open_door_n,4588,0.9375,1.0,8.0,4.0
0,explore,open_door_e,4589,0.9375,1.0,8.0,4.0
0,explore,move_n,4590,1.0,0.4375,0.0,0.0
0,explore,close_door_se,4591,0.875,1.0,12.0,4.0
0,explore,move_ne,4596,1.0,0.6875,0.0,0.0
0,explore,move_se,4600,1.0,0.6875,0.0,0.0
0,explore,open_door_n,494,0.9375,1.0,8.0,4.0
0,explore,close_door_n,500,0.5625,1.0,32.0,4.0
0,explore,close_door_n,656,0.5625,1.0,32.0,4.0
0,explore,move_e,656,0.9375,1.0,360.0,324.0
0,explore,move_se,656,0.9375,1.0,120.0,100.0
0,explore,move_sw,656,0.9375,1.0,120.0,100.0
0,explore,move_w,656,0.9375,1.0,360.0,324.0
0,explore,open_door_n,656,0.9375,1.0,8.0,4.0
0,explore,move_e,657,0.9375,1.0,360.0,324.0
0,explore,open_door_n,658,0.9375,1.0,8.0,4.0
0,explore,move_n,661,0.5625,0.5,32.0,36.0
0,explore,move_w,739,0.9375,1.0,360.0,324.0
0,explore,move_se,755,0.9375,1.0,120.0,100.0
0,explore,close_door_n,794,0.5625,1.0,32.0,4.0
0,explore,move_e,794,0.9375,1.0,360.0,324.0
0,explore,move_n,794,0.5625,0.5,32.0,36.0
0,explore,move_se,794,0.9375,1.0,120.0,100.0
0,explore,move_sw,794,0.9375,1.0,120.0,100.0
0,explore,move_w,794,0.9375,1.0,360.0,324.0
0,explore,open_door_n,794,0.9375,1.0,8.0,4.0
0,explore,move_nw,863,0.75,1.0,600.0,100.0
0,explore,move_e,877,0.9375,1.0,360.0,324.0
0,explore,move_e,886,0.9375,1.0,360.0,324.0
0,explore,move_se,886,0.9375,1.0,120.0,100.0
0,explore,open_door_n,886,0.9375,1.0,8.0,4.0
0,explore,move_w,887,0.9375,1.0,360.0,324.0
0,explore,close_door_e,901,1.0,0.9375,0.0,0.0
0,explore,open_door_e,918,0.9375,1.0,8.0,4.0
0,explore,close_door_n,924,1.0,1.0,4.0,4.0
0,explore,move_nw,924,0.75,1.0,600.0,100.0
0,explore,move_n,924,1.0,0.5,4.0,36.0
0,explore,move_sw,924,0.9375,1.0,120.0,100.0
0,explore,open_door_e,924,0.9375,1.0,8.0,4.0
0,explore,move_se,925,0.9375,1.0,120.0,100.0
0,explore,close_door_n,926,1.0,1.0,4.0,4.0
0,explore,move_nw,927,0.75,1.0,600.0,100.0
0,explore,move_w,958,0.9375,1.0,360.0,324.0
0,explore,move_e,963,1.0,1.0,324.0,324.0
0,explore,move_se,963,0.9375,1.0,120.0,100.0
0,explore,move_se,964,0.9375,1.0,120.0,100.0
0,explore,move_e,965,1.0,1.0,324.0,324.0
0,explore,move_nw,967,0.75,1.0,580.0,100.0
0,explore,move_e,968,1.0,1.0,324.0,324.0
0,explore,move_nw,977,0.875,1.0,280.0,100.0
0,explore,move_w,985,0.9375,1.0,360.0,324.0
