actions,scores
0,0
1,0
2,0
3,0.457
4,0.916
5,1.374
6,1.374
7,1.374
8,1.374
9,1.374
10,1.374
11,1.374
12,1.832
13,2.29
14,2.29
15,2.624
16,2.624
17,3.0820000000000007
18,3.0820000000000007
19,3.0820000000000007
20,3.0820000000000007
21,3.2910000000000004
22,3.9990000000000006
23,3.9990000000000006
24,4.208
25,4.208
26,5.208
27,5.208
28,5.208
29,4.958
30,4.958
31,4.958
32,4.958
33,5.416
34,5.416
35,5.416
36,5.416
37,5.416
38,5.416
39,5.416
40,5.416
41,5.416
42,5.416
43,5.416
44,5.416
45,5.416
46,5.416
47,5.541
48,5.541
49,5.541
50,5.541
51,5.541
52,5.541
53,5.541
54,5.541
55,5.874
56,5.874
57,5.874
58,5.874
59,5.874
60,5.874
61,5.874
62,5.874
63,5.874
64,5.874
65,5.874
66,5.874
67,5.874
68,5.874
69,5.874
70,5.874
71,5.874
72,5.874
73,6.1240000000000006
74,6.1240000000000006
75,6.1240000000000006
76,6.1240000000000006
77,6.1240000000000006
78,6.1240000000000006
79,6.1240000000000006
80,6.1240000000000006
81,6.1240000000000006
82,6.1240000000000006
83,6.1240000000000006
84,6.1240000000000006
85,6.1240000000000006
86,6.1240000000000006
87,6.666
88,6.666
89,6.75
90,6.75
91,6.75
92,6.75
93,6.958
94,6.958
95,6.958
96,6.958
97,6.958
98,6.958
99,6.958
100,6.958
101,6.958
102,6.958
103,6.958
104,6.958
105,6.958
106,6.958
107,6.958
108,6.958
109,6.958
110,6.958
111,7.167
112,7.167
113,7.167
114,7.167
115,7.167
116,7.167
117,7.167
118,7.167
119,7.167
120,7.167
121,7.375
122,7.375
123,7.375
124,7.375
125,7.375
126,7.375
127,7.375
128,7.375
129,7.375
130,7.375
131,7.375
132,7.375
133,7.375
134,7.375
135,7.375
136,7.375
137,7.375
138,7.375
139,7.708
140,7.708
141,7.708
142,8.0
143,8.0
144,8.0
145,8.0
146,8.0
147,8.0
148,8.0
149,8.0
150,8.0
151,8.0
152,8.0
153,8.0
154,8.0
155,8.0
156,8.0
157,8.0
158,8.0
159,8.0
160,8.0
161,8.0
162,8.0
163,8.0
164,8.0
165,8.0
166,8.0
167,8.0
168,8.0
169,8.0
170,8.0
171,8.0
172,8.0
173,8.0
174,8.0
175,8.0
176,8.0
177,8.0
178,8.0
179,8.0
180,8.0
181,8.0
182,8.0
183,8.0
184,8.0
185,8.0
186,8.0
187,8.0
188,8.0
189,8.0
190,8.0
191,8.0
192,8.0
193,8.0
194,8.0
195,8.0
196,8.0
197,8.0
198,8.0
199,8.0
200,8.0
201,8.0
202,8.0
203,8.0
204,8.0
205,8.0
206,8.0
207,8.0
208,8.0
209,8.0
210,8.0
211,8.0
212,8.0
213,8.0
214,8.0
215,8.0
216,8.0
217,8.0
218,8.0
219,8.0
220,8.0
221,8.0
222,8.0
223,8.0
224,8.0
225,8.0
226,8.0
227,8.0
228,8.0
229,8.0
230,8.0
231,8.0
232,8.0
233,8.0
234,8.0
235,8.0
236,8.0
237,8.0
238,8.0
239,8.0
240,8.0
241,8.0
242,8.0
243,8.0
244,8.0
245,8.0
246,8.0
247,8.0
248,8.0
249,8.0
250,8.0
251,8.0
252,8.0
253,8.0
254,8.0
255,8.0
256,8.0
257,8.0
258,8.0
259,8.0
260,8.0
261,8.0
262,8.0
263,8.0
264,8.0
265,8.0
266,8.0
267,8.0
268,8.0
269,8.0
270,8.0
271,8.0
272,8.0
273,8.0
274,8.0
275,8.0
276,8.0
277,8.0
278,8.0
279,8.0
280,8.0
281,8.0
282,8.0
283,8.0
284,8.0
285,8.0
286,8.0
287,8.0
288,8.0
289,8.0
290,8.0
291,8.0
292,8.0
293,8.0
294,8.0
295,8.0
296,8.0
297,8.0
298,8.0
299,8.0
300,8.0
