actions,scores
0,0
1,0
2,0.419
3,0.844
4,1.266
5,1.688
6,1.688
7,2.11
8,2.532
9,2.532
10,2.532
11,2.532
12,2.532
13,2.532
14,2.954
15,2.954
16,2.954
17,2.954
18,2.954
19,2.954
20,2.954
21,2.954
22,2.954
23,2.954
24,2.954
25,2.954
26,2.954
27,2.954
28,2.954
29,2.954
30,3.221
31,3.221
32,3.221
33,3.221
34,3.6430000000000002
35,3.6870000000000003
36,3.6870000000000003
37,3.9090000000000007
38,3.9090000000000007
39,4.131
40,4.709
41,4.709
42,4.709
43,4.709
44,4.709
45,4.709
46,4.709
47,4.709
48,4.709
49,4.709
50,4.709
51,4.709
52,4.709
53,4.709
54,4.709
55,4.709
56,5.0649999999999995
57,5.0649999999999995
58,5.331999999999999
59,5.331999999999999
60,5.331999999999999
61,5.331999999999999
62,5.598999999999999
63,5.598999999999999
64,5.598999999999999
65,5.598999999999999
66,5.866
67,5.866
68,5.866
69,5.866
70,5.866
71,5.866
72,5.866
73,5.866
74,5.866
75,5.866
76,6.2219999999999995
77,6.2219999999999995
78,6.2219999999999995
79,6.2219999999999995
80,6.2219999999999995
81,6.2219999999999995
82,6.2219999999999995
83,6.2219999999999995
84,6.2219999999999995
85,6.2219999999999995
86,6.800000000000001
87,6.800000000000001
88,6.800000000000001
89,6.800000000000001
90,6.800000000000001
91,6.800000000000001
92,6.889000000000001
93,6.889000000000001
94,6.889000000000001
95,6.889000000000001
96,6.889000000000001
97,6.889000000000001
98,6.889000000000001
99,6.889000000000001
100,6.889000000000001
101,6.889000000000001
102,6.889000000000001
103,6.889000000000001
104,6.889000000000001
105,6.889000000000001
106,6.889000000000001
107,6.889000000000001
108,6.889000000000001
109,6.889000000000001
110,6.889000000000001
111,6.889000000000001
112,6.889000000000001
113,6.889000000000001
114,6.889000000000001
115,6.889000000000001
116,6.889000000000001
117,6.889000000000001
118,6.889000000000001
119,6.889000000000001
120,7.111000000000001
121,7.111000000000001
122,7.422000000000001
123,7.422000000000001
124,7.422000000000001
125,7.422000000000001
126,7.422000000000001
127,7.422000000000001
128,7.422000000000001
129,7.422000000000001
130,7.422000000000001
131,7.422000000000001
132,7.422000000000001
133,7.422000000000001
134,7.422000000000001
135,7.422000000000001
136,7.644
137,7.644
138,7.644
139,7.644
140,7.644
141,7.644
142,7.644
143,7.644
144,7.644
145,7.644
146,7.644
147,7.644
148,7.644
149,7.644
150,7.644
151,7.644
152,7.644
153,7.644
154,7.644
155,7.644
156,7.644
157,7.644
158,7.644
159,7.644
160,7.644
161,7.644
162,7.644
163,7.644
164,7.644
165,7.644
166,7.644
167,7.644
168,7.644
169,7.644
170,7.644
171,7.644
172,7.644
173,7.644
174,7.644
175,7.644
176,7.644
177,7.644
178,7.644
179,7.644
180,7.644
181,7.644
182,7.644
183,7.644
184,7.644
185,7.644
186,7.644
187,7.644
188,7.644
189,7.644
190,7.644
191,7.644
192,7.644
193,7.644
194,7.644
195,7.644
196,7.644
197,7.644
198,7.644
199,7.644
200,7.644
201,7.644
202,7.644
203,7.644
204,7.644
205,7.644
206,7.644
207,7.644
208,7.644
209,7.644
210,7.644
211,7.644
212,7.644
213,7.644
214,7.644
215,8.0
216,8.0
217,8.0
218,8.0
219,8.0
220,8.0
221,8.0
222,8.0
223,8.0
224,8.0
225,8.0
226,8.0
227,8.0
228,8.0
229,8.0
230,8.0
231,8.0
232,8.0
233,8.0
234,8.0
235,8.0
236,8.0
237,8.0
238,8.0
239,8.0
240,8.0
241,8.0
242,8.0
243,8.0
244,8.0
245,8.0
246,8.0
247,8.0
248,8.0
249,8.0
250,8.0
251,8.0
252,8.0
253,8.0
254,8.0
255,8.0
256,8.0
257,8.0
258,8.0
259,8.0
260,8.0
261,8.0
262,8.0
263,8.0
264,8.0
265,8.0
266,8.0
267,8.0
268,8.0
269,8.0
270,8.0
271,8.0
272,8.0
273,8.0
274,8.0
275,8.0
276,8.0
277,8.0
278,8.0
279,8.0
280,8.0
281,8.0
282,8.0
283,8.0
284,8.0
285,8.0
286,8.0
287,8.0
288,8.0
289,8.0
290,8.0
291,8.0
292,8.0
293,8.0
294,8.0
295,8.0
296,8.0
297,8.0
298,8.0
299,8.0
300,8.0
