actions,scores
0,0
1,0
2,0.419
3,0.861
4,1.233
5,1.465
6,1.465
7,1.465
8,1.465
9,1.465
10,1.465
11,1.907
12,1.907
13,2.266
14,2.688
15,2.91
16,3.3320000000000003
17,3.3320000000000003
18,3.3320000000000003
19,3.3320000000000003
20,3.3320000000000003
21,3.5540000000000003
22,3.5540000000000003
23,3.5540000000000003
24,3.5540000000000003
25,3.5540000000000003
26,3.5540000000000003
27,3.5540000000000003
28,3.5540000000000003
29,3.665
30,3.665
31,3.665
32,3.665
33,3.665
34,3.665
35,3.665
36,3.665
37,4.087
38,4.087
39,4.354
40,4.354
41,4.354
42,4.354
43,4.354
44,4.354
45,4.5760000000000005
46,4.5760000000000005
47,4.5760000000000005
48,5.154
49,5.154
50,5.154
51,5.154
52,5.154
53,5.154
54,5.154
55,5.621
56,5.621
57,5.621
58,5.621
59,5.977
60,6.977
61,6.977
62,6.977
63,6.977
64,6.977
65,6.977
66,6.977
67,7.333
68,7.333
69,7.333
70,7.333
71,7.333
72,7.333
73,7.333
74,7.333
75,7.333
76,7.333
77,7.333
78,7.333
79,7.333
80,7.333
81,7.333
82,7.333
83,7.333
84,7.333
85,7.333
86,7.333
87,7.333
88,7.333
89,7.333
90,7.333
91,7.333
92,7.333
93,7.333
94,7.644
95,7.644
96,7.644
97,7.644
98,7.644
99,7.644
100,7.644
101,7.644
102,7.644
103,7.644
104,7.644
105,7.644
106,7.644
107,7.644
108,7.644
109,8.0
110,8.0
111,8.0
112,8.0
113,8.0
114,8.0
115,8.0
116,8.0
117,8.0
118,8.0
119,8.0
120,8.0
121,8.0
122,8.0
123,8.0
124,8.0
125,8.0
126,8.0
127,8.0
128,8.0
129,8.0
130,8.0
131,8.0
132,8.0
133,8.0
134,8.0
135,8.0
136,8.0
137,8.0
138,8.0
139,8.0
140,8.0
141,8.0
142,8.0
143,8.0
144,8.0
145,8.0
146,8.0
147,8.0
148,8.0
149,8.0
150,8.0
151,8.0
152,8.0
153,8.0
154,8.0
155,8.0
156,8.0
157,8.0
158,8.0
159,8.0
160,8.0
161,8.0
162,8.0
163,8.0
164,8.0
165,8.0
166,8.0
167,8.0
168,8.0
169,8.0
170,8.0
171,8.0
172,8.0
173,8.0
174,8.0
175,8.0
176,8.0
177,8.0
178,8.0
179,8.0
180,8.0
181,8.0
182,8.0
183,8.0
184,8.0
185,8.0
186,8.0
187,8.0
188,8.0
189,8.0
190,8.0
191,8.0
192,8.0
193,8.0
194,8.0
195,8.0
196,8.0
197,8.0
198,8.0
199,8.0
200,8.0
201,8.0
202,8.0
203,8.0
204,8.0
205,8.0
206,8.0
207,8.0
208,8.0
209,8.0
210,8.0
211,8.0
212,8.0
213,8.0
214,8.0
215,8.0
216,8.0
217,8.0
218,8.0
219,8.0
220,8.0
221,8.0
222,8.0
223,8.0
224,8.0
225,8.0
226,8.0
227,8.0
228,8.0
229,8.0
230,8.0
231,8.0
232,8.0
233,8.0
234,8.0
235,8.0
236,8.0
237,8.0
238,8.0
239,8.0
240,8.0
241,8.0
242,8.0
243,8.0
244,8.0
245,8.0
246,8.0
247,8.0
248,8.0
249,8.0
250,8.0
251,8.0
252,8.0
253,8.0
254,8.0
255,8.0
256,8.0
257,8.0
258,8.0
259,8.0
260,8.0
261,8.0
262,8.0
263,8.0
264,8.0
265,8.0
266,8.0
267,8.0
268,8.0
269,8.0
270,8.0
271,8.0
272,8.0
273,8.0
274,8.0
275,8.0
276,8.0
277,8.0
278,8.0
279,8.0
280,8.0
281,8.0
282,8.0
283,8.0
284,8.0
285,8.0
286,8.0
287,8.0
288,8.0
289,8.0
290,8.0
291,8.0
292,8.0
293,8.0
294,8.0
295,8.0
296,8.0
297,8.0
298,8.0
299,8.0
300,8.0
