actions,scores
0,0
1,0
2,0.422
3,0.844
4,1.266
5,1.688
6,2.11
7,2.532
8,2.954
9,3.176
10,3.176
11,3.176
12,3.176
13,3.176
14,3.176
15,3.176
16,3.176
17,3.398
18,3.754
19,4.332000000000001
20,4.332000000000001
21,4.7540000000000004
22,4.7540000000000004
23,4.7540000000000004
24,5.332
25,5.688
26,5.688
27,5.688
28,5.688
29,5.688
30,5.688
31,5.688
32,5.688
33,5.688
34,5.688
35,5.688
36,5.688
37,5.91
38,5.91
39,5.91
40,5.91
41,5.91
42,5.91
43,6.266
44,6.266
45,6.266
46,6.266
47,6.266
48,6.266
49,6.266
50,6.266
51,6.488
52,6.488
53,6.488
54,6.488
55,6.488
56,6.488
57,6.488
58,6.488
59,6.488
60,6.488
61,6.666
62,6.666
63,6.888
64,6.888
65,6.888
66,6.888
67,6.888
68,7.022
69,7.022
70,7.022
71,7.022
72,7.022
73,7.022
74,7.022
75,7.022
76,7.022
77,7.022
78,7.022
79,7.022
80,7.022
81,7.022
82,7.022
83,7.422000000000001
84,7.422000000000001
85,7.422000000000001
86,7.422000000000001
87,7.422000000000001
88,7.422000000000001
89,7.422000000000001
90,7.422000000000001
91,7.422000000000001
92,7.422000000000001
93,7.422000000000001
94,7.422000000000001
95,7.422000000000001
96,7.422000000000001
97,7.422000000000001
98,7.422000000000001
99,7.422000000000001
100,7.422000000000001
101,7.422000000000001
102,7.422000000000001
103,7.422000000000001
104,7.422000000000001
105,7.422000000000001
106,7.422000000000001
107,7.422000000000001
108,7.422000000000001
109,7.422000000000001
110,7.422000000000001
111,7.422000000000001
112,7.422000000000001
113,7.422000000000001
114,7.422000000000001
115,7.422000000000001
116,7.422000000000001
117,7.422000000000001
118,7.422000000000001
119,7.422000000000001
120,7.422000000000001
121,7.422000000000001
122,7.422000000000001
123,7.422000000000001
124,7.422000000000001
125,7.422000000000001
126,7.422000000000001
127,7.422000000000001
128,7.422000000000001
129,7.422000000000001
130,7.422000000000001
131,7.422000000000001
132,7.422000000000001
133,7.422000000000001
134,7.422000000000001
135,7.422000000000001
136,7.422000000000001
137,7.422000000000001
138,7.422000000000001
139,7.422000000000001
140,7.422000000000001
141,7.422000000000001
142,7.422000000000001
143,7.422000000000001
144,7.7780000000000005
145,7.7780000000000005
146,7.7780000000000005
147,7.7780000000000005
148,7.7780000000000005
149,7.7780000000000005
150,7.7780000000000005
151,7.7780000000000005
152,7.7780000000000005
153,7.7780000000000005
154,7.7780000000000005
155,7.7780000000000005
156,7.7780000000000005
157,7.7780000000000005
158,7.7780000000000005
159,7.7780000000000005
160,7.7780000000000005
161,7.7780000000000005
162,7.7780000000000005
163,7.7780000000000005
164,7.7780000000000005
165,7.7780000000000005
166,7.7780000000000005
167,7.7780000000000005
168,7.7780000000000005
169,7.7780000000000005
170,7.7780000000000005
171,7.7780000000000005
172,7.7780000000000005
173,7.7780000000000005
174,7.7780000000000005
175,7.7780000000000005
176,7.7780000000000005
177,7.7780000000000005
178,7.7780000000000005
179,7.7780000000000005
180,7.7780000000000005
181,7.7780000000000005
182,7.7780000000000005
183,7.7780000000000005
184,7.7780000000000005
185,7.7780000000000005
186,7.7780000000000005
187,7.7780000000000005
188,7.7780000000000005
189,7.7780000000000005
190,7.7780000000000005
191,7.7780000000000005
192,7.7780000000000005
193,7.7780000000000005
194,7.7780000000000005
195,7.7780000000000005
196,7.7780000000000005
197,7.7780000000000005
198,7.7780000000000005
199,7.7780000000000005
200,7.7780000000000005
201,7.7780000000000005
202,7.7780000000000005
203,7.7780000000000005
204,7.7780000000000005
205,7.7780000000000005
206,7.7780000000000005
207,7.7780000000000005
208,7.7780000000000005
209,7.7780000000000005
210,7.7780000000000005
211,7.7780000000000005
212,7.7780000000000005
213,7.7780000000000005
214,7.7780000000000005
215,7.7780000000000005
216,7.7780000000000005
217,7.7780000000000005
218,7.7780000000000005
219,7.7780000000000005
220,7.7780000000000005
221,7.7780000000000005
222,7.7780000000000005
223,7.7780000000000005
224,7.7780000000000005
225,7.7780000000000005
226,7.7780000000000005
227,7.7780000000000005
228,7.7780000000000005
229,7.7780000000000005
230,7.7780000000000005
231,7.7780000000000005
232,7.7780000000000005
233,7.7780000000000005
234,7.7780000000000005
235,7.7780000000000005
236,7.7780000000000005
237,7.7780000000000005
238,7.7780000000000005
239,7.7780000000000005
240,7.7780000000000005
241,7.7780000000000005
242,7.7780000000000005
243,7.7780000000000005
244,7.7780000000000005
245,7.7780000000000005
246,7.7780000000000005
247,7.7780000000000005
248,7.7780000000000005
249,7.7780000000000005
250,7.7780000000000005
251,7.7780000000000005
252,7.7780000000000005
253,7.7780000000000005
254,7.7780000000000005
255,7.7780000000000005
256,7.7780000000000005
257,7.7780000000000005
258,7.7780000000000005
259,7.7780000000000005
260,7.7780000000000005
261,7.7780000000000005
262,7.7780000000000005
263,7.7780000000000005
264,7.7780000000000005
265,7.7780000000000005
266,7.7780000000000005
267,7.7780000000000005
268,7.7780000000000005
269,7.7780000000000005
270,7.7780000000000005
271,7.7780000000000005
272,7.7780000000000005
273,7.7780000000000005
274,7.7780000000000005
275,7.7780000000000005
276,7.7780000000000005
277,7.7780000000000005
278,7.7780000000000005
279,7.7780000000000005
280,7.7780000000000005
281,7.7780000000000005
282,7.7780000000000005
283,7.7780000000000005
284,7.7780000000000005
285,7.7780000000000005
286,7.7780000000000005
287,7.7780000000000005
288,7.7780000000000005
289,7.7780000000000005
290,7.7780000000000005
291,7.7780000000000005
292,7.7780000000000005
293,7.7780000000000005
294,7.7780000000000005
295,7.7780000000000005
296,7.7780000000000005
297,7.7780000000000005
298,7.7780000000000005
299,7.7780000000000005
300,7.7780000000000005
