actions,scores
0,0
1,0.478
2,0.956
3,0.956
4,1.434
5,1.434
6,1.912
7,2.3689999999999998
8,2.748
9,3.4150000000000005
10,3.4150000000000005
11,3.4150000000000005
12,3.4150000000000005
13,3.4150000000000005
14,4.082000000000001
15,4.082000000000001
16,4.082000000000001
17,4.082000000000001
18,4.082000000000001
19,4.082000000000001
20,4.082000000000001
21,4.6240000000000006
22,4.6240000000000006
23,4.6240000000000006
24,4.6240000000000006
25,4.6240000000000006
26,4.833
27,4.833
28,4.833
29,4.833
30,4.833
31,4.833
32,4.833
33,4.833
34,4.833
35,4.917
36,4.917
37,4.917
38,4.917
39,5.375
40,5.375
41,5.375
42,5.375
43,5.375
44,5.708
45,5.708
46,5.708
47,5.708
48,5.708
49,5.708
50,5.708
51,5.708
52,5.708
53,5.708
54,5.708
55,5.708
56,5.708
57,6.25
58,6.25
59,6.25
60,6.25
61,6.25
62,6.25
63,6.25
64,6.25
65,6.25
66,6.25
67,6.25
68,6.25
69,6.25
70,6.25
71,6.25
72,6.25
73,6.25
74,6.25
75,6.25
76,6.25
77,6.25
78,6.25
79,6.25
80,6.25
81,6.25
82,6.459
83,6.459
84,6.459
85,6.459
86,6.459
87,6.459
88,6.459
89,6.459
90,6.792
91,6.792
92,6.792
93,6.792
94,7.334
95,7.334
96,7.334
97,7.334
98,7.334
99,7.667
100,7.667
101,7.667
102,7.667
103,7.667
104,7.667
105,7.667
106,7.667
107,7.667
108,7.667
109,7.667
110,7.667
111,7.667
112,7.667
113,7.667
114,7.667
115,7.667
116,7.667
117,7.667
118,7.667
119,7.667
120,7.667
121,7.667
122,7.667
123,7.667
124,7.667
125,7.667
126,7.667
127,7.667
128,7.667
129,7.667
130,7.667
131,7.667
132,7.667
133,7.667
134,7.667
135,7.667
136,7.667
137,7.667
138,7.667
139,7.667
140,7.667
141,7.667
142,8.0
143,8.0
144,8.0
145,8.0
146,8.0
147,8.0
148,8.0
149,8.0
150,8.0
151,8.0
152,8.0
153,8.0
154,8.0
155,8.0
156,8.0
157,8.0
158,8.0
159,8.0
160,8.0
161,8.0
162,8.0
163,8.0
164,8.0
165,8.0
166,8.0
167,8.0
168,8.0
169,8.0
170,8.0
171,8.0
172,8.0
173,8.0
174,8.0
175,8.0
176,8.0
177,8.0
178,8.0
179,8.0
180,8.0
181,8.0
182,8.0
183,8.0
184,8.0
185,8.0
186,8.0
187,8.0
188,8.0
189,8.0
190,8.0
191,8.0
192,8.0
193,8.0
194,8.0
195,8.0
196,8.0
197,8.0
198,8.0
199,8.0
200,8.0
201,8.0
202,8.0
203,8.0
204,8.0
205,8.0
206,8.0
207,8.0
208,8.0
209,8.0
210,8.0
211,8.0
212,8.0
213,8.0
214,8.0
215,8.0
216,8.0
217,8.0
218,8.0
219,8.0
220,8.0
221,8.0
222,8.0
223,8.0
224,8.0
225,8.0
226,8.0
227,8.0
228,8.0
229,8.0
230,8.0
231,8.0
232,8.0
233,8.0
234,8.0
235,8.0
236,8.0
237,8.0
238,8.0
239,8.0
240,8.0
241,8.0
242,8.0
243,8.0
244,8.0
245,8.0
246,8.0
247,8.0
248,8.0
249,8.0
250,8.0
251,8.0
252,8.0
253,8.0
254,8.0
255,8.0
256,8.0
257,8.0
258,8.0
259,8.0
260,8.0
261,8.0
262,8.0
263,8.0
264,8.0
265,8.0
266,8.0
267,8.0
268,8.0
269,8.0
270,8.0
271,8.0
272,8.0
273,8.0
274,8.0
275,8.0
276,8.0
277,8.0
278,8.0
279,8.0
280,8.0
281,8.0
282,8.0
283,8.0
284,8.0
285,8.0
286,8.0
287,8.0
288,8.0
289,8.0
290,8.0
291,8.0
292,8.0
293,8.0
294,8.0
295,8.0
296,8.0
297,8.0
298,8.0
299,8.0
300,8.0
