actions,scores
0,0
1,0
2,0.457
3,0.935
4,1.374
5,1.832
6,2.29
7,2.748
8,3.2060000000000004
9,3.2060000000000004
10,3.2060000000000004
11,3.8730000000000007
12,3.8730000000000007
13,3.8730000000000007
14,3.8730000000000007
15,3.8730000000000007
16,3.8730000000000007
17,4.415000000000001
18,4.415000000000001
19,4.415000000000001
20,4.748
21,4.748
22,4.748
23,4.748
24,4.748
25,4.915
26,5.165
27,5.165
28,5.165
29,5.165
30,5.165
31,5.707000000000001
32,5.707000000000001
33,5.707000000000001
34,5.707000000000001
35,6.2490000000000006
36,6.2490000000000006
37,6.2490000000000006
38,6.2490000000000006
39,6.2490000000000006
40,6.4990000000000006
41,6.4990000000000006
42,6.4990000000000006
43,6.4990000000000006
44,6.4990000000000006
45,6.4990000000000006
46,6.4990000000000006
47,6.4990000000000006
48,6.8740000000000006
49,6.8740000000000006
50,6.8740000000000006
51,6.8740000000000006
52,6.8740000000000006
53,6.8740000000000006
54,6.8740000000000006
55,6.8740000000000006
56,6.8740000000000006
57,6.8740000000000006
58,6.8740000000000006
59,6.8740000000000006
60,6.8740000000000006
61,6.8740000000000006
62,6.8740000000000006
63,6.8740000000000006
64,6.8740000000000006
65,7.166
66,7.166
67,7.166
68,7.166
69,7.166
70,7.166
71,7.166
72,7.166
73,7.166
74,7.166
75,7.166
76,7.166
77,7.166
78,7.166
79,7.166
80,7.166
81,7.166
82,7.166
83,7.166
84,7.166
85,7.166
86,7.166
87,7.166
88,7.166
89,7.166
90,7.166
91,7.166
92,7.166
93,7.166
94,7.166
95,7.166
96,7.458
97,7.458
98,7.458
99,7.458
100,7.458
101,7.667
102,7.667
103,7.667
104,7.667
105,7.667
106,7.667
107,7.667
108,7.667
109,7.667
110,7.667
111,7.667
112,7.667
113,7.667
114,7.667
115,7.667
116,7.667
117,7.667
118,7.667
119,7.667
120,8.0
121,8.0
122,8.0
123,8.0
124,8.0
125,8.0
126,8.0
127,8.0
128,8.0
129,8.0
130,8.0
131,8.0
132,8.0
133,8.0
134,8.0
135,8.0
136,8.0
137,8.0
138,8.0
139,8.0
140,8.0
141,8.0
142,8.0
143,8.0
144,8.0
145,8.0
146,8.0
147,8.0
148,8.0
149,8.0
150,8.0
151,8.0
152,8.0
153,8.0
154,8.0
155,8.0
156,8.0
157,8.0
158,8.0
159,8.0
160,8.0
161,8.0
162,8.0
163,8.0
164,8.0
165,8.0
166,8.0
167,8.0
168,8.0
169,8.0
170,8.0
171,8.0
172,8.0
173,8.0
174,8.0
175,8.0
176,8.0
177,8.0
178,8.0
179,8.0
180,8.0
181,8.0
182,8.0
183,8.0
184,8.0
185,8.0
186,8.0
187,8.0
188,8.0
189,8.0
190,8.0
191,8.0
192,8.0
193,8.0
194,8.0
195,8.0
196,8.0
197,8.0
198,8.0
199,8.0
200,8.0
201,8.0
202,8.0
203,8.0
204,8.0
205,8.0
206,8.0
207,8.0
208,8.0
209,8.0
210,8.0
211,8.0
212,8.0
213,8.0
214,8.0
215,8.0
216,8.0
217,8.0
218,8.0
219,8.0
220,8.0
221,8.0
222,8.0
223,8.0
224,8.0
225,8.0
226,8.0
227,8.0
228,8.0
229,8.0
230,8.0
231,8.0
232,8.0
233,8.0
234,8.0
235,8.0
236,8.0
237,8.0
238,8.0
239,8.0
240,8.0
241,8.0
242,8.0
243,8.0
244,8.0
245,8.0
246,8.0
247,8.0
248,8.0
249,8.0
250,8.0
251,8.0
252,8.0
253,8.0
254,8.0
255,8.0
256,8.0
257,8.0
258,8.0
259,8.0
260,8.0
261,8.0
262,8.0
263,8.0
264,8.0
265,8.0
266,8.0
267,8.0
268,8.0
269,8.0
270,8.0
271,8.0
272,8.0
273,8.0
274,8.0
275,8.0
276,8.0
277,8.0
278,8.0
279,8.0
280,8.0
281,8.0
282,8.0
283,8.0
284,8.0
285,8.0
286,8.0
287,8.0
288,8.0
289,8.0
290,8.0
291,8.0
292,8.0
293,8.0
294,8.0
295,8.0
296,8.0
297,8.0
298,8.0
299,8.0
300,8.0
