actions,scores
0,0
1,0
2,0.419
3,0.861
4,1.28
5,1.722
6,2.28
7,2.28
8,2.28
9,2.7220000000000004
10,2.688
11,2.955
12,2.955
13,3.0210000000000004
14,3.1100000000000003
15,3.1100000000000003
16,3.3770000000000002
17,3.3770000000000002
18,3.3770000000000002
19,3.644
20,3.644
21,3.644
22,3.644
23,3.644
24,3.644
25,4.066
26,4.066
27,4.066
28,4.066
29,4.066
30,4.244
31,4.244
32,4.6659999999999995
33,4.976999999999999
34,4.976999999999999
35,4.976999999999999
36,4.976999999999999
37,4.976999999999999
38,4.976999999999999
39,4.976999999999999
40,4.976999999999999
41,4.976999999999999
42,4.976999999999999
43,4.976999999999999
44,4.976999999999999
45,4.976999999999999
46,4.976999999999999
47,4.976999999999999
48,5.288
49,5.288
50,5.288
51,5.288
52,5.288
53,5.288
54,5.288
55,5.288
56,5.288
57,5.288
58,5.288
59,5.288
60,5.288
61,5.288
62,5.288
63,5.688
64,5.688
65,5.688
66,5.909999999999999
67,5.909999999999999
68,5.909999999999999
69,5.909999999999999
70,5.909999999999999
71,5.909999999999999
72,5.909999999999999
73,5.909999999999999
74,5.909999999999999
75,6.4879999999999995
76,6.4879999999999995
77,6.4879999999999995
78,6.4879999999999995
79,6.4879999999999995
80,6.4879999999999995
81,6.4879999999999995
82,6.4879999999999995
83,6.844
84,6.844
85,6.844
86,6.844
87,6.844
88,6.844
89,6.844
90,7.422
91,7.422
92,7.422
93,7.689
94,7.689
95,7.689
96,7.689
97,7.689
98,7.689
99,7.689
100,7.689
101,7.689
102,7.689
103,7.689
104,7.689
105,7.689
106,7.689
107,7.689
108,7.689
109,7.689
110,7.689
111,7.689
112,7.689
113,7.689
114,7.689
115,7.689
116,7.689
117,7.689
118,7.689
119,7.689
120,7.689
121,7.689
122,7.689
123,8.0
124,8.0
125,8.0
126,8.0
127,8.0
128,8.0
129,8.0
130,8.0
131,8.0
132,8.0
133,8.0
134,8.0
135,8.0
136,8.0
137,8.0
138,8.0
139,8.0
140,8.0
141,8.0
142,8.0
143,8.0
144,8.0
145,8.0
146,8.0
147,8.0
148,8.0
149,8.0
150,8.0
151,8.0
152,8.0
153,8.0
154,8.0
155,8.0
156,8.0
157,8.0
158,8.0
159,8.0
160,8.0
161,8.0
162,8.0
163,8.0
164,8.0
165,8.0
166,8.0
167,8.0
168,8.0
169,8.0
170,8.0
171,8.0
172,8.0
173,8.0
174,8.0
175,8.0
176,8.0
177,8.0
178,8.0
179,8.0
180,8.0
181,8.0
182,8.0
183,8.0
184,8.0
185,8.0
186,8.0
187,8.0
188,8.0
189,8.0
190,8.0
191,8.0
192,8.0
193,8.0
194,8.0
195,8.0
196,8.0
197,8.0
198,8.0
199,8.0
200,8.0
201,8.0
202,8.0
203,8.0
204,8.0
205,8.0
206,8.0
207,8.0
208,8.0
209,8.0
210,8.0
211,8.0
212,8.0
213,8.0
214,8.0
215,8.0
216,8.0
217,8.0
218,8.0
219,8.0
220,8.0
221,8.0
222,8.0
223,8.0
224,8.0
225,8.0
226,8.0
227,8.0
228,8.0
229,8.0
230,8.0
231,8.0
232,8.0
233,8.0
234,8.0
235,8.0
236,8.0
237,8.0
238,8.0
239,8.0
240,8.0
241,8.0
242,8.0
243,8.0
244,8.0
245,8.0
246,8.0
247,8.0
248,8.0
249,8.0
250,8.0
251,8.0
252,8.0
253,8.0
254,8.0
255,8.0
256,8.0
257,8.0
258,8.0
259,8.0
260,8.0
261,8.0
262,8.0
263,8.0
264,8.0
265,8.0
266,8.0
267,8.0
268,8.0
269,8.0
270,8.0
271,8.0
272,8.0
273,8.0
274,8.0
275,8.0
276,8.0
277,8.0
278,8.0
279,8.0
280,8.0
281,8.0
282,8.0
283,8.0
284,8.0
285,8.0
286,8.0
287,8.0
288,8.0
289,8.0
290,8.0
291,8.0
292,8.0
293,8.0
294,8.0
295,8.0
296,8.0
297,8.0
298,8.0
299,8.0
300,8.0
