actions,scores
0,0
1,0
2,0
3,0.442
4,0.442
5,0.884
6,1.326
7,1.7449999999999999
8,1.7449999999999999
9,2.303
10,2.303
11,2.303
12,2.7910000000000004
13,2.7910000000000004
14,3.1550000000000002
15,3.644
16,3.644
17,3.644
18,4.0
19,4.5329999999999995
20,4.5329999999999995
21,4.5329999999999995
22,4.5329999999999995
23,4.643999999999999
24,5.2219999999999995
25,5.2219999999999995
26,5.2219999999999995
27,5.2219999999999995
28,5.2219999999999995
29,5.2219999999999995
30,5.2219999999999995
31,5.2219999999999995
32,5.2219999999999995
33,5.2219999999999995
34,5.2219999999999995
35,5.2219999999999995
36,5.2219999999999995
37,5.288
38,5.288
39,5.288
40,5.288
41,5.288
42,5.51
43,5.777
44,5.777
45,5.955
46,5.955
47,5.955
48,5.955
49,5.955
50,5.955
51,6.311
52,6.355
53,6.355
54,6.355
55,6.355
56,6.355
57,6.355
58,6.355
59,6.355
60,6.355
61,6.355
62,6.355
63,6.355
64,6.755000000000001
65,6.977
66,6.977
67,7.333
68,7.333
69,7.333
70,7.333
71,7.333
72,7.333
73,7.333
74,7.333
75,7.333
76,7.333
77,7.333
78,7.333
79,7.333
80,7.333
81,7.333
82,7.7330000000000005
83,7.7330000000000005
84,7.7330000000000005
85,7.7330000000000005
86,7.7330000000000005
87,7.7330000000000005
88,7.7330000000000005
89,7.7330000000000005
90,7.7330000000000005
91,7.7330000000000005
92,7.7330000000000005
93,7.7330000000000005
94,7.7330000000000005
95,7.7330000000000005
96,7.7330000000000005
97,7.7330000000000005
98,7.7330000000000005
99,7.7330000000000005
100,7.7330000000000005
101,7.7330000000000005
102,7.7330000000000005
103,7.7330000000000005
104,7.7330000000000005
105,7.7330000000000005
106,7.7330000000000005
107,7.7330000000000005
108,7.7330000000000005
109,7.7330000000000005
110,7.7330000000000005
111,7.7330000000000005
112,7.7330000000000005
113,7.7330000000000005
114,7.7330000000000005
115,7.7330000000000005
116,7.7330000000000005
117,7.7330000000000005
118,7.7330000000000005
119,7.7330000000000005
120,7.7330000000000005
121,7.7330000000000005
122,7.7330000000000005
123,7.7330000000000005
124,7.7330000000000005
125,7.7330000000000005
126,7.7330000000000005
127,7.7330000000000005
128,7.7330000000000005
129,7.7330000000000005
130,7.7330000000000005
131,7.7330000000000005
132,7.7330000000000005
133,7.7330000000000005
134,7.7330000000000005
135,7.7330000000000005
136,7.7330000000000005
137,7.7330000000000005
138,7.7330000000000005
139,7.7330000000000005
140,7.7330000000000005
141,7.7330000000000005
142,7.7330000000000005
143,7.7330000000000005
144,7.7330000000000005
145,7.7330000000000005
146,7.7330000000000005
147,7.7330000000000005
148,7.7330000000000005
149,7.7330000000000005
150,7.7330000000000005
151,7.7330000000000005
152,7.7330000000000005
153,7.7330000000000005
154,7.7330000000000005
155,7.7330000000000005
156,7.7330000000000005
157,8.0
158,8.0
159,8.0
160,8.0
161,8.0
162,8.0
163,8.0
164,8.0
165,8.0
166,8.0
167,8.0
168,8.0
169,8.0
170,8.0
171,8.0
172,8.0
173,8.0
174,8.0
175,8.0
176,8.0
177,8.0
178,8.0
179,8.0
180,8.0
181,8.0
182,8.0
183,8.0
184,8.0
185,8.0
186,8.0
187,8.0
188,8.0
189,8.0
190,8.0
191,8.0
192,8.0
193,8.0
194,8.0
195,8.0
196,8.0
197,8.0
198,8.0
199,8.0
200,8.0
201,8.0
202,8.0
203,8.0
204,8.0
205,8.0
206,8.0
207,8.0
208,8.0
209,8.0
210,8.0
211,8.0
212,8.0
213,8.0
214,8.0
215,8.0
216,8.0
217,8.0
218,8.0
219,8.0
220,8.0
221,8.0
222,8.0
223,8.0
224,8.0
225,8.0
226,8.0
227,8.0
228,8.0
229,8.0
230,8.0
231,8.0
232,8.0
233,8.0
234,8.0
235,8.0
236,8.0
237,8.0
238,8.0
239,8.0
240,8.0
241,8.0
242,8.0
243,8.0
244,8.0
245,8.0
246,8.0
247,8.0
248,8.0
249,8.0
250,8.0
251,8.0
252,8.0
253,8.0
254,8.0
255,8.0
256,8.0
257,8.0
258,8.0
259,8.0
260,8.0
261,8.0
262,8.0
263,8.0
264,8.0
265,8.0
266,8.0
267,8.0
268,8.0
269,8.0
270,8.0
271,8.0
272,8.0
273,8.0
274,8.0
275,8.0
276,8.0
277,8.0
278,8.0
279,8.0
280,8.0
281,8.0
282,8.0
283,8.0
284,8.0
285,8.0
286,8.0
287,8.0
288,8.0
289,8.0
290,8.0
291,8.0
292,8.0
293,8.0
294,8.0
295,8.0
296,8.0
297,8.0
298,8.0
299,8.0
300,8.0
