actions,scores
0,0
1,0
2,0.419
3,0.861
4,1.233
5,1.6520000000000001
6,2.0940000000000003
7,2.044
8,2.044
9,2.044
10,2.044
11,2.266
12,2.266
13,2.266
14,2.266
15,2.266
16,2.266
17,2.266
18,2.8440000000000003
19,3.2660000000000005
20,3.2660000000000005
21,3.2660000000000005
22,3.2660000000000005
23,3.2660000000000005
24,3.6880000000000006
25,4.332
26,4.9319999999999995
27,4.9319999999999995
28,4.9319999999999995
29,4.9319999999999995
30,4.9319999999999995
31,4.9319999999999995
32,4.9319999999999995
33,4.9319999999999995
34,4.9319999999999995
35,4.9319999999999995
36,4.9319999999999995
37,4.9319999999999995
38,5.331999999999999
39,5.331999999999999
40,5.331999999999999
41,5.331999999999999
42,5.331999999999999
43,5.331999999999999
44,5.553999999999999
45,5.553999999999999
46,5.553999999999999
47,5.553999999999999
48,5.553999999999999
49,5.909999999999999
50,5.909999999999999
51,5.909999999999999
52,5.909999999999999
53,5.909999999999999
54,5.909999999999999
55,6.265999999999999
56,6.265999999999999
57,6.265999999999999
58,6.843999999999999
59,6.843999999999999
60,6.843999999999999
61,6.843999999999999
62,6.843999999999999
63,6.843999999999999
64,6.843999999999999
65,6.843999999999999
66,6.843999999999999
67,6.843999999999999
68,6.843999999999999
69,6.843999999999999
70,6.843999999999999
71,6.843999999999999
72,6.843999999999999
73,6.843999999999999
74,6.843999999999999
75,6.843999999999999
76,6.843999999999999
77,6.843999999999999
78,6.843999999999999
79,6.843999999999999
80,6.843999999999999
81,6.843999999999999
82,6.843999999999999
83,6.843999999999999
84,6.843999999999999
85,6.843999999999999
86,6.843999999999999
87,6.843999999999999
88,6.843999999999999
89,6.843999999999999
90,6.843999999999999
91,6.843999999999999
92,7.066
93,7.066
94,7.066
95,7.066
96,7.066
97,7.066
98,7.066
99,7.066
100,7.066
101,7.066
102,7.066
103,7.066
104,7.066
105,7.066
106,7.066
107,7.066
108,7.066
109,7.066
110,7.066
111,7.066
112,7.066
113,7.066
114,7.066
115,7.066
116,7.644
117,7.644
118,7.644
119,7.644
120,7.644
121,7.644
122,7.644
123,7.644
124,7.644
125,7.644
126,7.644
127,7.644
128,7.644
129,7.644
130,7.644
131,7.644
132,7.644
133,7.644
134,7.644
135,7.644
136,7.644
137,7.644
138,7.644
139,7.644
140,7.644
141,7.644
142,7.644
143,7.644
144,7.644
145,7.644
146,7.644
147,7.644
148,7.644
149,7.644
150,7.644
151,7.644
152,7.644
153,7.644
154,7.644
155,7.644
156,7.644
157,7.644
158,7.644
159,7.644
160,7.644
161,7.644
162,7.644
163,7.644
164,7.644
165,7.644
166,7.644
167,7.644
168,7.644
169,7.644
170,7.644
171,7.644
172,7.644
173,7.644
174,7.644
175,7.644
176,7.644
177,7.644
178,7.644
179,7.644
180,7.644
181,7.644
182,7.644
183,7.644
184,7.644
185,7.644
186,7.644
187,7.644
188,7.644
189,7.644
190,7.644
191,7.644
192,7.644
193,7.644
194,7.644
195,7.644
196,7.644
197,7.644
198,7.644
199,7.644
200,7.644
201,7.644
202,7.644
203,7.644
204,7.644
205,7.644
206,7.644
207,7.644
208,7.644
209,7.644
210,7.644
211,7.644
212,7.644
213,7.644
214,7.644
215,7.644
216,7.644
217,7.644
218,7.644
219,7.644
220,7.644
221,7.644
222,7.644
223,7.644
224,7.644
225,7.644
226,7.644
227,7.644
228,7.644
229,7.644
230,7.644
231,7.644
232,7.644
233,7.644
234,7.644
235,7.644
236,7.644
237,7.644
238,7.644
239,7.644
240,7.644
241,7.644
242,7.644
243,7.644
244,7.644
245,7.644
246,7.644
247,7.644
248,7.644
249,7.644
250,7.644
251,7.644
252,7.644
253,7.644
254,7.644
255,7.644
256,7.644
257,7.644
258,7.644
259,7.644
260,7.644
261,7.644
262,7.644
263,7.644
264,7.644
265,7.644
266,7.644
267,7.644
268,7.644
269,7.644
270,7.644
271,7.644
272,7.644
273,7.644
274,7.644
275,7.644
276,7.644
277,7.644
278,7.644
279,7.644
280,7.644
281,7.644
282,8.0
283,8.0
284,8.0
285,8.0
286,8.0
287,8.0
288,8.0
289,8.0
290,8.0
291,8.0
292,8.0
293,8.0
294,8.0
295,8.0
296,8.0
297,8.0
298,8.0
299,8.0
300,8.0
