actions,scores
0,0
1,0.478
2,0.478
3,1.0
4,1.0
5,1.0
6,1.0
7,1.457
8,1.875
9,1.875
10,1.875
11,1.875
12,2.458
13,2.916
14,3.374
15,3.374
16,3.374
17,3.8320000000000003
18,3.8320000000000003
19,4.4990000000000006
20,4.582000000000001
21,4.7490000000000006
22,5.291
23,5.291
24,5.291
25,5.291
26,5.291
27,5.541
28,5.916
29,6.166
30,6.166
31,6.166
32,6.166
33,6.166
34,6.166
35,6.416
36,6.416
37,6.416
38,6.416
39,6.958
40,6.958
41,6.958
42,6.958
43,6.958
44,6.958
45,6.958
46,6.958
47,7.25
48,7.25
49,7.25
50,7.25
51,7.25
52,7.25
53,7.25
54,7.25
55,7.25
56,7.25
57,7.25
58,7.25
59,7.25
60,7.25
61,7.25
62,7.25
63,7.25
64,7.25
65,7.25
66,7.25
67,7.25
68,7.25
69,7.25
70,7.25
71,7.25
72,7.25
73,7.25
74,7.25
75,7.25
76,7.25
77,7.25
78,7.25
79,7.25
80,7.25
81,7.25
82,7.25
83,7.25
84,7.25
85,7.25
86,7.25
87,7.708
88,7.708
89,7.708
90,8.0
91,8.0
92,8.0
93,8.0
94,8.0
95,8.0
96,8.0
97,8.0
98,8.0
99,8.0
100,8.0
101,8.0
102,8.0
103,8.0
104,8.0
105,8.0
106,8.0
107,8.0
108,8.0
109,8.0
110,8.0
111,8.0
112,8.0
113,8.0
114,8.0
115,8.0
116,8.0
117,8.0
118,8.0
119,8.0
120,8.0
121,8.0
122,8.0
123,8.0
124,8.0
125,8.0
126,8.0
127,8.0
128,8.0
129,8.0
130,8.0
131,8.0
132,8.0
133,8.0
134,8.0
135,8.0
136,8.0
137,8.0
138,8.0
139,8.0
140,8.0
141,8.0
142,8.0
143,8.0
144,8.0
145,8.0
146,8.0
147,8.0
148,8.0
149,8.0
150,8.0
151,8.0
152,8.0
153,8.0
154,8.0
155,8.0
156,8.0
157,8.0
158,8.0
159,8.0
160,8.0
161,8.0
162,8.0
163,8.0
164,8.0
165,8.0
166,8.0
167,8.0
168,8.0
169,8.0
170,8.0
171,8.0
172,8.0
173,8.0
174,8.0
175,8.0
176,8.0
177,8.0
178,8.0
179,8.0
180,8.0
181,8.0
182,8.0
183,8.0
184,8.0
185,8.0
186,8.0
187,8.0
188,8.0
189,8.0
190,8.0
191,8.0
192,8.0
193,8.0
194,8.0
195,8.0
196,8.0
197,8.0
198,8.0
199,8.0
200,8.0
201,8.0
202,8.0
203,8.0
204,8.0
205,8.0
206,8.0
207,8.0
208,8.0
209,8.0
210,8.0
211,8.0
212,8.0
213,8.0
214,8.0
215,8.0
216,8.0
217,8.0
218,8.0
219,8.0
220,8.0
221,8.0
222,8.0
223,8.0
224,8.0
225,8.0
226,8.0
227,8.0
228,8.0
229,8.0
230,8.0
231,8.0
232,8.0
233,8.0
234,8.0
235,8.0
236,8.0
237,8.0
238,8.0
239,8.0
240,8.0
241,8.0
242,8.0
243,8.0
244,8.0
245,8.0
246,8.0
247,8.0
248,8.0
249,8.0
250,8.0
251,8.0
252,8.0
253,8.0
254,8.0
255,8.0
256,8.0
257,8.0
258,8.0
259,8.0
260,8.0
261,8.0
262,8.0
263,8.0
264,8.0
265,8.0
266,8.0
267,8.0
268,8.0
269,8.0
270,8.0
271,8.0
272,8.0
273,8.0
274,8.0
275,8.0
276,8.0
277,8.0
278,8.0
279,8.0
280,8.0
281,8.0
282,8.0
283,8.0
284,8.0
285,8.0
286,8.0
287,8.0
288,8.0
289,8.0
290,8.0
291,8.0
292,8.0
293,8.0
294,8.0
295,8.0
296,8.0
297,8.0
298,8.0
299,8.0
300,8.0
