actions,scores
0,0
1,0
2,0
3,0.478
4,0.956
5,1.434
6,1.832
7,1.832
8,2.29
9,2.9570000000000007
10,2.9570000000000007
11,2.9570000000000007
12,2.9570000000000007
13,2.9570000000000007
14,2.9570000000000007
15,2.9570000000000007
16,3.6240000000000006
17,3.6240000000000006
18,3.6240000000000006
19,3.6240000000000006
20,4.6240000000000006
21,4.6240000000000006
22,4.6240000000000006
23,4.6240000000000006
24,4.6240000000000006
25,4.6240000000000006
26,4.6240000000000006
27,4.6240000000000006
28,4.6240000000000006
29,4.6240000000000006
30,4.6240000000000006
31,4.6240000000000006
32,4.6240000000000006
33,4.6240000000000006
34,5.166
35,5.166
36,5.166
37,5.166
38,5.166
39,5.166
40,5.166
41,5.166
42,5.166
43,5.416
44,5.416
45,5.416
46,5.416
47,5.416
48,5.416
49,5.958
50,5.958
51,5.958
52,5.958
53,5.958
54,5.958
55,5.958
56,5.958
57,5.958
58,5.958
59,5.958
60,5.958
61,5.958
62,5.958
63,5.958
64,5.958
65,5.958
66,5.958
67,6.167000000000001
68,6.167000000000001
69,6.167000000000001
70,6.5
71,6.5
72,6.5
73,6.5
74,6.5
75,6.5
76,6.5
77,6.5
78,6.5
79,6.5
80,6.5
81,6.5
82,6.5
83,6.5
84,6.5
85,6.584
86,6.584
87,6.584
88,6.584
89,6.584
90,6.584
91,6.584
92,6.584
93,6.584
94,6.584
95,6.584
96,6.584
97,6.584
98,6.584
99,6.584
100,6.584
101,6.584
102,6.584
103,6.584
104,6.584
105,6.584
106,6.584
107,6.584
108,6.584
109,6.584
110,6.584
111,6.584
112,6.584
113,6.584
114,7.1259999999999994
115,7.1259999999999994
116,7.1259999999999994
117,7.1259999999999994
118,7.1259999999999994
119,7.1259999999999994
120,7.1259999999999994
121,7.1259999999999994
122,7.1259999999999994
123,7.1259999999999994
124,7.1259999999999994
125,7.1259999999999994
126,7.1259999999999994
127,7.1259999999999994
128,7.1259999999999994
129,7.1259999999999994
130,7.1259999999999994
131,7.1259999999999994
132,7.1259999999999994
133,7.1259999999999994
134,7.1259999999999994
135,7.1259999999999994
136,7.1259999999999994
137,7.1259999999999994
138,7.1259999999999994
139,7.1259999999999994
140,7.1259999999999994
141,7.1259999999999994
142,7.1259999999999994
143,7.1259999999999994
144,7.1259999999999994
145,7.1259999999999994
146,7.1259999999999994
147,7.1259999999999994
148,7.1259999999999994
149,7.1259999999999994
150,7.1259999999999994
151,7.1259999999999994
152,7.1259999999999994
153,7.1259999999999994
154,7.459
155,7.459
156,7.459
157,7.459
158,7.459
159,7.459
160,7.667
161,7.667
162,7.667
163,7.667
164,7.667
165,7.667
166,7.667
167,7.667
168,7.667
169,7.667
170,7.667
171,7.667
172,7.667
173,7.667
174,7.667
175,7.667
176,7.667
177,7.667
178,7.667
179,7.667
180,7.667
181,7.667
182,7.667
183,7.667
184,7.667
185,7.667
186,7.667
187,7.667
188,7.667
189,7.667
190,7.667
191,7.667
192,7.667
193,7.667
194,7.667
195,7.667
196,7.667
197,7.667
198,7.667
199,7.667
200,7.667
201,7.667
202,7.667
203,7.667
204,7.667
205,7.667
206,7.667
207,7.667
208,7.667
209,7.667
210,7.667
211,7.667
212,7.667
213,7.667
214,7.667
215,7.667
216,7.667
217,7.667
218,7.667
219,7.667
220,7.667
221,7.667
222,7.667
223,7.667
224,7.667
225,7.667
226,7.667
227,7.667
228,7.667
229,7.667
230,7.667
231,7.667
232,7.667
233,7.667
234,7.667
235,7.667
236,7.667
237,7.667
238,7.667
239,7.667
240,7.667
241,7.667
242,7.667
243,7.667
244,7.667
245,7.667
246,7.667
247,7.667
248,7.667
249,7.667
250,7.667
251,7.667
252,7.667
253,7.667
254,7.667
255,7.667
256,7.667
257,7.667
258,7.667
259,7.667
260,7.667
261,7.667
262,7.667
263,7.667
264,7.667
265,7.667
266,7.667
267,7.667
268,7.667
269,7.667
270,7.667
271,7.667
272,7.667
273,7.667
274,7.667
275,7.667
276,7.667
277,7.667
278,7.667
279,7.667
280,7.667
281,7.667
282,7.667
283,7.667
284,7.667
285,7.667
286,7.667
287,7.667
288,7.667
289,7.667
290,7.667
291,7.667
292,7.667
293,7.667
294,7.667
295,7.667
296,7.667
297,7.667
298,7.667
299,7.667
300,7.667
