actions,scores
0,0
1,0.478
2,0.956
3,1.434
4,1.912
5,2.434
6,2.434
7,2.652
8,2.652
9,2.652
10,2.583
11,2.583
12,2.583
13,2.833
14,2.833
15,3.2910000000000004
16,3.2910000000000004
17,3.7490000000000006
18,3.7490000000000006
19,3.958
20,3.958
21,3.958
22,4.416
23,5.416
24,5.416
25,5.75
26,5.75
27,5.75
28,5.75
29,5.75
30,5.75
31,5.75
32,5.75
33,5.75
34,5.75
35,5.75
36,5.958
37,5.958
38,5.958
39,5.958
40,5.958
41,5.958
42,6.167
43,6.5
44,6.5
45,6.5
46,6.5
47,6.5
48,6.5
49,6.5
50,6.5
51,6.5
52,6.667
53,6.667
54,6.792
55,6.792
56,6.792
57,6.792
58,6.792
59,6.792
60,6.792
61,6.792
62,7.125
63,7.125
64,7.125
65,7.125
66,7.125
67,7.125
68,7.125
69,7.125
70,7.125
71,7.125
72,7.125
73,7.125
74,7.125
75,7.125
76,7.125
77,7.125
78,7.125
79,7.125
80,7.125
81,7.125
82,7.125
83,7.125
84,7.417
85,7.417
86,7.417
87,7.417
88,7.417
89,7.417
90,7.792
91,7.792
92,7.792
93,7.792
94,7.792
95,7.792
96,7.792
97,8.0
98,8.0
99,8.0
100,8.0
101,8.0
102,8.0
103,8.0
104,8.0
105,8.0
106,8.0
107,8.0
108,8.0
109,8.0
110,8.0
111,8.0
112,8.0
113,8.0
114,8.0
115,8.0
116,8.0
117,8.0
118,8.0
119,8.0
120,8.0
121,8.0
122,8.0
123,8.0
124,8.0
125,8.0
126,8.0
127,8.0
128,8.0
129,8.0
130,8.0
131,8.0
132,8.0
133,8.0
134,8.0
135,8.0
136,8.0
137,8.0
138,8.0
139,8.0
140,8.0
141,8.0
142,8.0
143,8.0
144,8.0
145,8.0
146,8.0
147,8.0
148,8.0
149,8.0
150,8.0
151,8.0
152,8.0
153,8.0
154,8.0
155,8.0
156,8.0
157,8.0
158,8.0
159,8.0
160,8.0
161,8.0
162,8.0
163,8.0
164,8.0
165,8.0
166,8.0
167,8.0
168,8.0
169,8.0
170,8.0
171,8.0
172,8.0
173,8.0
174,8.0
175,8.0
176,8.0
177,8.0
178,8.0
179,8.0
180,8.0
181,8.0
182,8.0
183,8.0
184,8.0
185,8.0
186,8.0
187,8.0
188,8.0
189,8.0
190,8.0
191,8.0
192,8.0
193,8.0
194,8.0
195,8.0
196,8.0
197,8.0
198,8.0
199,8.0
200,8.0
201,8.0
202,8.0
203,8.0
204,8.0
205,8.0
206,8.0
207,8.0
208,8.0
209,8.0
210,8.0
211,8.0
212,8.0
213,8.0
214,8.0
215,8.0
216,8.0
217,8.0
218,8.0
219,8.0
220,8.0
221,8.0
222,8.0
223,8.0
224,8.0
225,8.0
226,8.0
227,8.0
228,8.0
229,8.0
230,8.0
231,8.0
232,8.0
233,8.0
234,8.0
235,8.0
236,8.0
237,8.0
238,8.0
239,8.0
240,8.0
241,8.0
242,8.0
243,8.0
244,8.0
245,8.0
246,8.0
247,8.0
248,8.0
249,8.0
250,8.0
251,8.0
252,8.0
253,8.0
254,8.0
255,8.0
256,8.0
257,8.0
258,8.0
259,8.0
260,8.0
261,8.0
262,8.0
263,8.0
264,8.0
265,8.0
266,8.0
267,8.0
268,8.0
269,8.0
270,8.0
271,8.0
272,8.0
273,8.0
274,8.0
275,8.0
276,8.0
277,8.0
278,8.0
279,8.0
280,8.0
281,8.0
282,8.0
283,8.0
284,8.0
285,8.0
286,8.0
287,8.0
288,8.0
289,8.0
290,8.0
291,8.0
292,8.0
293,8.0
294,8.0
295,8.0
296,8.0
297,8.0
298,8.0
299,8.0
300,8.0
