actions,scores
0,0
1,0
2,0.457
3,0.458
4,0.458
5,0.458
6,0.708
7,0.708
8,0.708
9,1.166
10,1.6239999999999999
11,2.332
12,2.332
13,2.79
14,2.79
15,2.79
16,3.498
17,3.498
18,3.498
19,4.165
20,4.165
21,4.165
22,4.165
23,4.623
24,4.623
25,4.623
26,4.623
27,4.623
28,4.623
29,4.832000000000001
30,4.832000000000001
31,4.832000000000001
32,4.832000000000001
33,5.041
34,5.333
35,5.333
36,5.333
37,5.333
38,5.333
39,5.333
40,5.333
41,5.333
42,5.333
43,5.333
44,5.333
45,5.333
46,5.333
47,5.333
48,5.333
49,5.333
50,5.333
51,5.333
52,5.333
53,5.333
54,5.333
55,5.333
56,5.333
57,5.333
58,5.666
59,5.666
60,5.666
61,5.666
62,5.666
63,5.666
64,5.666
65,5.666
66,5.666
67,5.916
68,5.916
69,5.916
70,6.2490000000000006
71,6.2490000000000006
72,6.2490000000000006
73,6.2490000000000006
74,6.2490000000000006
75,6.2490000000000006
76,6.2490000000000006
77,6.2490000000000006
78,6.2490000000000006
79,6.4990000000000006
80,6.4990000000000006
81,6.4990000000000006
82,6.4990000000000006
83,6.4990000000000006
84,6.4990000000000006
85,6.4990000000000006
86,6.791
87,6.791
88,6.791
89,6.791
90,6.791
91,6.791
92,6.791
93,6.791
94,6.791
95,6.791
96,6.791
97,6.791
98,6.791
99,6.791
100,6.791
101,6.791
102,6.791
103,6.791
104,6.791
105,6.791
106,6.791
107,6.791
108,6.791
109,6.791
110,6.791
111,6.791
112,6.791
113,6.791
114,6.791
115,7.1240000000000006
116,7.1240000000000006
117,7.1240000000000006
118,7.1240000000000006
119,7.1240000000000006
120,7.1240000000000006
121,7.1240000000000006
122,7.1240000000000006
123,7.1240000000000006
124,7.1240000000000006
125,7.1240000000000006
126,7.1240000000000006
127,7.1240000000000006
128,7.1240000000000006
129,7.1240000000000006
130,7.1240000000000006
131,7.1240000000000006
132,7.1240000000000006
133,7.1240000000000006
134,7.1240000000000006
135,7.1240000000000006
136,7.1240000000000006
137,7.1240000000000006
138,7.1240000000000006
139,7.416
140,7.416
141,7.416
142,7.416
143,7.416
144,7.416
145,7.416
146,7.416
147,7.416
148,7.416
149,7.416
150,7.416
151,7.416
152,7.416
153,7.416
154,7.416
155,7.416
156,7.416
157,7.416
158,7.416
159,7.416
160,7.416
161,7.416
162,7.708
163,7.708
164,7.708
165,7.708
166,7.708
167,7.708
168,7.708
169,7.708
170,7.708
171,7.708
172,7.708
173,7.708
174,7.708
175,7.708
176,7.708
177,7.708
178,7.708
179,7.708
180,7.708
181,7.708
182,7.708
183,7.708
184,7.708
185,7.708
186,7.708
187,7.708
188,7.708
189,7.708
190,7.708
191,7.708
192,7.708
193,7.708
194,7.708
195,7.708
196,7.708
197,7.708
198,7.708
199,7.708
200,7.708
201,7.708
202,7.708
203,7.708
204,7.708
205,7.708
206,7.708
207,7.708
208,7.708
209,7.708
210,8.0
211,8.0
212,8.0
213,8.0
214,8.0
215,8.0
216,8.0
217,8.0
218,8.0
219,8.0
220,8.0
221,8.0
222,8.0
223,8.0
224,8.0
225,8.0
226,8.0
227,8.0
228,8.0
229,8.0
230,8.0
231,8.0
232,8.0
233,8.0
234,8.0
235,8.0
236,8.0
237,8.0
238,8.0
239,8.0
240,8.0
241,8.0
242,8.0
243,8.0
244,8.0
245,8.0
246,8.0
247,8.0
248,8.0
249,8.0
250,8.0
251,8.0
252,8.0
253,8.0
254,8.0
255,8.0
256,8.0
257,8.0
258,8.0
259,8.0
260,8.0
261,8.0
262,8.0
263,8.0
264,8.0
265,8.0
266,8.0
267,8.0
268,8.0
269,8.0
270,8.0
271,8.0
272,8.0
273,8.0
274,8.0
275,8.0
276,8.0
277,8.0
278,8.0
279,8.0
280,8.0
281,8.0
282,8.0
283,8.0
284,8.0
285,8.0
286,8.0
287,8.0
288,8.0
289,8.0
290,8.0
291,8.0
292,8.0
293,8.0
294,8.0
295,8.0
296,8.0
297,8.0
298,8.0
299,8.0
300,8.0
