actions,scores
0,0
1,0
2,0.478
3,0.478
4,0.478
5,0.956
6,1.434
7,1.912
8,2.3689999999999998
9,2.3689999999999998
10,2.891
11,2.891
12,2.891
13,2.891
14,2.891
15,2.891
16,3.1959999999999997
17,3.1959999999999997
18,3.8919999999999995
19,3.8919999999999995
20,3.833
21,3.833
22,3.833
23,3.833
24,3.833
25,4.041
26,4.041
27,4.291
28,4.291
29,4.291
30,4.833
31,5.25
32,5.25
33,5.375
34,5.375
35,5.375
36,5.375
37,5.375
38,5.375
39,5.375
40,5.625
41,5.875
42,5.875
43,5.875
44,5.875
45,5.875
46,5.875
47,5.875
48,5.875
49,5.875
50,5.875
51,6.167
52,6.167
53,6.167
54,6.625
55,6.625
56,6.625
57,6.625
58,6.625
59,6.625
60,6.625
61,6.625
62,6.625
63,6.625
64,6.625
65,6.625
66,6.625
67,6.625
68,6.625
69,6.625
70,6.625
71,6.625
72,6.625
73,6.625
74,6.625
75,6.625
76,6.917
77,6.917
78,6.917
79,6.917
80,6.917
81,6.917
82,6.917
83,6.917
84,6.917
85,6.917
86,6.917
87,6.917
88,6.917
89,6.917
90,6.917
91,6.917
92,6.917
93,6.917
94,7.459
95,7.459
96,7.459
97,7.459
98,7.459
99,7.459
100,7.459
101,7.459
102,7.459
103,7.459
104,7.459
105,7.459
106,7.459
107,7.459
108,7.459
109,7.459
110,7.459
111,7.459
112,7.459
113,7.459
114,7.459
115,7.459
116,7.459
117,7.459
118,7.459
119,7.459
120,7.459
121,7.459
122,7.459
123,7.459
124,7.459
125,7.459
126,7.459
127,7.459
128,7.459
129,7.459
130,7.459
131,7.459
132,7.459
133,7.459
134,7.459
135,7.459
136,7.459
137,7.667
138,7.667
139,7.667
140,7.667
141,7.667
142,7.667
143,7.667
144,7.667
145,7.667
146,7.667
147,7.667
148,7.667
149,7.667
150,7.667
151,7.667
152,7.667
153,7.667
154,7.667
155,7.667
156,7.667
157,7.667
158,7.667
159,7.667
160,7.667
161,7.667
162,7.667
163,7.667
164,7.667
165,7.667
166,7.667
167,7.667
168,7.667
169,7.667
170,7.667
171,7.667
172,7.667
173,7.667
174,7.667
175,7.667
176,7.667
177,7.667
178,7.667
179,7.667
180,7.667
181,7.667
182,7.667
183,7.667
184,7.667
185,7.667
186,7.667
187,7.667
188,7.667
189,7.667
190,7.667
191,7.667
192,7.667
193,7.667
194,7.667
195,7.667
196,7.667
197,7.667
198,7.667
199,7.667
200,7.667
201,7.667
202,7.667
203,7.667
204,7.667
205,7.667
206,7.667
207,8.0
208,8.0
209,8.0
210,8.0
211,8.0
212,8.0
213,8.0
214,8.0
215,8.0
216,8.0
217,8.0
218,8.0
219,8.0
220,8.0
221,8.0
222,8.0
223,8.0
224,8.0
225,8.0
226,8.0
227,8.0
228,8.0
229,8.0
230,8.0
231,8.0
232,8.0
233,8.0
234,8.0
235,8.0
236,8.0
237,8.0
238,8.0
239,8.0
240,8.0
241,8.0
242,8.0
243,8.0
244,8.0
245,8.0
246,8.0
247,8.0
248,8.0
249,8.0
250,8.0
251,8.0
252,8.0
253,8.0
254,8.0
255,8.0
256,8.0
257,8.0
258,8.0
259,8.0
260,8.0
261,8.0
262,8.0
263,8.0
264,8.0
265,8.0
266,8.0
267,8.0
268,8.0
269,8.0
270,8.0
271,8.0
272,8.0
273,8.0
274,8.0
275,8.0
276,8.0
277,8.0
278,8.0
279,8.0
280,8.0
281,8.0
282,8.0
283,8.0
284,8.0
285,8.0
286,8.0
287,8.0
288,8.0
289,8.0
290,8.0
291,8.0
292,8.0
293,8.0
294,8.0
295,8.0
296,8.0
297,8.0
298,8.0
299,8.0
300,8.0
