actions,scores
0,0
1,0.478
2,0.956
3,1.374
4,1.832
5,2.29
6,2.748
7,3.2060000000000004
8,3.6640000000000006
9,3.873
10,3.873
11,3.873
12,3.873
13,3.873
14,4.123
15,4.123
16,4.123
17,4.123
18,4.123
19,4.373
20,4.623
21,4.623
22,4.623
23,4.623
24,4.623
25,4.623
26,4.623
27,4.623
28,4.623
29,4.623
30,4.623
31,4.623
32,4.623
33,4.832
34,4.832
35,4.832
36,5.1240000000000006
37,5.1240000000000006
38,5.1240000000000006
39,5.1240000000000006
40,5.1240000000000006
41,5.3740000000000006
42,5.3740000000000006
43,5.3740000000000006
44,5.3740000000000006
45,5.3740000000000006
46,5.3740000000000006
47,5.583
48,5.583
49,5.667
50,5.667
51,5.667
52,5.667
53,5.667
54,6.0
55,6.0
56,6.0
57,6.0
58,6.0
59,6.0
60,6.0
61,6.0
62,6.0
63,6.0
64,6.0
65,6.292
66,6.292
67,6.292
68,6.292
69,6.292
70,6.292
71,6.292
72,6.5
73,6.5
74,6.5
75,6.5
76,6.5
77,6.5
78,6.5
79,6.542
80,6.542
81,6.542
82,6.542
83,6.542
84,6.542
85,6.542
86,6.542
87,6.542
88,6.542
89,6.542
90,6.542
91,6.542
92,6.792
93,6.792
94,6.792
95,6.792
96,6.792
97,6.792
98,6.792
99,6.792
100,6.792
101,7.125
102,7.125
103,7.125
104,7.125
105,7.125
106,7.125
107,7.125
108,7.125
109,7.125
110,7.125
111,7.125
112,7.125
113,7.125
114,7.125
115,7.125
116,7.125
117,7.125
118,7.417
119,7.417
120,7.417
121,7.417
122,7.417
123,7.417
124,7.417
125,7.417
126,7.417
127,7.417
128,7.417
129,7.417
130,7.417
131,7.417
132,7.417
133,7.417
134,7.417
135,7.417
136,7.417
137,7.417
138,7.417
139,7.417
140,7.417
141,7.417
142,7.417
143,7.417
144,7.417
145,7.417
146,7.417
147,7.417
148,7.417
149,7.417
150,7.5
151,7.5
152,7.5
153,7.5
154,7.5
155,7.5
156,7.75
157,7.75
158,7.75
159,7.75
160,7.75
161,7.75
162,7.75
163,7.75
164,7.75
165,7.75
166,7.75
167,7.75
168,7.75
169,7.75
170,7.75
171,7.75
172,7.75
173,7.75
174,7.75
175,8.0
176,8.0
177,8.0
178,8.0
179,8.0
180,8.0
181,8.0
182,8.0
183,8.0
184,8.0
185,8.0
186,8.0
187,8.0
188,8.0
189,8.0
190,8.0
191,8.0
192,8.0
193,8.0
194,8.0
195,8.0
196,8.0
197,8.0
198,8.0
199,8.0
200,8.0
201,8.0
202,8.0
203,8.0
204,8.0
205,8.0
206,8.0
207,8.0
208,8.0
209,8.0
210,8.0
211,8.0
212,8.0
213,8.0
214,8.0
215,8.0
216,8.0
217,8.0
218,8.0
219,8.0
220,8.0
221,8.0
222,8.0
223,8.0
224,8.0
225,8.0
226,8.0
227,8.0
228,8.0
229,8.0
230,8.0
231,8.0
232,8.0
233,8.0
234,8.0
235,8.0
236,8.0
237,8.0
238,8.0
239,8.0
240,8.0
241,8.0
242,8.0
243,8.0
244,8.0
245,8.0
246,8.0
247,8.0
248,8.0
249,8.0
250,8.0
251,8.0
252,8.0
253,8.0
254,8.0
255,8.0
256,8.0
257,8.0
258,8.0
259,8.0
260,8.0
261,8.0
262,8.0
263,8.0
264,8.0
265,8.0
266,8.0
267,8.0
268,8.0
269,8.0
270,8.0
271,8.0
272,8.0
273,8.0
274,8.0
275,8.0
276,8.0
277,8.0
278,8.0
279,8.0
280,8.0
281,8.0
282,8.0
283,8.0
284,8.0
285,8.0
286,8.0
287,8.0
288,8.0
289,8.0
290,8.0
291,8.0
292,8.0
293,8.0
294,8.0
295,8.0
296,8.0
297,8.0
298,8.0
299,8.0
300,8.0
