actions,scores
0,0
1,0
2,0.478
3,0.916
4,1.374
5,1.832
6,2.29
7,2.748
8,3.2060000000000004
9,3.2060000000000004
10,3.2060000000000004
11,3.2060000000000004
12,3.2060000000000004
13,3.4560000000000004
14,3.4560000000000004
15,3.4560000000000004
16,3.4560000000000004
17,4.123
18,4.123
19,4.123
20,4.665
21,4.665
22,4.665
23,4.665
24,4.665
25,4.665
26,4.665
27,4.665
28,4.665
29,4.665
30,4.665
31,4.665
32,4.707000000000001
33,4.707000000000001
34,4.707000000000001
35,4.707000000000001
36,4.707000000000001
37,4.707000000000001
38,4.707000000000001
39,4.707000000000001
40,5.040000000000001
41,5.040000000000001
42,5.040000000000001
43,5.040000000000001
44,5.040000000000001
45,5.040000000000001
46,5.040000000000001
47,5.040000000000001
48,5.29
49,5.29
50,5.29
51,5.54
52,5.54
53,5.54
54,5.54
55,5.54
56,5.54
57,5.54
58,6.082000000000001
59,6.082000000000001
60,6.082000000000001
61,6.082000000000001
62,6.082000000000001
63,6.082000000000001
64,6.082000000000001
65,6.082000000000001
66,6.332000000000001
67,6.332000000000001
68,6.332000000000001
69,6.332000000000001
70,6.332000000000001
71,6.332000000000001
72,6.6240000000000006
73,6.6240000000000006
74,6.6240000000000006
75,6.6240000000000006
76,6.6240000000000006
77,6.6240000000000006
78,6.6240000000000006
79,6.6240000000000006
80,6.8740000000000006
81,6.8740000000000006
82,6.8740000000000006
83,6.8740000000000006
84,6.8740000000000006
85,6.8740000000000006
86,6.8740000000000006
87,6.8740000000000006
88,7.166
89,7.166
90,7.166
91,7.166
92,7.166
93,7.416
94,7.416
95,7.416
96,7.416
97,7.416
98,7.416
99,7.416
100,7.416
101,7.416
102,7.416
103,7.416
104,7.416
105,7.416
106,7.708
107,7.708
108,7.708
109,7.708
110,7.708
111,7.708
112,8.0
113,8.0
114,8.0
115,8.0
116,8.0
117,8.0
118,8.0
119,8.0
120,8.0
121,8.0
122,8.0
123,8.0
124,8.0
125,8.0
126,8.0
127,8.0
128,8.0
129,8.0
130,8.0
131,8.0
132,8.0
133,8.0
134,8.0
135,8.0
136,8.0
137,8.0
138,8.0
139,8.0
140,8.0
141,8.0
142,8.0
143,8.0
144,8.0
145,8.0
146,8.0
147,8.0
148,8.0
149,8.0
150,8.0
151,8.0
152,8.0
153,8.0
154,8.0
155,8.0
156,8.0
157,8.0
158,8.0
159,8.0
160,8.0
161,8.0
162,8.0
163,8.0
164,8.0
165,8.0
166,8.0
167,8.0
168,8.0
169,8.0
170,8.0
171,8.0
172,8.0
173,8.0
174,8.0
175,8.0
176,8.0
177,8.0
178,8.0
179,8.0
180,8.0
181,8.0
182,8.0
183,8.0
184,8.0
185,8.0
186,8.0
187,8.0
188,8.0
189,8.0
190,8.0
191,8.0
192,8.0
193,8.0
194,8.0
195,8.0
196,8.0
197,8.0
198,8.0
199,8.0
200,8.0
201,8.0
202,8.0
203,8.0
204,8.0
205,8.0
206,8.0
207,8.0
208,8.0
209,8.0
210,8.0
211,8.0
212,8.0
213,8.0
214,8.0
215,8.0
216,8.0
217,8.0
218,8.0
219,8.0
220,8.0
221,8.0
222,8.0
223,8.0
224,8.0
225,8.0
226,8.0
227,8.0
228,8.0
229,8.0
230,8.0
231,8.0
232,8.0
233,8.0
234,8.0
235,8.0
236,8.0
237,8.0
238,8.0
239,8.0
240,8.0
241,8.0
242,8.0
243,8.0
244,8.0
245,8.0
246,8.0
247,8.0
248,8.0
249,8.0
250,8.0
251,8.0
252,8.0
253,8.0
254,8.0
255,8.0
256,8.0
257,8.0
258,8.0
259,8.0
260,8.0
261,8.0
262,8.0
263,8.0
264,8.0
265,8.0
266,8.0
267,8.0
268,8.0
269,8.0
270,8.0
271,8.0
272,8.0
273,8.0
274,8.0
275,8.0
276,8.0
277,8.0
278,8.0
279,8.0
280,8.0
281,8.0
282,8.0
283,8.0
284,8.0
285,8.0
286,8.0
287,8.0
288,8.0
289,8.0
290,8.0
291,8.0
292,8.0
293,8.0
294,8.0
295,8.0
296,8.0
297,8.0
298,8.0
299,8.0
300,8.0
