run,agent_name,action_name,action_count,avg_precision,avg_recall,global_precision,global_recall
0,explore,move_e,1162,0.9375,1.0,360.0,324.0
0,explore,move_w,1162,0.9375,1.0,360.0,324.0
0,explore,move_n,1323,1.0,0.4375,0.0,0.0
0,explore,move_e,1366,0.9375,1.0,360.0,324.0
0,explore,move_n,1366,0.875,0.75,280.0,180.0
0,explore,move_s,1366,0.9375,1.0,360.0,324.0
0,explore,move_w,1366,0.9375,1.0,360.0,324.0
0,explore,move_n,1367,0.875,0.75,280.0,180.0
0,explore,move_n,1368,1.0,0.4375,0.0,0.0
0,explore,move_n,1383,0.9375,1.0,360.0,324.0
0,explore,move_w,1383,0.9375,1.0,360.0,324.0
0,explore,move_e,1384,0.9375,1.0,360.0,324.0
0,explore,move_e,1385,0.9375,1.0,360.0,324.0
0,explore,move_e,1386,0.9375,1.0,360.0,324.0
0,explore,move_e,1387,0.9375,1.0,360.0,324.0
0,explore,move_n,1388,1.0,0.4375,0.0,0.0
0,explore,move_e,1436,0.9375,1.0,360.0,324.0
0,explore,move_n,1437,1.0,0.4375,0.0,0.0
0,explore,move_w,1438,0.9375,1.0,360.0,324.0
0,explore,move_w,1439,0.9375,1.0,360.0,324.0
0,explore,move_w,1440,0.9375,1.0,360.0,324.0
0,explore,move_w,1441,0.9375,1.0,360.0,324.0
0,explore,move_w,1442,0.9375,1.0,360.0,324.0
0,explore,move_w,1443,0.9375,1.0,360.0,324.0
0,explore,move_w,1444,0.9375,1.0,360.0,324.0
0,explore,open_door_s,1447,1.0,0.9375,0.0,0.0
0,explore,close_door_s,1449,0.5625,1.0,32.0,4.0
0,explore,close_door_s,1494,0.5625,1.0,32.0,4.0
0,explore,move_n,1494,0.9375,1.0,360.0,324.0
0,explore,move_w,1494,0.9375,1.0,360.0,324.0
0,explore,move_e,1495,0.9375,1.0,360.0,324.0
0,explore,move_s,1496,1.0,0.4375,0.0,0.0
0,explore,move_s,1497,1.0,1.0,324.0,324.0
0,explore,move_e,1500,0.9375,1.0,360.0,324.0
0,explore,move_n,1502,1.0,0.4375,0.0,0.0
0,explore,move_e,1503,1.0,0.4375,0.0,0.0
0,explore,move_s,1508,1.0,1.0,324.0,324.0
0,explore,move_w,1509,1.0,0.4375,0.0,0.0
0,explore,move_s,1510,1.0,0.4375,0.0,0.0
0,explore,move_w,1511,1.0,1.0,324.0,324.0
0,explore,move_s,1512,1.0,0.4375,0.0,0.0
0,explore,move_w,1513,1.0,0.4375,0.0,0.0
0,explore,move_n,1517,1.0,1.0,324.0,324.0
0,explore,move_w,1518,1.0,0.4375,0.0,0.0
0,explore,move_n,1519,1.0,0.4375,0.0,0.0
0,explore,move_e,1523,1.0,1.0,324.0,324.0
0,explore,move_e,1606,1.0,1.0,324.0,324.0
0,explore,move_n,1606,1.0,1.0,324.0,324.0
0,explore,open_door_s,1606,0.9375,1.0,8.0,4.0
0,explore,move_e,1607,1.0,0.4375,0.0,0.0
0,explore,open_door_s,1608,1.0,0.9375,0.0,0.0
0,explore,move_s,1609,1.0,0.4375,0.0,0.0
0,explore,move_e,1610,1.0,0.4375,0.0,0.0
0,explore,close_door_w,1612,0.5625,1.0,32.0,4.0
0,explore,move_s,1612,1.0,1.0,324.0,324.0
0,explore,move_n,1613,1.0,0.4375,0.0,0.0
0,explore,move_w,1614,1.0,0.4375,0.0,0.0
0,explore,open_door_s,1615,1.0,0.9375,0.0,0.0
0,explore,move_s,1616,1.0,0.4375,0.0,0.0
0,explore,move_w,1617,1.0,0.4375,0.0,0.0
0,explore,move_e,1624,1.0,0.4375,0.0,0.0
0,explore,move_s,1682,1.0,0.4375,0.0,0.0
0,explore,move_nw,1693,0.5625,0.75,32.0,20.0
0,explore,move_ne,1712,0.5625,0.75,32.0,20.0
0,explore,close_door_s,1784,0.5625,1.0,32.0,4.0
0,explore,close_door_w,1784,0.9375,1.0,8.0,4.0
0,explore,move_e,1784,1.0,1.0,324.0,324.0
0,explore,move_ne,1784,0.625,0.75,28.0,20.0
0,explore,move_nw,1784,0.5625,0.75,32.0,20.0
0,explore,move_n,1784,1.0,1.0,324.0,324.0
0,explore,move_s,1784,1.0,1.0,324.0,324.0
0,explore,move_w,1784,1.0,1.0,324.0,324.0
0,explore,open_door_s,1784,0.9375,1.0,8.0,4.0
0,explore,move_w,1785,1.0,0.4375,0.0,0.0
0,explore,move_s,1786,1.0,0.4375,0.0,0.0
0,explore,close_door_e,1796,1.0,0.9375,0.0,0.0
0,explore,move_s,1797,1.0,0.4375,0.0,0.0
0,explore,move_e,1798,1.0,0.4375,0.0,0.0
0,explore,close_door_w,1813,0.9375,1.0,8.0,4.0
0,explore,move_n,1813,1.0,1.0,324.0,324.0
0,explore,open_door_s,1813,1.0,1.0,4.0,4.0
0,explore,move_s,1814,1.0,0.4375,0.0,0.0
0,explore,move_n,1816,1.0,0.4375,0.0,0.0
0,explore,move_w,1817,1.0,0.4375,0.0,0.0
0,explore,move_n,1818,1.0,0.4375,0.0,0.0
0,explore,move_n,1819,1.0,0.4375,0.0,0.0
0,explore,move_e,1820,1.0,0.4375,0.0,0.0
0,explore,open_door_s,1821,1.0,0.9375,0.0,0.0
0,explore,move_s,1822,1.0,0.4375,0.0,0.0
0,explore,move_s,1834,1.0,1.0,324.0,324.0
0,explore,close_door_w,1842,1.0,1.0,4.0,4.0
0,explore,move_ne,1842,0.875,0.75,12.0,20.0
0,explore,move_e,1843,1.0,0.4375,0.0,0.0
0,explore,move_w,1861,1.0,0.4375,0.0,0.0
0,explore,move_w,1862,1.0,1.0,324.0,324.0
0,explore,close_door_s,1864,1.0,1.0,4.0,4.0
0,explore,close_door_e,2025,1.0,1.0,4.0,4.0
0,explore,close_door_s,2025,1.0,1.0,4.0,4.0
0,explore,close_door_w,2025,1.0,1.0,4.0,4.0
0,explore,move_e,2025,1.0,1.0,324.0,324.0
0,explore,move_ne,2025,0.875,0.75,12.0,20.0
0,explore,move_nw,2025,0.75,1.0,600.0,100.0
0,explore,move_n,2025,1.0,1.0,324.0,324.0
0,explore,move_se,2025,0.9375,1.0,120.0,100.0
0,explore,move_s,2025,1.0,1.0,324.0,324.0
0,explore,move_w,2025,1.0,1.0,324.0,324.0
0,explore,open_door_s,2025,0.875,1.0,12.0,4.0
0,explore,move_n,2027,1.0,0.4375,0.0,0.0
0,explore,close_door_w,2028,1.0,0.9375,0.0,0.0
0,explore,move_s,2029,1.0,0.4375,0.0,0.0
0,explore,move_nw,2037,1.0,0.8125,32.0,40.0
0,explore,move_se,2038,0.5,0.6875,0.0,0.0
0,explore,move_n,2100,1.0,1.0,324.0,324.0
0,explore,move_sw,2100,0.875,1.0,280.0,100.0
0,explore,move_e,2101,1.0,0.4375,0.0,0.0
0,explore,move_n,2102,1.0,0.4375,0.0,0.0
0,explore,move_n,2103,1.0,0.4375,0.0,0.0
0,explore,move_n,2104,1.0,0.4375,0.0,0.0
0,explore,move_e,2106,1.0,0.4375,0.0,0.0
0,explore,move_e,2107,1.0,0.4375,0.0,0.0
0,explore,move_w,2109,1.0,0.4375,0.0,0.0
0,explore,move_w,2110,1.0,0.4375,0.0,0.0
0,explore,move_w,2111,1.0,1.0,324.0,324.0
0,explore,move_e,2112,1.0,0.4375,0.0,0.0
0,explore,move_e,2113,1.0,0.4375,0.0,0.0
0,explore,move_e,2114,1.0,1.0,324.0,324.0
0,explore,move_w,2115,1.0,0.4375,0.0,0.0
0,explore,move_w,2116,1.0,0.4375,0.0,0.0
0,explore,move_sw,2117,0.875,1.0,280.0,100.0
0,explore,move_e,2118,1.0,0.4375,0.0,0.0
0,explore,move_e,2119,1.0,0.4375,0.0,0.0
0,explore,move_e,2120,1.0,0.4375,0.0,0.0
0,explore,move_e,2121,1.0,0.4375,0.0,0.0
0,explore,move_e,2122,1.0,0.4375,0.0,0.0
0,explore,move_e,2123,1.0,0.4375,0.0,0.0
0,explore,move_s,2124,1.0,0.4375,0.0,0.0
0,explore,move_s,2125,1.0,0.4375,0.0,0.0
0,explore,move_e,2126,1.0,1.0,324.0,324.0
0,explore,move_s,2126,1.0,1.0,324.0,324.0
0,explore,move_n,2128,1.0,0.4375,0.0,0.0
0,explore,move_n,2129,1.0,0.4375,0.0,0.0
0,explore,move_n,2135,1.0,1.0,324.0,324.0
0,explore,move_se,2141,0.5,0.6875,0.0,0.0
0,explore,move_s,2142,1.0,0.4375,0.0,0.0
0,explore,move_sw,2143,1.0,0.6875,0.0,0.0
0,explore,move_e,2145,1.0,0.4375,0.0,0.0
0,explore,move_sw,2146,0.75,0.75,20.0,20.0
0,explore,move_n,2147,1.0,0.4375,0.0,0.0
0,explore,move_n,2148,1.0,0.4375,0.0,0.0
0,explore,close_door_w,2154,1.0,1.0,4.0,4.0
0,explore,open_door_s,2154,1.0,1.0,4.0,4.0
0,explore,move_w,223,0.875,1.0,792.0,324.0
0,explore,move_e,242,0.9375,1.0,360.0,324.0
0,explore,close_door_e,2560,1.0,1.0,4.0,4.0
0,explore,close_door_s,2560,1.0,1.0,4.0,4.0
0,explore,close_door_w,2560,1.0,1.0,4.0,4.0
0,explore,move_e,2560,1.0,1.0,324.0,324.0
0,explore,move_ne,2560,0.875,0.75,12.0,20.0
0,explore,move_nw,2560,1.0,0.8125,32.0,40.0
0,explore,move_n,2560,1.0,1.0,324.0,324.0
0,explore,move_se,2560,0.5,0.6875,0.0,0.0
0,explore,move_sw,2560,0.75,0.75,20.0,20.0
0,explore,move_s,2560,1.0,1.0,324.0,324.0
0,explore,move_w,2560,1.0,1.0,324.0,324.0
0,explore,open_door_s,2560,1.0,1.0,4.0,4.0
0,explore,move_w,2561,1.0,0.4375,0.0,0.0
0,explore,move_w,2562,1.0,0.4375,0.0,0.0
0,explore,move_w,2563,1.0,0.4375,0.0,0.0
0,explore,move_w,2564,1.0,0.4375,0.0,0.0
0,explore,move_w,2565,1.0,0.4375,0.0,0.0
0,explore,move_w,2566,1.0,0.4375,0.0,0.0
0,explore,open_door_s,2567,1.0,0.9375,0.0,0.0
0,explore,close_door_s,2570,1.0,0.9375,0.0,0.0
0,explore,move_w,2570,1.0,1.0,324.0,324.0
0,explore,open_door_s,2571,1.0,0.9375,0.0,0.0
0,explore,close_door_s,2574,1.0,0.9375,0.0,0.0
0,explore,open_door_s,2575,1.0,0.9375,0.0,0.0
0,explore,close_door_s,2578,1.0,0.9375,0.0,0.0
0,explore,open_door_s,2579,1.0,0.9375,0.0,0.0
0,explore,close_door_s,2582,1.0,0.9375,0.0,0.0
0,explore,open_door_s,2583,1.0,0.9375,0.0,0.0
0,explore,close_door_s,2586,1.0,1.0,4.0,4.0
0,explore,move_nw,2586,1.0,0.8125,32.0,40.0
0,explore,move_se,2586,0.875,0.6875,0.0,0.0
0,explore,open_door_s,2586,1.0,1.0,4.0,4.0
0,explore,move_e,274,0.9375,1.0,360.0,324.0
0,explore,move_w,274,0.875,1.0,792.0,324.0
0,explore,move_w,275,0.875,1.0,792.0,324.0
0,explore,move_w,276,0.875,1.0,792.0,324.0
0,explore,move_w,277,0.875,1.0,792.0,324.0
0,explore,move_w,278,0.875,1.0,792.0,324.0
0,explore,close_door_e,3058,1.0,1.0,4.0,4.0
0,explore,close_door_s,3058,1.0,1.0,4.0,4.0
0,explore,close_door_w,3058,1.0,1.0,4.0,4.0
0,explore,move_e,3058,1.0,1.0,324.0,324.0
0,explore,move_ne,3058,0.875,0.75,12.0,20.0
0,explore,move_nw,3058,1.0,0.8125,32.0,40.0
0,explore,move_n,3058,1.0,1.0,324.0,324.0
0,explore,move_se,3058,0.875,0.6875,0.0,0.0
0,explore,move_sw,3058,0.75,0.75,20.0,20.0
0,explore,move_s,3058,1.0,1.0,324.0,324.0
0,explore,move_w,3058,1.0,1.0,324.0,324.0
0,explore,open_door_s,3058,1.0,1.0,4.0,4.0
0,explore,move_w,313,0.9375,1.0,360.0,324.0
0,explore,close_door_e,3487,1.0,1.0,4.0,4.0
0,explore,close_door_s,3487,1.0,1.0,4.0,4.0
0,explore,close_door_w,3487,1.0,1.0,4.0,4.0
0,explore,move_e,3487,1.0,1.0,324.0,324.0
0,explore,move_ne,3487,0.9375,1.0,120.0,100.0
0,explore,move_nw,3487,1.0,0.8125,32.0,40.0
0,explore,move_n,3487,1.0,1.0,324.0,324.0
0,explore,move_se,3487,0.875,0.6875,0.0,0.0
0,explore,move_sw,3487,0.75,0.75,20.0,20.0
0,explore,move_s,3487,1.0,1.0,324.0,324.0
0,explore,move_w,3487,1.0,1.0,324.0,324.0
0,explore,open_door_s,3487,1.0,1.0,4.0,4.0
0,explore,move_sw,3488,1.0,0.6875,0.0,0.0
0,explore,move_s,3489,1.0,0.4375,0.0,0.0
0,explore,move_ne,3494,1.0,0.8125,32.0,40.0
0,explore,close_door_e,3844,1.0,1.0,4.0,4.0
0,explore,close_door_s,3844,1.0,1.0,4.0,4.0
0,explore,close_door_w,3844,1.0,1.0,4.0,4.0
0,explore,move_e,3844,1.0,1.0,324.0,324.0
0,explore,move_ne,3844,1.0,0.8125,32.0,40.0
0,explore,move_nw,3844,1.0,0.8125,32.0,40.0
0,explore,move_n,3844,1.0,1.0,324.0,324.0
0,explore,move_se,3844,0.875,0.6875,0.0,0.0
0,explore,move_sw,3844,0.75,0.75,20.0,20.0
0,explore,move_s,3844,1.0,1.0,324.0,324.0
0,explore,move_w,3844,1.0,1.0,324.0,324.0
0,explore,open_door_s,3844,1.0,1.0,4.0,4.0
0,explore,close_door_e,4481,1.0,1.0,4.0,4.0
0,explore,close_door_s,4481,1.0,1.0,4.0,4.0
0,explore,close_door_w,4481,1.0,1.0,4.0,4.0
0,explore,move_e,4481,1.0,1.0,324.0,324.0
0,explore,move_ne,4481,1.0,0.8125,32.0,40.0
0,explore,move_nw,4481,1.0,0.8125,32.0,40.0
0,explore,move_n,4481,1.0,1.0,324.0,324.0
0,explore,move_se,4481,0.875,0.6875,0.0,0.0
0,explore,move_sw,4481,1.0,0.6875,0.0,0.0
0,explore,move_s,4481,1.0,1.0,324.0,324.0
0,explore,move_w,4481,1.0,1.0,324.0,324.0
0,explore,open_door_s,4481,1.0,1.0,4.0,4.0
0,explore,move_n,4504,1.0,0.4375,0.0,0.0
0,explore,close_door_e,4638,1.0,1.0,4.0,4.0
0,explore,close_door_s,4638,1.0,1.0,4.0,4.0
0,explore,close_door_w,4638,1.0,1.0,4.0,4.0
0,explore,move_e,4638,1.0,1.0,324.0,324.0
0,explore,move_n,4638,1.0,1.0,324.0,324.0
0,explore,move_se,4638,0.9375,1.0,120.0,100.0
0,explore,move_sw,4638,1.0,0.6875,0.0,0.0
0,explore,move_s,4638,1.0,1.0,324.0,324.0
0,explore,move_w,4638,1.0,1.0,324.0,324.0
0,explore,open_door_s,4638,1.0,1.0,4.0,4.0
0,explore,move_e,4753,1.0,1.0,324.0,324.0
0,explore,move_ne,4753,1.0,0.8125,32.0,40.0
0,explore,move_nw,4753,1.0,0.8125,32.0,40.0
0,explore,move_n,4753,1.0,1.0,324.0,324.0
0,explore,move_se,4753,0.9375,1.0,120.0,100.0
0,explore,move_sw,4753,1.0,0.6875,0.0,0.0
0,explore,move_s,4753,1.0,1.0,324.0,324.0
0,explore,move_w,4753,1.0,1.0,324.0,324.0
0,explore,close_door_s,4811,1.0,1.0,4.0,4.0
0,explore,close_door_w,4811,1.0,1.0,4.0,4.0
0,explore,move_e,4811,1.0,0.4375,0.0,0.0
0,explore,move_n,4811,1.0,1.0,324.0,324.0
0,explore,move_se,4811,0.9375,1.0,120.0,100.0
0,explore,move_w,4812,1.0,0.4375,0.0,0.0
0,explore,move_sw,4815,1.0,0.6875,0.0,0.0
0,explore,move_n,4827,1.0,1.0,324.0,324.0
0,explore,move_se,4827,0.9375,1.0,120.0,100.0
0,explore,close_door_e,4939,1.0,1.0,4.0,4.0
0,explore,close_door_s,4939,1.0,1.0,4.0,4.0
0,explore,close_door_w,4939,1.0,1.0,4.0,4.0
0,explore,move_e,4939,1.0,1.0,324.0,324.0
0,explore,move_ne,4939,1.0,0.8125,32.0,40.0
0,explore,move_nw,4939,1.0,0.8125,32.0,40.0
0,explore,move_sw,4939,1.0,0.6875,0.0,0.0
0,explore,move_s,4939,1.0,1.0,324.0,324.0
0,explore,move_w,4939,1.0,1.0,324.0,324.0
0,explore,open_door_s,4939,1.0,1.0,4.0,4.0
0,explore,move_se,4940,1.0,0.6875,0.0,0.0
0,explore,move_n,4943,1.0,1.0,324.0,324.0
0,explore,move_se,4943,0.9375,1.0,120.0,100.0
0,explore,move_sw,4957,1.0,0.6875,0.0,0.0
0,explore,move_se,4960,0.9375,1.0,120.0,100.0
0,explore,move_ne,4980,1.0,0.6875,0.0,0.0
0,explore,move_e,845,0.9375,1.0,360.0,324.0
0,explore,move_w,845,0.9375,1.0,360.0,324.0
