run,agent_name,action_name,action_count,avg_precision,avg_recall,global_precision,global_recall
0,explore,move_e,1472,0.9375,1.0,360.0,324.0
0,explore,move_e,2443,0.9375,1.0,360.0,324.0
0,explore,move_w,2810,0.875,1.0,792.0,324.0
0,explore,move_w,2981,0.875,1.0,792.0,324.0
0,explore,move_w,3306,0.875,1.0,792.0,324.0
0,explore,move_nw,3512,1.0,0.6875,0.0,0.0
0,explore,move_se,3745,0.9375,1.0,120.0,100.0
0,explore,move_e,4328,0.9375,1.0,360.0,324.0
0,explore,move_e,5064,0.9375,1.0,360.0,324.0
0,explore,move_e,5132,0.9375,1.0,360.0,324.0
0,explore,move_w,6524,0.875,1.0,792.0,324.0
0,explore,move_e,7962,0.9375,1.0,360.0,324.0
0,explore,move_w,817,0.875,1.0,792.0,324.0
0,explore,move_w,857,0.875,1.0,792.0,324.0
0,explore,move_w,9693,0.875,1.0,792.0,324.0
0,explore,move_w,9807,0.875,1.0,792.0,324.0
