move_se(V2,V1) :- north(V0,V1), odoor(V2,V0), agentat(V3,V0).
move_se(V2,V1) :- wall(V0,V1), west(V0,V2), north(V3,V1), agentat(V0,V3).
Pre-processing  : 4.424s
Solve time      : 27098.9s
Total           : 27103.3s
