actions,scores
0,0
1,0
2,0
3,0
4,0
5,0
6,0
7,0
8,0
9,1.0
10,1.0
11,1.0
12,1.0
13,1.0
14,1.0
15,1.0
16,1.0
17,1.0
18,1.0
19,1.0
20,1.0
21,1.0
22,1.0
23,1.0
24,1.0
25,1.0
26,1.0
27,1.0
28,1.0
29,1.0
30,1.0
31,1.0
32,1.0
33,1.0
34,1.0
35,1.0
36,1.0
37,1.0
38,1.0
39,1.0
40,1.0
41,1.0
42,1.8639999999999999
43,1.8639999999999999
44,1.8639999999999999
45,1.8639999999999999
46,1.8639999999999999
47,1.8639999999999999
48,1.8639999999999999
49,1.8639999999999999
50,1.8639999999999999
51,1.8639999999999999
52,1.8639999999999999
53,1.8639999999999999
54,1.8639999999999999
55,1.8639999999999999
56,1.8639999999999999
57,1.8639999999999999
58,1.8639999999999999
59,1.8639999999999999
60,1.8639999999999999
61,1.8639999999999999
62,1.8639999999999999
63,1.8639999999999999
64,1.8639999999999999
65,1.8639999999999999
66,1.8639999999999999
67,2.7279999999999998
68,3.7279999999999998
69,3.7279999999999998
70,3.7279999999999998
71,3.7279999999999998
72,3.7279999999999998
73,3.7279999999999998
74,3.7279999999999998
75,3.7279999999999998
76,3.7279999999999998
77,3.7279999999999998
78,3.7279999999999998
79,4.592
80,4.592
81,4.592
82,4.592
83,4.592
84,4.592
85,4.592
86,4.592
87,4.592
88,4.592
89,4.592
90,4.592
91,4.592
92,4.592
93,4.592
94,4.592
95,4.592
96,4.592
97,4.592
98,4.592
99,4.592
100,4.592
101,4.592
102,4.592
103,4.592
104,4.592
105,4.592
106,4.592
107,4.592
108,4.592
109,4.592
110,4.592
111,4.592
112,4.592
113,4.592
114,4.592
115,4.592
116,4.592
117,4.592
118,4.592
119,4.592
120,4.592
121,4.592
122,4.592
123,4.592
124,4.592
125,4.592
126,4.592
127,4.592
128,4.592
129,4.592
130,4.592
131,4.592
132,4.592
133,4.592
134,4.592
135,4.592
136,4.592
137,4.592
138,4.592
139,4.728
140,4.728
141,4.728
142,4.728
143,4.728
144,4.728
145,4.728
146,4.728
147,4.728
148,4.728
149,5.592
150,5.592
151,5.592
152,5.592
153,5.592
154,5.592
155,5.592
156,5.592
157,5.592
158,5.592
159,5.592
160,5.592
161,5.592
162,5.592
163,5.592
164,5.592
165,5.592
166,5.592
167,5.592
168,5.592
169,5.592
170,5.592
171,5.592
172,5.592
173,5.592
174,5.592
175,5.592
176,5.592
177,5.592
178,5.592
179,5.592
180,5.592
181,5.592
182,5.592
183,5.592
184,5.592
185,5.592
186,5.592
187,5.592
188,5.592
189,5.592
190,5.592
191,6.592
192,6.592
193,6.592
194,6.592
195,6.592
196,6.592
197,6.592
198,6.592
199,6.592
200,6.592
201,6.592
202,6.592
203,6.592
204,6.592
205,6.592
206,6.592
207,6.592
208,6.592
209,6.592
210,6.592
211,6.592
212,6.592
213,6.728
214,6.728
215,6.728
216,6.728
217,6.728
218,6.728
219,6.728
220,6.728
221,6.728
222,6.728
223,6.728
224,6.728
225,6.728
226,6.728
227,6.728
228,6.728
229,6.728
230,6.728
231,6.728
232,6.728
233,6.728
234,6.728
235,6.728
236,7.523
237,7.659
238,7.659
239,7.659
240,7.659
241,7.659
242,7.659
243,7.659
244,7.659
245,7.659
246,7.659
247,7.659
248,7.659
249,7.659
250,7.659
251,7.659
252,7.659
253,7.659
254,7.659
255,7.659
256,7.659
257,7.659
258,7.659
259,7.659
260,7.659
261,7.659
262,7.659
263,7.659
264,7.659
265,7.659
266,7.659
267,7.659
268,7.659
269,7.659
270,7.659
271,7.659
272,7.659
273,7.659
274,7.659
275,7.659
276,7.659
277,7.659
278,7.659
279,7.659
280,7.659
281,7.659
282,7.659
283,7.659
284,7.659
285,7.659
286,7.659
287,7.659
288,7.659
289,7.659
290,7.659
291,7.659
292,7.659
293,7.659
294,7.659
295,7.659
296,7.659
297,7.659
298,7.659
299,7.659
300,7.659
301,7.659
302,7.659
303,7.659
304,7.659
305,7.659
306,7.659
307,7.659
308,7.659
309,7.659
310,7.659
311,7.659
312,7.659
313,7.659
314,7.659
315,7.659
316,7.659
317,7.659
318,7.659
319,7.659
320,7.659
321,7.659
322,7.659
323,7.659
324,7.659
325,7.659
326,7.659
327,7.659
328,7.659
329,7.659
330,7.659
331,7.659
332,7.659
333,7.659
334,7.659
335,7.659
336,7.659
337,7.659
338,7.659
339,7.659
340,7.659
341,7.659
342,7.659
343,7.659
344,7.659
345,7.659
346,7.659
347,7.659
348,7.659
349,7.659
350,7.659
