actions,scores
0,0
1,0
2,0
3,0
4,0
5,0
6,0
7,0
8,0
9,0
10,0
11,0
12,0.864
13,0.864
14,0.864
15,0.864
16,0.864
17,0.864
18,0.864
19,0.864
20,0.864
21,0.864
22,0.864
23,0.864
24,0.864
25,0.864
26,0.864
27,0.864
28,1.8639999999999999
29,1.8639999999999999
30,1.8639999999999999
31,1.8639999999999999
32,1.8639999999999999
33,1.8639999999999999
34,1.8639999999999999
35,1.8639999999999999
36,1.8639999999999999
37,1.8639999999999999
38,1.8639999999999999
39,1.8639999999999999
40,1.8639999999999999
41,1.8639999999999999
42,1.8639999999999999
43,1.8639999999999999
44,1.8639999999999999
45,1.8639999999999999
46,1.8639999999999999
47,1.8639999999999999
48,1.8639999999999999
49,1.8639999999999999
50,1.8639999999999999
51,1.8639999999999999
52,2.7279999999999998
53,2.7279999999999998
54,2.7279999999999998
55,2.7279999999999998
56,2.7279999999999998
57,2.7279999999999998
58,2.7279999999999998
59,2.7279999999999998
60,2.7279999999999998
61,2.7279999999999998
62,2.7279999999999998
63,2.7279999999999998
64,2.7279999999999998
65,2.7279999999999998
66,2.7279999999999998
67,2.7279999999999998
68,2.7279999999999998
69,2.7279999999999998
70,2.7279999999999998
71,2.7279999999999998
72,2.7279999999999998
73,2.7279999999999998
74,2.7279999999999998
75,2.7279999999999998
76,2.7279999999999998
77,2.7279999999999998
78,2.7279999999999998
79,2.7279999999999998
80,2.7279999999999998
81,3.5919999999999996
82,3.5919999999999996
83,3.5919999999999996
84,3.5919999999999996
85,3.5919999999999996
86,3.5919999999999996
87,3.5919999999999996
88,3.5919999999999996
89,3.5919999999999996
90,3.5919999999999996
91,3.5919999999999996
92,3.5919999999999996
93,3.5919999999999996
94,3.5919999999999996
95,3.5919999999999996
96,3.5919999999999996
97,3.5919999999999996
98,3.5919999999999996
99,3.5919999999999996
100,3.5919999999999996
101,3.5919999999999996
102,3.5919999999999996
103,3.5919999999999996
104,3.5919999999999996
105,3.5919999999999996
106,3.5919999999999996
107,3.5919999999999996
108,3.5919999999999996
109,3.5919999999999996
110,3.5919999999999996
111,3.5919999999999996
112,3.5919999999999996
113,3.5919999999999996
114,3.5919999999999996
115,3.5919999999999996
116,3.5919999999999996
117,3.5919999999999996
118,3.5919999999999996
119,3.5919999999999996
120,3.5919999999999996
121,3.5919999999999996
122,3.5919999999999996
123,3.5919999999999996
124,3.5919999999999996
125,3.5919999999999996
126,3.5919999999999996
127,3.5919999999999996
128,3.5919999999999996
129,3.5919999999999996
130,3.5919999999999996
131,3.5919999999999996
132,3.5919999999999996
133,3.5919999999999996
134,3.5919999999999996
135,3.5919999999999996
136,3.5919999999999996
137,3.5919999999999996
138,3.5919999999999996
139,3.5919999999999996
140,3.5919999999999996
141,3.5919999999999996
142,3.5919999999999996
143,3.5919999999999996
144,4.456
145,4.456
146,4.456
147,4.456
148,4.456
149,4.456
150,4.456
151,4.456
152,4.456
153,4.456
154,4.456
155,4.456
156,4.456
157,4.456
158,4.456
159,4.456
160,4.456
161,4.456
162,4.456
163,4.456
164,4.456
165,4.456
166,4.456
167,4.456
168,4.456
169,4.456
170,4.456
171,4.456
172,5.4559999999999995
173,5.4559999999999995
174,5.4559999999999995
175,5.4559999999999995
176,5.4559999999999995
177,5.4559999999999995
178,5.4559999999999995
179,5.592
180,5.592
181,5.592
182,5.592
183,5.592
184,5.592
185,5.592
186,5.592
187,5.592
188,5.592
189,5.592
190,5.592
191,5.592
192,5.592
193,5.592
194,5.592
195,5.592
196,5.592
197,5.592
198,5.592
199,5.592
200,5.592
201,5.592
202,5.592
203,5.592
204,6.592
205,6.592
206,6.592
207,6.592
208,6.592
209,6.592
210,6.592
211,6.387
212,6.387
213,6.387
214,6.387
215,6.387
216,6.387
217,6.387
218,6.387
219,6.387
220,6.387
221,6.387
222,6.387
223,6.387
224,6.387
225,6.387
226,6.387
227,6.387
228,6.387
229,6.387
230,6.387
231,6.387
232,6.387
233,6.387
234,6.387
235,6.387
236,6.387
237,6.387
238,6.387
239,7.387
240,7.387
241,7.387
242,7.387
243,7.387
244,7.387
245,7.387
246,7.387
247,7.387
248,7.387
249,7.387
250,7.387
251,7.387
252,7.387
253,7.387
254,7.387
255,7.387
256,7.387
257,7.387
258,7.387
259,7.387
260,7.387
261,7.387
262,7.387
263,7.387
264,7.592
265,7.592
266,7.592
267,7.592
268,7.592
269,7.592
270,7.592
271,7.592
272,7.592
273,7.592
274,7.728
275,7.728
276,7.728
277,7.728
278,7.728
279,7.728
280,7.728
281,7.728
282,7.728
283,7.728
284,7.864
285,7.864
286,7.864
287,7.864
288,7.864
289,7.864
290,7.864
291,7.864
292,7.864
293,7.864
294,7.864
295,7.864
296,7.864
297,7.864
298,7.864
299,7.864
300,7.864
301,7.864
302,7.864
303,7.864
304,7.864
305,7.864
306,7.864
307,7.864
308,7.864
309,7.864
310,7.864
311,7.864
312,7.864
313,7.864
314,7.864
315,7.864
316,7.864
317,7.864
318,7.864
319,7.864
320,7.864
321,7.864
322,7.864
323,7.864
324,7.864
325,7.864
326,7.864
327,7.864
328,7.864
329,7.864
330,7.864
331,7.864
332,7.864
333,7.864
334,7.864
335,7.864
336,7.864
337,7.864
338,7.864
339,7.659
340,7.659
341,7.659
342,7.659
343,7.659
344,7.659
345,7.659
346,7.659
347,7.659
348,7.659
349,7.659
350,7.659
