actions,scores
0,0
1,0
2,0
3,0
4,0
5,0
6,1.0
7,1.795
8,1.795
9,1.795
10,1.795
11,1.795
12,1.795
13,1.795
14,2.59
15,2.59
16,2.59
17,2.59
18,2.59
19,2.59
20,2.59
21,2.59
22,2.59
23,2.59
24,2.59
25,2.59
26,2.59
27,2.59
28,2.59
29,2.59
30,2.59
31,2.59
32,2.59
33,2.59
34,2.59
35,2.59
36,2.59
37,2.59
38,2.59
39,3.59
40,3.59
41,3.59
42,3.59
43,3.59
44,3.59
45,3.59
46,3.59
47,3.59
48,3.59
49,3.59
50,3.59
51,3.59
52,3.59
53,3.59
54,3.59
55,3.59
56,3.59
57,3.59
58,3.59
59,3.59
60,3.59
61,3.59
62,3.59
63,3.59
64,3.59
65,3.59
66,4.385
67,5.385
68,5.59
69,5.59
70,5.59
71,5.59
72,5.59
73,5.59
74,5.59
75,5.795
76,5.795
77,5.864
78,5.864
79,5.864
80,5.864
81,5.864
82,5.864
83,5.864
84,5.864
85,5.864
86,5.864
87,5.864
88,5.864
89,5.864
90,5.864
91,5.864
92,5.864
93,5.864
94,5.864
95,5.864
96,5.864
97,6.659
98,6.659
99,6.659
100,6.659
101,6.659
102,6.659
103,6.659
104,6.659
105,6.659
106,6.659
107,6.659
108,6.659
109,6.659
110,6.659
111,6.659
112,6.659
113,6.659
114,6.659
115,6.659
116,6.659
117,6.659
118,6.659
119,6.659
120,6.659
121,6.659
122,6.659
123,6.659
124,6.659
125,6.659
126,6.659
127,6.659
128,6.659
129,6.659
130,6.659
131,6.659
132,6.659
133,6.659
134,6.659
135,6.659
136,6.659
137,6.659
138,6.659
139,6.659
140,6.659
141,6.659
142,6.659
143,6.659
144,7.659
145,7.659
146,7.659
147,7.659
148,7.659
149,7.659
150,7.659
151,7.659
152,7.659
153,7.659
154,7.659
155,7.659
156,7.659
157,7.659
158,7.659
159,7.659
160,7.659
161,7.659
162,7.659
163,7.659
164,7.659
165,7.659
166,7.659
167,7.659
168,7.659
169,7.659
170,7.659
171,7.659
172,7.659
173,7.659
174,7.659
175,7.659
176,7.659
177,7.659
178,7.659
179,7.659
180,7.659
181,7.659
182,7.659
183,7.659
184,7.659
185,7.659
186,7.659
187,7.659
188,7.659
189,7.659
190,7.659
191,7.659
192,7.659
193,7.659
194,7.659
195,7.659
196,7.659
197,7.659
198,7.659
199,7.659
200,7.659
201,7.659
202,7.659
203,7.659
204,7.659
205,7.659
206,7.659
207,7.659
208,7.659
209,7.659
210,7.659
211,7.659
212,7.659
213,7.659
214,7.659
215,7.659
216,7.659
217,7.659
218,7.659
219,7.659
220,7.659
221,7.659
222,7.659
223,7.659
224,7.659
225,7.659
226,7.659
227,7.659
228,7.659
229,7.659
230,7.659
231,7.659
232,7.659
233,7.659
234,7.659
235,7.659
236,7.659
237,7.659
238,7.659
239,7.659
240,7.659
241,7.659
242,7.659
243,7.659
244,7.659
245,7.659
246,7.659
247,7.659
248,7.659
249,7.659
250,7.659
251,7.659
252,7.659
253,7.659
254,7.659
255,7.523
256,7.387
257,7.387
258,7.387
259,7.387
260,7.387
261,7.387
262,7.387
263,7.1819999999999995
264,7.1819999999999995
265,7.1819999999999995
266,7.1819999999999995
267,7.1819999999999995
268,7.1819999999999995
269,7.1819999999999995
270,7.1819999999999995
271,7.1819999999999995
272,7.1819999999999995
273,7.1819999999999995
274,7.1819999999999995
275,7.1819999999999995
276,7.1819999999999995
277,7.1819999999999995
278,7.1819999999999995
279,7.1819999999999995
280,7.1819999999999995
281,7.1819999999999995
282,7.1819999999999995
283,7.1819999999999995
284,7.387
285,7.387
286,7.387
287,7.387
288,7.387
289,7.387
290,7.523
291,7.523
292,7.523
293,7.523
294,7.523
295,7.523
296,7.523
297,7.728
298,7.728
299,7.728
300,7.728
301,7.728
302,7.728
303,7.728
304,7.728
305,7.728
306,7.728
307,7.728
308,7.728
309,7.728
310,7.728
311,7.728
312,7.728
313,7.728
314,7.728
315,7.728
316,7.728
317,7.728
318,7.728
319,7.728
320,7.728
321,7.728
322,7.728
323,7.728
324,7.728
325,7.728
326,7.728
327,7.728
328,7.728
329,7.728
330,7.728
331,7.728
332,7.728
333,7.728
334,7.728
335,7.728
336,7.728
337,7.728
338,7.728
339,7.728
340,7.728
341,7.728
342,7.728
343,7.728
344,7.728
345,7.728
346,7.728
347,7.728
348,7.728
349,7.728
350,7.728
