actions,scores
0,0
1,0
2,0
3,0
4,0
5,0
6,0
7,0
8,0.696
9,0.696
10,0.696
11,0.696
12,0.696
13,0.696
14,0.696
15,0.667
16,0.667
17,0.667
18,0.667
19,0.667
20,0.667
21,0.667
22,0.667
23,0.667
24,0.667
25,0.667
26,0.667
27,1.375
28,1.375
29,1.375
30,1.667
31,1.667
32,2.334
33,2.334
34,2.334
35,2.334
36,2.334
37,2.334
38,2.334
39,2.334
40,2.334
41,2.334
42,2.334
43,2.334
44,2.334
45,2.334
46,3.334
47,3.334
48,3.334
49,3.459
50,3.459
51,4.126
52,4.126
53,4.126
54,4.126
55,4.793
56,4.793
57,4.793
58,4.793
59,4.793
60,4.793
61,4.793
62,4.793
63,4.793
64,4.793
65,4.793
66,4.793
67,4.793
68,4.793
69,4.793
70,4.793
71,4.793
72,4.793
73,4.793
74,4.793
75,4.793
76,4.793
77,4.793
78,4.793
79,4.793
80,4.793
81,4.793
82,4.793
83,4.793
84,4.793
85,4.793
86,4.793
87,4.793
88,4.793
89,4.793
90,4.793
91,4.793
92,4.793
93,4.793
94,4.793
95,4.793
96,4.793
97,4.793
98,4.793
99,4.793
100,4.793
101,4.793
102,4.793
103,4.793
104,4.793
105,4.793
106,5.001
107,5.001
108,5.001
109,5.001
110,5.001
111,6.001
112,6.001
113,6.001
114,6.001
115,6.001
116,6.668
117,6.668
118,6.668
119,6.668
120,6.668
121,6.668
122,6.668
123,6.668
124,6.668
125,6.668
126,6.668
127,6.668
128,6.668
129,6.668
130,6.668
131,6.668
132,6.668
133,6.668
134,6.668
135,6.668
136,6.668
137,7.0009999999999994
138,7.0009999999999994
139,7.0009999999999994
140,7.0009999999999994
141,7.0009999999999994
142,7.0009999999999994
143,7.0009999999999994
144,7.0009999999999994
145,7.0009999999999994
146,7.0009999999999994
147,7.0009999999999994
148,7.0009999999999994
149,7.0009999999999994
150,7.0009999999999994
151,7.0009999999999994
152,7.0009999999999994
153,7.0009999999999994
154,7.334
155,7.334
156,7.334
157,7.334
158,7.334
159,7.334
160,7.334
161,7.334
162,7.334
163,7.334
164,7.334
165,7.334
166,7.334
167,7.334
168,7.334
169,7.334
170,7.334
171,7.334
172,7.334
173,7.334
174,7.334
175,7.334
176,7.334
177,7.334
178,7.334
179,7.334
180,7.334
181,7.334
182,7.334
183,7.334
184,7.334
185,7.667
186,7.667
187,7.667
188,7.667
189,7.667
190,7.667
191,7.667
192,7.667
193,7.667
194,7.667
195,7.667
196,7.667
197,7.667
198,7.667
199,7.667
200,7.667
201,7.667
202,7.667
203,7.667
204,7.667
205,7.667
206,7.667
207,7.667
208,8.0
209,8.0
210,8.0
211,8.0
212,8.0
