actions,scores
0,0
1,0
2,0
3,0
4,0
5,0
6,0
7,0
8,0
9,0
10,0
11,0
12,0
13,0
14,0
15,0.804
16,0.804
17,0.804
18,0.804
19,0.804
20,0.804
21,0.804
22,0.804
23,0.804
24,0.804
25,0.804
26,0.804
27,0.804
28,0.804
29,0.792
30,0.792
31,0.792
32,1.5
33,2.5
34,2.5
35,3.167
36,3.167
37,3.167
38,3.5840000000000005
39,3.5840000000000005
40,3.5840000000000005
41,4.251
42,4.251
43,4.251
44,4.918
45,4.918
46,4.918
47,4.918
48,4.918
49,5.2509999999999994
50,5.2509999999999994
51,5.2509999999999994
52,5.6259999999999994
53,6.6259999999999994
54,6.6259999999999994
55,6.6259999999999994
56,6.959
57,6.959
58,6.959
59,6.959
60,6.959
61,6.959
62,6.959
63,6.959
64,6.959
65,6.959
66,6.959
67,6.959
68,6.959
69,6.959
70,6.959
71,6.959
72,6.959
73,6.959
74,6.959
75,7.2509999999999994
76,7.2509999999999994
77,7.2509999999999994
78,7.2509999999999994
79,7.2509999999999994
80,7.2509999999999994
81,7.2509999999999994
82,7.2509999999999994
83,7.2509999999999994
84,7.2509999999999994
85,7.2509999999999994
86,7.2509999999999994
87,7.2509999999999994
88,7.2509999999999994
89,7.2509999999999994
90,7.2509999999999994
91,7.2509999999999994
92,7.2509999999999994
93,7.2509999999999994
94,7.2509999999999994
95,7.2509999999999994
96,7.2509999999999994
97,7.2509999999999994
98,7.2509999999999994
99,7.2509999999999994
100,7.2509999999999994
101,7.2509999999999994
102,7.2509999999999994
103,7.2509999999999994
104,7.2509999999999994
105,7.2509999999999994
106,7.2509999999999994
107,7.2509999999999994
108,7.459
109,7.459
110,7.459
111,7.459
112,7.459
113,7.459
114,7.459
115,7.792
116,7.792
117,7.792
118,7.792
119,7.792
120,7.792
121,7.792
122,7.792
123,7.792
124,7.792
125,7.792
126,7.792
127,7.792
128,7.792
129,7.792
130,7.792
131,7.792
132,7.792
133,7.792
134,7.792
135,7.792
136,7.792
137,7.792
138,7.792
139,7.792
140,7.792
141,7.792
142,7.792
143,7.792
144,7.792
145,7.792
146,7.792
147,7.792
148,7.792
149,7.792
150,7.792
151,7.792
152,7.792
153,7.792
154,7.792
155,7.792
156,7.792
157,7.792
158,7.792
159,7.792
160,7.792
161,7.792
162,7.792
163,7.792
164,8.0
165,8.0
166,8.0
167,8.0
168,8.0
