actions,scores
0,0
1,0
2,0
3,0
4,0
5,0
6,0
7,0
8,0
9,0
10,0
11,0.667
12,1.334
13,2.0010000000000003
14,2.0010000000000003
15,2.0010000000000003
16,2.0010000000000003
17,2.0010000000000003
18,2.418
19,2.418
20,2.418
21,2.418
22,2.418
23,2.793
24,3.585
25,3.585
26,3.585
27,3.585
28,3.585
29,3.585
30,3.585
31,3.793
32,3.793
33,4.793
34,4.793
35,4.793
36,4.793
37,4.793
38,4.793
39,4.793
40,4.793
41,4.793
42,4.793
43,4.793
44,4.793
45,4.793
46,4.793
47,4.793
48,4.793
49,4.793
50,4.793
51,4.793
52,5.5009999999999994
53,5.5009999999999994
54,5.5009999999999994
55,5.5009999999999994
56,5.5009999999999994
57,5.5009999999999994
58,5.5009999999999994
59,5.5009999999999994
60,5.834
61,6.5009999999999994
62,6.834
63,6.834
64,6.834
65,6.834
66,6.834
67,7.042
68,7.042
69,7.042
70,7.042
71,7.042
72,7.042
73,7.042
74,7.042
75,7.042
76,7.042
77,7.042
78,7.042
79,7.042
80,7.042
81,7.042
82,7.042
83,7.042
84,7.042
85,7.042
86,7.042
87,7.042
88,7.042
89,7.042
90,7.042
91,7.042
92,7.042
93,7.042
94,7.042
95,7.042
96,7.042
97,7.042
98,7.042
99,7.042
100,7.334
101,7.334
102,7.334
103,7.334
104,7.334
105,7.334
106,7.334
107,7.334
108,7.334
109,7.334
110,7.334
111,7.334
112,7.334
113,7.334
114,7.334
115,7.334
116,7.334
117,7.334
118,7.334
119,7.334
120,7.334
121,7.334
122,7.334
123,7.334
124,7.334
125,7.334
126,7.334
127,7.334
128,7.334
129,7.334
130,7.334
131,7.334
132,7.334
133,7.334
134,7.334
135,7.334
136,7.334
137,7.334
138,7.334
139,7.334
140,7.334
141,7.334
142,7.334
143,7.334
144,7.334
145,7.334
146,7.334
147,7.334
148,7.334
149,7.334
150,7.334
151,7.334
152,7.334
153,7.334
154,7.334
155,7.334
156,7.334
157,7.334
158,7.334
159,7.334
160,7.334
161,7.334
162,7.334
163,7.334
164,7.334
165,7.334
166,7.334
167,7.334
168,7.334
169,7.334
170,7.334
171,7.334
172,7.334
173,7.334
174,7.334
175,7.334
176,7.334
177,7.334
178,7.334
179,7.334
180,7.334
181,7.334
182,7.334
183,7.334
184,7.334
185,7.334
186,7.334
187,7.334
188,7.334
189,7.334
190,7.334
191,7.334
192,7.334
193,7.334
194,7.334
195,7.334
196,7.334
197,7.334
198,7.334
199,7.334
200,7.334
201,7.334
202,7.334
203,7.334
204,7.334
205,7.334
206,7.334
207,7.334
208,7.334
209,7.334
210,7.334
211,7.334
212,7.334
213,7.334
214,7.334
215,7.334
216,7.334
217,7.334
218,7.334
219,7.334
220,7.334
221,7.334
222,7.334
223,7.334
224,7.334
225,7.334
226,7.334
227,7.334
228,7.334
229,7.334
230,7.334
231,7.334
232,7.334
233,7.334
234,7.334
235,7.334
236,7.334
237,7.334
238,7.334
239,7.334
240,7.334
241,7.334
242,7.334
243,7.334
244,7.334
245,7.334
246,7.334
247,7.334
248,7.334
249,7.334
250,7.334
251,7.334
252,7.334
253,7.334
254,7.334
255,7.334
256,7.334
257,7.334
258,7.334
259,7.334
260,7.334
261,7.334
262,7.334
263,7.334
264,7.334
265,7.334
266,7.334
267,7.334
268,7.334
269,7.334
270,7.334
271,7.334
272,7.334
273,7.334
274,7.334
275,7.334
276,7.334
277,7.334
278,7.334
279,7.334
280,7.334
281,7.334
282,7.334
283,7.334
284,7.334
285,7.334
286,7.334
287,7.334
288,7.334
289,7.334
290,7.334
291,7.334
292,7.334
293,7.334
294,7.334
295,7.334
296,7.334
297,7.334
298,7.334
299,7.334
300,7.334
301,7.667
302,7.667
303,7.667
304,7.667
305,7.667
306,7.667
307,7.667
308,7.667
309,7.667
310,7.667
311,7.667
312,7.667
313,7.667
314,7.667
315,7.667
316,7.667
317,7.667
318,7.667
319,7.667
320,7.667
321,7.667
322,7.667
323,7.667
324,7.667
325,7.667
326,7.667
327,7.667
328,7.667
329,7.667
330,7.667
331,7.667
332,7.667
333,7.667
334,7.667
335,7.667
336,7.667
337,7.667
338,7.667
339,7.667
340,7.667
341,7.667
342,7.667
343,7.667
344,7.667
345,7.667
346,7.667
347,7.667
348,7.667
349,7.667
350,7.667
