actions,scores
0,0
1,0
2,0
3,0
4,0
5,0
6,0
7,0
8,1.0
9,1.0
10,1.0
11,1.0
12,1.0
13,1.667
14,1.667
15,1.667
16,1.667
17,1.667
18,1.667
19,1.667
20,1.667
21,1.667
22,2.209
23,2.542
24,2.542
25,2.542
26,2.542
27,2.542
28,2.542
29,2.542
30,2.542
31,2.542
32,2.542
33,2.542
34,2.542
35,2.542
36,2.542
37,3.0839999999999996
38,3.0839999999999996
39,3.0839999999999996
40,3.0839999999999996
41,3.0839999999999996
42,4.084
43,4.084
44,4.084
45,4.084
46,4.084
47,4.084
48,4.084
49,4.084
50,4.084
51,4.542
52,4.667
53,4.667
54,4.667
55,4.667
56,4.667
57,4.667
58,4.667
59,4.667
60,4.667
61,5.0
62,5.0
63,5.0
64,5.0
65,5.0
66,5.0
67,5.0
68,5.0
69,5.0
70,5.0
71,5.0
72,5.0
73,5.0
74,5.0
75,5.0
76,5.0
77,6.0
78,6.708
79,6.708
80,6.708
81,6.708
82,6.708
83,6.708
84,6.708
85,6.708
86,6.708
87,6.708
88,6.708
89,6.708
90,6.708
91,6.708
92,6.708
93,6.708
94,6.708
95,6.708
96,6.708
97,6.708
98,6.708
99,6.708
100,6.708
101,6.708
102,6.708
103,6.708
104,6.708
105,6.708
106,6.708
107,6.708
108,6.708
109,6.708
110,6.708
111,6.708
112,6.708
113,7.0
114,7.0
115,7.0
116,7.0
117,7.0
118,7.0
119,7.0
120,7.0
121,7.0
122,7.0
123,7.0
124,7.0
125,7.0
126,7.0
127,7.0
128,7.0
129,7.0
130,7.0
131,7.0
132,7.0
133,7.0
134,7.0
135,7.0
136,7.0
137,7.0
138,7.0
139,7.0
140,7.0
141,7.0
142,7.0
143,7.0
144,7.0
145,7.0
146,7.0
147,7.0
148,7.0
149,7.0
150,7.0
151,7.0
152,7.0
153,7.0
154,7.0
155,7.0
156,7.0
157,7.0
158,7.0
159,7.0
160,7.0
161,7.0
162,7.0
163,7.667
164,7.667
165,7.667
166,7.667
167,7.667
168,7.667
169,7.667
170,7.667
171,7.667
172,7.667
173,7.667
174,7.667
175,7.667
176,7.667
177,7.667
178,7.667
179,7.667
180,7.667
181,7.667
182,7.667
183,7.667
184,7.667
185,7.667
186,7.667
187,7.667
188,7.667
189,7.667
190,7.667
191,7.667
192,7.667
193,7.667
194,7.667
195,7.667
196,7.667
197,7.667
198,7.667
199,7.667
200,7.667
201,7.667
202,7.667
203,7.667
204,7.667
205,7.667
206,7.667
207,7.667
208,7.667
209,7.667
210,7.667
211,7.667
212,7.667
213,7.667
214,7.667
215,7.667
216,7.667
217,7.667
218,7.667
219,7.667
220,7.667
221,7.667
222,7.667
223,7.667
224,7.667
225,7.667
226,7.667
227,7.667
228,7.667
229,7.667
230,7.667
231,7.667
232,7.667
233,7.667
234,7.667
235,7.667
236,7.667
237,7.667
238,7.667
239,7.667
240,7.667
241,7.667
242,7.667
243,7.667
244,7.667
245,7.667
246,7.667
247,7.667
248,7.667
249,7.667
250,7.667
251,7.667
252,7.667
253,7.667
254,7.667
255,7.667
256,7.667
257,7.667
258,7.667
259,7.667
260,7.667
261,7.667
262,7.667
263,7.667
264,7.667
265,7.667
266,7.667
267,7.667
268,7.667
269,7.667
270,7.667
271,7.667
272,7.667
273,7.667
274,7.667
275,7.667
276,7.667
277,7.667
278,7.667
279,7.667
280,7.667
281,7.667
282,7.667
283,7.667
284,8.0
285,8.0
286,8.0
287,8.0
288,8.0
