actions,scores
0,0
1,0
2,0
3,0
4,0.696
5,0.696
6,0.696
7,0.696
8,0.667
9,0.667
10,0.667
11,1.667
12,1.667
13,1.667
14,1.667
15,1.667
16,1.667
17,1.667
18,1.667
19,1.667
20,1.667
21,1.667
22,1.667
23,1.667
24,2.459
25,3.1260000000000003
26,3.1260000000000003
27,3.918
28,3.918
29,3.918
30,3.918
31,3.918
32,3.918
33,3.918
34,3.918
35,3.918
36,4.126
37,4.334
38,4.334
39,4.334
40,4.334
41,4.334
42,4.334
43,4.334
44,4.334
45,4.334
46,4.334
47,5.042
48,5.042
49,5.042
50,5.042
51,5.042
52,5.042
53,5.042
54,5.375
55,5.375
56,5.375
57,5.375
58,5.375
59,5.375
60,5.375
61,5.375
62,5.667
63,5.667
64,5.667
65,5.667
66,5.667
67,5.667
68,5.667
69,5.667
70,5.667
71,5.667
72,5.667
73,5.667
74,5.667
75,5.667
76,6.375
77,6.375
78,6.375
79,6.375
80,6.375
81,6.375
82,6.375
83,6.375
84,6.375
85,6.375
86,6.375
87,6.375
88,6.375
89,6.375
90,6.375
91,6.375
92,6.375
93,6.375
94,6.375
95,6.375
96,6.375
97,6.375
98,6.375
99,6.375
100,6.375
101,6.375
102,6.375
103,6.375
104,6.375
105,6.375
106,6.375
107,6.375
108,6.375
109,6.375
110,6.375
111,6.375
112,6.375
113,6.375
114,6.375
115,6.375
116,6.375
117,6.375
118,6.375
119,6.375
120,6.375
121,6.375
122,6.375
123,6.375
124,6.375
125,6.375
126,6.375
127,6.375
128,6.375
129,6.375
130,6.375
131,6.375
132,6.375
133,6.375
134,6.375
135,6.375
136,6.375
137,6.375
138,6.375
139,6.375
140,6.375
141,6.375
142,6.375
143,6.375
144,6.375
145,6.375
146,6.375
147,6.375
148,6.375
149,7.042
150,7.042
151,7.042
152,7.042
153,7.042
154,7.042
155,7.042
156,7.042
157,7.042
158,7.042
159,7.042
160,7.042
161,7.042
162,7.042
163,7.042
164,7.042
165,7.042
166,7.042
167,7.042
168,7.042
169,7.042
170,7.042
171,7.042
172,7.375
173,7.375
174,7.375
175,7.375
176,7.375
177,7.708
178,7.708
179,7.708
180,7.708
181,7.708
182,7.708
183,7.708
184,7.708
185,7.708
186,7.708
187,7.708
188,7.708
189,7.708
190,7.708
191,7.708
192,7.708
193,7.708
194,7.708
195,7.708
196,7.708
197,7.708
198,7.708
199,7.708
200,7.708
201,7.708
202,7.708
203,7.708
204,7.708
205,7.708
206,7.708
207,7.708
208,7.708
209,7.708
210,7.708
211,7.708
212,7.708
213,7.708
214,7.708
215,7.708
216,7.708
217,7.708
218,7.708
219,7.708
220,7.708
221,7.708
222,7.708
223,7.708
224,7.708
225,7.708
226,7.708
227,7.708
228,7.708
229,7.708
230,7.708
231,7.708
232,7.708
233,7.708
234,7.708
235,7.708
236,7.708
237,7.708
238,7.708
239,7.708
240,7.708
241,7.708
242,7.708
243,7.708
244,7.708
245,7.708
246,7.708
247,7.708
248,7.708
249,7.708
250,7.708
251,7.708
252,7.708
253,7.708
254,7.708
255,7.708
256,7.708
257,7.708
258,7.708
259,7.708
260,7.708
261,7.708
262,7.708
263,7.708
264,7.708
265,7.708
266,7.708
267,7.708
268,7.708
269,7.708
270,7.708
271,7.708
272,7.708
273,7.708
274,7.708
275,7.708
276,7.708
277,7.708
278,7.708
279,7.708
280,7.708
281,7.708
282,7.708
283,7.708
284,7.708
285,7.708
286,7.708
287,8.0
288,8.0
289,8.0
290,8.0
291,8.0
