actions,scores
0,0
1,0.614
2,1.228
3,1.842
4,2.456
5,2.8419999999999996
6,2.8419999999999996
7,3.4559999999999995
8,3.4559999999999995
9,3.4559999999999995
10,4.069999999999999
11,4.933999999999999
12,4.933999999999999
13,4.933999999999999
14,4.933999999999999
15,4.933999999999999
16,4.933999999999999
17,4.933999999999999
18,4.933999999999999
19,4.933999999999999
20,4.933999999999999
21,4.933999999999999
22,4.933999999999999
23,4.933999999999999
24,5.319999999999999
25,5.319999999999999
26,5.319999999999999
27,5.319999999999999
28,5.319999999999999
29,5.319999999999999
30,5.319999999999999
31,5.5009999999999994
32,5.455
33,5.455
34,6.069
35,6.069
36,6.069
37,6.069
38,6.069
39,6.069
40,6.069
41,6.069
42,6.069
43,6.069
44,6.069
45,6.069
46,6.069
47,6.069
48,6.069
49,6.069
50,6.069
51,6.069
52,6.069
53,6.069
54,6.069
55,6.069
56,6.069
57,6.069
58,6.069
59,6.069
60,6.069
61,6.069
62,6.069
63,6.069
64,6.069
65,6.069
66,6.069
67,6.069
68,6.069
69,6.069
70,6.069
71,6.069
72,6.069
73,6.069
74,6.069
75,6.137
76,6.342
77,6.592
78,6.592
79,6.592
80,6.592
81,6.592
82,6.592
83,6.592
84,6.592
85,6.592
86,6.592
87,6.592
88,6.592
89,6.592
90,7.024
91,7.024
92,7.024
93,7.024
94,7.024
95,7.024
96,6.955
97,6.955
98,6.955
99,6.955
100,6.955
101,6.955
102,6.955
103,6.955
104,6.955
105,6.955
106,6.955
107,6.955
108,6.955
109,6.955
110,6.955
111,6.955
112,6.955
113,6.955
114,6.955
115,6.955
116,6.955
117,7.273
118,7.273
119,7.273
120,7.273
121,7.273
122,7.273
123,7.273
124,7.273
125,7.273
126,7.273
127,7.273
128,7.273
129,7.273
130,7.273
131,7.273
132,7.273
133,7.273
134,7.273
135,7.273
136,7.273
137,7.273
138,7.273
139,7.273
140,7.273
141,7.273
142,7.273
143,7.273
144,7.273
145,7.273
146,7.273
147,7.273
148,7.273
149,7.273
150,7.273
151,7.273
152,7.273
153,7.273
154,7.273
155,7.273
156,7.273
157,7.273
158,7.273
159,7.273
160,7.273
161,7.273
162,7.273
163,7.273
164,7.273
165,7.273
166,7.273
167,7.273
168,7.273
169,7.273
170,7.273
171,7.273
172,7.273
173,7.273
174,7.273
175,7.273
176,7.273
177,7.273
178,7.273
179,7.273
180,7.273
181,7.273
182,7.273
183,7.273
184,7.273
185,7.273
186,7.273
187,7.273
188,7.273
189,7.273
190,7.273
191,7.273
192,7.273
193,7.273
194,7.273
195,7.273
196,7.273
197,7.273
198,7.273
199,7.273
200,7.273
201,7.273
202,7.273
203,7.273
204,7.273
205,7.273
206,7.273
207,7.273
208,7.273
209,7.273
210,7.273
211,7.273
212,7.273
213,7.273
214,7.273
215,7.273
216,7.273
217,7.273
218,7.273
219,7.273
220,7.273
221,7.273
222,7.273
223,7.273
224,7.273
225,7.273
226,7.273
227,7.273
228,7.273
229,7.273
230,7.273
231,7.273
232,7.273
233,7.273
234,7.273
235,7.273
236,7.273
237,7.273
238,7.273
239,7.273
240,7.273
241,7.273
242,7.273
243,7.273
244,7.273
245,7.273
246,7.273
247,7.273
248,7.273
249,7.273
250,7.273
251,7.273
252,7.273
253,7.273
254,7.273
255,7.273
256,7.273
257,7.478
258,7.478
259,7.478
260,7.478
261,7.478
262,7.478
263,7.864
264,7.864
265,7.864
266,7.864
267,7.864
268,7.864
269,7.864
270,7.864
271,7.864
272,7.864
273,7.864
274,7.864
275,7.864
276,7.864
277,7.864
278,7.864
279,7.864
280,7.728
281,7.728
282,7.728
283,7.728
284,7.728
285,7.728
286,7.728
287,7.728
288,7.728
289,7.728
290,7.728
291,7.728
292,7.728
293,7.728
294,7.728
295,7.728
296,7.728
297,7.728
298,7.728
299,7.728
300,7.728
