actions,scores
0,0
1,0.614
2,0.614
3,1.228
4,1.228
5,1.842
6,2.706
7,2.706
8,2.706
9,3.32
10,4.184
11,4.184
12,4.184
13,4.184
14,4.798
15,4.798
16,4.798
17,4.798
18,4.798
19,4.798
20,4.798
21,4.798
22,4.798
23,4.798
24,4.933999999999999
25,4.933999999999999
26,5.548
27,5.548
28,5.548
29,5.548
30,5.548
31,5.548
32,5.548
33,5.548
34,5.548
35,5.548
36,5.548
37,5.548
38,5.548
39,5.548
40,5.548
41,5.548
42,5.548
43,5.548
44,5.548
45,5.548
46,5.548
47,5.548
48,5.548
49,5.548
50,5.798
51,5.798
52,5.798
53,5.798
54,5.798
55,5.798
56,5.798
57,6.184
58,6.184
59,6.184
60,6.184
61,6.184
62,6.184
63,6.184
64,6.184
65,6.184
66,6.184
67,6.184
68,6.184
69,6.365
70,6.365
71,6.365
72,6.365
73,6.365
74,6.365
75,6.365
76,6.365
77,6.365
78,6.365
79,6.365
80,6.365
81,6.365
82,6.365
83,6.365
84,6.365
85,6.365
86,6.365
87,6.365
88,6.365
89,6.365
90,6.365
91,6.365
92,6.365
93,6.365
94,6.365
95,6.365
96,6.365
97,6.365
98,6.7509999999999994
99,6.7509999999999994
100,6.7509999999999994
101,6.7509999999999994
102,6.7509999999999994
103,6.7509999999999994
104,6.7509999999999994
105,6.7509999999999994
106,6.7509999999999994
107,6.7509999999999994
108,6.7509999999999994
109,6.7509999999999994
110,6.7509999999999994
111,6.7509999999999994
112,6.7509999999999994
113,6.7509999999999994
114,6.7509999999999994
115,6.7509999999999994
116,6.7509999999999994
117,6.7509999999999994
118,6.7509999999999994
119,6.7509999999999994
120,6.7509999999999994
121,6.7509999999999994
122,6.7509999999999994
123,6.7509999999999994
124,6.7509999999999994
125,6.7509999999999994
126,6.887
127,6.887
128,7.273
129,7.273
130,7.273
131,7.273
132,7.273
133,7.273
134,7.273
135,7.273
136,7.273
137,7.478
138,7.478
139,7.478
140,7.478
141,7.478
142,7.478
143,7.478
144,7.478
145,7.478
146,7.478
147,7.478
148,7.478
149,7.478
150,7.478
151,7.478
152,7.478
153,7.478
154,7.478
155,7.478
156,7.478
157,7.478
158,7.478
159,7.478
160,7.478
161,7.478
162,7.478
163,7.478
164,7.478
165,7.478
166,7.478
167,7.478
168,7.478
169,7.478
170,7.478
171,7.478
172,7.478
173,7.478
174,7.478
175,7.478
176,7.478
177,7.478
178,7.478
179,7.478
180,7.478
181,7.478
182,7.478
183,7.478
184,7.478
185,7.478
186,7.478
187,7.478
188,7.478
189,7.478
190,7.478
191,7.478
192,7.478
193,7.478
194,7.478
195,7.478
196,7.478
197,7.478
198,7.478
199,7.478
200,7.478
201,7.478
202,7.478
203,7.478
204,7.478
205,7.478
206,7.478
207,7.478
208,7.478
209,7.478
210,7.478
211,7.478
212,7.478
213,7.478
214,7.478
215,7.478
216,7.478
217,7.478
218,7.478
219,7.478
220,7.478
221,7.728
222,7.728
223,7.728
224,7.728
225,7.592
226,7.592
227,7.592
228,7.592
229,7.592
230,7.592
231,7.592
232,7.592
233,7.592
234,7.592
235,7.592
236,7.592
237,7.592
238,7.592
239,7.592
240,7.592
241,7.592
242,7.592
243,7.592
244,7.592
245,7.592
246,7.592
247,7.592
248,7.592
249,7.592
250,7.592
251,7.592
252,7.592
253,7.592
254,7.592
255,7.592
256,7.592
257,7.592
258,7.592
259,7.592
260,7.3870000000000005
261,7.3870000000000005
262,7.3870000000000005
263,7.3870000000000005
264,7.3870000000000005
265,7.3870000000000005
266,7.3870000000000005
267,7.3870000000000005
268,7.3870000000000005
269,7.3870000000000005
270,7.3870000000000005
271,7.3870000000000005
272,7.3870000000000005
273,7.3870000000000005
274,7.3870000000000005
275,7.3870000000000005
276,7.3870000000000005
277,7.3870000000000005
278,7.3870000000000005
279,7.3870000000000005
280,7.3870000000000005
281,7.3870000000000005
282,7.3870000000000005
283,7.3870000000000005
284,7.3870000000000005
285,7.3870000000000005
286,7.3870000000000005
287,7.3870000000000005
288,7.3870000000000005
289,7.3870000000000005
290,7.3870000000000005
291,7.3870000000000005
292,7.3870000000000005
293,7.3870000000000005
294,7.3870000000000005
295,7.523
296,7.523
297,7.523
298,7.523
299,7.523
300,7.523
