actions,scores
0,0
1,0.614
2,1.228
3,1.842
4,2.456
5,3.07
6,3.6839999999999997
7,4.298
8,4.912
9,4.912
10,4.912
11,4.912
12,4.912
13,4.912
14,4.912
15,4.912
16,4.912
17,4.912
18,4.912
19,4.912
20,4.912
21,4.912
22,4.912
23,4.912
24,4.912
25,4.912
26,4.912
27,4.912
28,4.912
29,4.912
30,4.912
31,4.912
32,4.912
33,4.912
34,4.912
35,4.912
36,4.912
37,4.912
38,4.912
39,4.912
40,4.912
41,4.912
42,4.912
43,4.912
44,4.912
45,4.912
46,5.162
47,5.162
48,5.162
49,5.162
50,5.162
51,5.548
52,5.548
53,5.548
54,5.548
55,5.548
56,5.798
57,5.798
58,5.798
59,5.798
60,5.798
61,5.798
62,5.798
63,5.798
64,5.798
65,5.798
66,5.798
67,5.798
68,5.798
69,5.798
70,5.798
71,5.798
72,5.798
73,5.798
74,5.798
75,5.798
76,5.798
77,5.798
78,5.798
79,5.798
80,6.048
81,6.048
82,6.298
83,6.298
84,6.298
85,6.298
86,6.298
87,6.298
88,6.298
89,6.298
90,6.298
91,6.298
92,6.684
93,6.684
94,6.684
95,6.684
96,6.684
97,6.684
98,6.684
99,6.684
100,6.684
101,6.684
102,6.684
103,6.684
104,6.684
105,6.684
106,6.684
107,6.684
108,6.684
109,6.684
110,6.684
111,6.684
112,6.684
113,6.684
114,6.684
115,6.684
116,6.684
117,6.684
118,6.684
119,6.684
120,6.684
121,6.684
122,6.684
123,6.684
124,6.684
125,6.684
126,6.684
127,6.684
128,6.684
129,6.684
130,6.684
131,6.684
132,6.684
133,6.684
134,6.684
135,6.684
136,6.684
137,6.684
138,6.684
139,6.684
140,6.684
141,6.684
142,6.684
143,6.684
144,6.684
145,6.684
146,6.684
147,6.684
148,6.684
149,6.684
150,6.684
151,6.684
152,6.684
153,6.684
154,6.684
155,6.684
156,6.684
157,6.684
158,6.684
159,6.684
160,6.684
161,6.684
162,6.684
163,6.684
164,6.684
165,6.684
166,6.684
167,6.684
168,6.684
169,6.684
170,6.684
171,6.684
172,6.684
173,6.684
174,6.684
175,6.684
176,6.684
177,6.684
178,6.684
179,6.82
180,6.9559999999999995
181,6.9559999999999995
182,6.9559999999999995
183,6.9559999999999995
184,6.9559999999999995
185,6.9559999999999995
186,6.9559999999999995
187,6.9559999999999995
188,7.342
189,7.342
190,7.342
191,7.342
192,7.342
193,7.342
194,7.342
195,7.342
196,7.342
197,7.342
198,7.342
199,7.342
200,7.342
201,7.342
202,7.342
203,7.342
204,7.342
205,7.342
206,7.342
207,7.342
208,7.342
209,7.342
210,7.342
211,7.342
212,7.342
213,7.342
214,7.342
215,7.342
216,7.342
217,7.342
218,7.342
219,7.342
220,7.342
221,7.342
222,7.342
223,7.342
224,7.342
225,7.342
226,7.342
227,7.342
228,7.342
229,7.342
230,7.342
231,7.342
232,7.342
233,7.342
234,7.342
235,7.342
236,7.342
237,7.342
238,7.342
239,7.342
240,7.342
241,7.342
242,7.523
243,7.523
244,7.523
245,7.523
246,7.523
247,7.523
248,7.523
249,7.523
250,7.523
251,7.523
252,7.523
253,7.523
254,7.523
255,7.523
256,7.523
257,7.523
258,7.523
259,7.523
260,7.523
261,7.523
262,7.523
263,7.523
264,7.523
265,7.523
266,7.523
267,7.523
268,7.523
269,7.523
270,7.523
271,7.523
272,7.523
273,7.523
274,7.523
275,7.523
276,7.523
277,7.523
278,7.523
279,7.523
280,7.523
281,7.523
282,7.523
283,7.523
284,7.523
285,7.523
286,7.523
287,7.523
288,7.523
289,7.523
290,7.523
291,7.523
292,7.523
293,7.523
294,7.523
295,7.523
296,7.523
297,7.523
298,7.523
299,7.523
300,7.523
