actions,scores
0,0
1,0.614
2,1.228
3,1.842
4,1.842
5,1.842
6,1.842
7,1.842
8,2.092
9,2.092
10,2.092
11,2.092
12,2.092
13,2.092
14,2.706
15,2.706
16,2.706
17,2.706
18,2.706
19,2.706
20,3.32
21,3.32
22,3.32
23,3.32
24,3.32
25,3.32
26,3.9339999999999997
27,3.9339999999999997
28,3.9339999999999997
29,3.9339999999999997
30,3.9339999999999997
31,4.184
32,4.604
33,4.604
34,4.604
35,5.604
36,5.604
37,5.604
38,5.604
39,5.604
40,6.048
41,6.048
42,6.048
43,6.048
44,6.048
45,6.048
46,6.048
47,6.048
48,6.048
49,6.048
50,6.048
51,6.048
52,6.048
53,6.048
54,6.048
55,6.048
56,6.048
57,6.048
58,6.048
59,6.048
60,6.048
61,6.048
62,6.048
63,6.048
64,6.048
65,6.048
66,6.048
67,6.229
68,6.229
69,6.229
70,6.229
71,6.229
72,6.229
73,6.229
74,6.229
75,6.229
76,6.229
77,6.229
78,6.229
79,6.229
80,6.229
81,6.229
82,6.229
83,6.229
84,6.229
85,6.229
86,6.434
87,6.434
88,6.434
89,6.434
90,6.434
91,6.434
92,6.434
93,6.434
94,6.434
95,6.434
96,6.434
97,6.434
98,6.434
99,6.434
100,6.434
101,6.569999999999999
102,6.569999999999999
103,6.569999999999999
104,6.569999999999999
105,6.569999999999999
106,6.569999999999999
107,6.569999999999999
108,6.569999999999999
109,6.569999999999999
110,6.569999999999999
111,6.569999999999999
112,6.569999999999999
113,6.569999999999999
114,6.569999999999999
115,6.9559999999999995
116,6.9559999999999995
117,6.9559999999999995
118,6.9559999999999995
119,6.9559999999999995
120,6.9559999999999995
121,6.9559999999999995
122,6.9559999999999995
123,6.9559999999999995
124,6.9559999999999995
125,6.9559999999999995
126,6.9559999999999995
127,6.9559999999999995
128,6.9559999999999995
129,6.9559999999999995
130,6.9559999999999995
131,6.9559999999999995
132,6.9559999999999995
133,6.9559999999999995
134,6.9559999999999995
135,6.9559999999999995
136,6.9559999999999995
137,7.342
138,7.342
139,7.342
140,7.342
141,7.342
142,7.342
143,7.342
144,7.342
145,7.342
146,7.342
147,7.342
148,7.342
149,7.342
150,7.342
151,7.342
152,7.342
153,7.342
154,7.342
155,7.342
156,7.342
157,7.342
158,7.342
159,7.342
160,7.342
161,7.342
162,7.342
163,7.342
164,7.342
165,7.342
166,7.342
167,7.342
168,7.342
169,7.342
170,7.342
171,7.342
172,7.342
173,7.342
174,7.342
175,7.342
176,7.342
177,7.342
178,7.342
179,7.342
180,7.342
181,7.342
182,7.342
183,7.342
184,7.342
185,7.342
186,7.342
187,7.342
188,7.342
189,7.342
190,7.342
191,7.342
192,7.342
193,7.342
194,7.342
195,7.342
196,7.342
197,7.342
198,7.342
199,7.342
200,7.342
201,7.342
202,7.342
203,7.342
204,7.342
205,7.342
206,7.342
207,7.342
208,7.342
209,7.342
210,7.342
211,7.342
212,7.342
213,7.342
214,7.342
215,7.342
216,7.342
217,7.342
218,7.342
219,7.342
220,7.342
221,7.342
222,7.342
223,7.342
224,7.342
225,7.342
226,7.342
227,7.342
228,7.342
229,7.342
230,7.342
231,7.342
232,7.342
233,7.523
234,7.523
235,7.523
236,7.523
237,7.523
238,7.523
239,7.523
240,7.523
241,7.523
242,7.523
243,7.523
244,7.523
245,7.523
246,7.523
247,7.523
248,7.523
249,7.659
250,7.659
251,7.659
252,7.659
253,7.659
254,7.659
255,7.659
256,7.659
257,7.659
258,7.659
259,7.659
260,7.659
261,7.659
262,7.659
263,7.659
264,7.659
265,7.659
266,7.659
267,7.659
268,7.659
269,7.659
270,7.659
271,7.659
272,7.659
273,7.659
274,7.659
275,7.659
276,7.659
277,7.659
278,7.659
279,7.659
280,7.659
281,7.659
282,7.659
283,7.659
284,7.659
285,7.659
286,7.659
287,7.659
288,7.659
289,7.659
290,7.659
291,7.659
292,7.659
293,7.659
294,7.659
295,7.659
296,7.659
297,7.659
298,7.659
299,7.659
300,7.659
