actions,scores
0,0
1,0.614
2,1.228
3,1.842
4,2.456
5,3.07
6,3.6839999999999997
7,4.298
8,4.912
9,5.298
10,5.298
11,5.298
12,5.298
13,5.298
14,5.298
15,5.298
16,5.298
17,5.298
18,5.298
19,5.298
20,5.298
21,5.298
22,5.298
23,5.298
24,5.298
25,5.298
26,5.298
27,5.298
28,5.298
29,5.298
30,5.298
31,5.298
32,5.298
33,5.298
34,5.298
35,5.298
36,5.298
37,5.298
38,5.298
39,5.298
40,5.298
41,5.298
42,5.298
43,5.298
44,5.298
45,5.298
46,5.298
47,5.298
48,5.298
49,5.298
50,5.298
51,5.298
52,5.298
53,5.298
54,5.298
55,5.298
56,5.298
57,5.298
58,5.298
59,5.298
60,5.298
61,5.298
62,5.298
63,5.298
64,5.298
65,5.298
66,5.298
67,5.479
68,5.479
69,5.479
70,5.479
71,5.479
72,5.479
73,5.479
74,5.479
75,5.479
76,5.479
77,5.479
78,5.479
79,5.479
80,5.479
81,5.479
82,5.479
83,5.479
84,5.864999999999999
85,5.864999999999999
86,5.864999999999999
87,5.864999999999999
88,5.864999999999999
89,5.864999999999999
90,5.864999999999999
91,5.864999999999999
92,5.864999999999999
93,5.864999999999999
94,5.864999999999999
95,5.864999999999999
96,5.864999999999999
97,5.864999999999999
98,6.114999999999999
99,6.114999999999999
100,6.114999999999999
101,6.114999999999999
102,6.114999999999999
103,6.114999999999999
104,6.114999999999999
105,6.114999999999999
106,6.114999999999999
107,6.114999999999999
108,6.114999999999999
109,6.114999999999999
110,6.114999999999999
111,6.114999999999999
112,6.114999999999999
113,6.114999999999999
114,6.114999999999999
115,6.114999999999999
116,6.114999999999999
117,6.114999999999999
118,6.114999999999999
119,6.114999999999999
120,6.114999999999999
121,6.114999999999999
122,6.114999999999999
123,6.364999999999999
124,6.364999999999999
125,6.364999999999999
126,6.364999999999999
127,6.364999999999999
128,6.364999999999999
129,6.364999999999999
130,6.364999999999999
131,6.364999999999999
132,6.364999999999999
133,6.364999999999999
134,6.364999999999999
135,6.364999999999999
136,6.364999999999999
137,6.364999999999999
138,6.364999999999999
139,6.364999999999999
140,6.364999999999999
141,6.7509999999999994
142,6.7509999999999994
143,6.7509999999999994
144,6.7509999999999994
145,6.7509999999999994
146,6.7509999999999994
147,6.7509999999999994
148,6.7509999999999994
149,6.7509999999999994
150,6.9319999999999995
151,6.9319999999999995
152,6.9319999999999995
153,6.9319999999999995
154,6.9319999999999995
155,6.9319999999999995
156,6.9319999999999995
157,6.9319999999999995
158,6.9319999999999995
159,6.9319999999999995
160,6.9319999999999995
161,6.9319999999999995
162,6.9319999999999995
163,6.9319999999999995
164,6.9319999999999995
165,6.9319999999999995
166,6.9319999999999995
167,6.9319999999999995
168,6.9319999999999995
169,6.9319999999999995
170,7.137
171,7.137
172,7.137
173,7.137
174,7.137
175,7.137
176,7.137
177,7.137
178,7.137
179,7.137
180,7.137
181,7.137
182,7.137
183,7.137
184,7.137
185,7.137
186,7.137
187,7.137
188,7.137
189,7.137
190,7.137
191,7.137
192,7.137
193,7.137
194,7.137
195,7.137
196,7.137
197,7.137
198,7.137
199,7.137
200,7.137
201,7.137
202,7.137
203,7.137
204,7.137
205,7.137
206,7.137
207,7.137
208,7.137
209,7.137
210,7.137
211,7.137
212,7.137
213,7.137
214,7.137
215,7.137
216,7.137
217,7.137
218,7.137
219,7.137
220,7.137
221,7.137
222,7.137
223,7.137
224,7.137
225,7.137
226,7.137
227,7.137
228,7.137
229,7.137
230,7.137
231,7.137
232,7.137
233,7.137
234,7.137
235,7.137
236,7.137
237,7.137
238,7.137
239,7.137
240,7.137
241,7.137
242,7.137
243,7.137
244,7.137
245,7.137
246,7.137
247,7.137
248,7.137
249,7.137
250,7.137
251,7.137
252,7.137
253,7.137
254,7.137
255,7.137
256,7.137
257,7.137
258,7.137
259,7.137
260,7.137
261,7.137
262,7.137
263,7.137
264,7.137
265,7.137
266,7.137
267,7.137
268,7.137
269,7.137
270,7.137
271,7.137
272,7.137
273,7.137
274,7.137
275,7.137
276,7.137
277,7.137
278,7.137
279,7.137
280,7.137
281,7.137
282,7.137
283,7.137
284,7.137
285,7.137
286,7.137
287,7.137
288,7.137
289,7.137
290,7.137
291,7.137
292,7.137
293,7.137
294,7.137
295,7.137
296,7.137
297,7.137
298,7.137
299,7.137
300,7.137
