actions,scores
0,0
1,0
2,0
3,0.614
4,1.228
5,1.842
6,2.456
7,3.07
8,3.6839999999999997
9,3.6839999999999997
10,3.6839999999999997
11,4.683999999999999
12,4.683999999999999
13,4.683999999999999
14,4.683999999999999
15,4.683999999999999
16,4.683999999999999
17,4.683999999999999
18,4.933999999999999
19,4.933999999999999
20,4.933999999999999
21,4.933999999999999
22,4.933999999999999
23,4.933999999999999
24,4.933999999999999
25,4.933999999999999
26,4.933999999999999
27,4.933999999999999
28,5.798
29,5.798
30,5.798
31,5.798
32,5.798
33,5.798
34,5.798
35,5.798
36,5.798
37,5.798
38,6.184
39,6.434
40,6.434
41,6.434
42,6.434
43,6.434
44,6.434
45,6.434
46,6.434
47,6.434
48,6.434
49,6.434
50,6.434
51,6.434
52,6.434
53,6.434
54,6.434
55,6.434
56,6.434
57,6.434
58,6.434
59,6.434
60,6.434
61,6.434
62,6.434
63,6.434
64,6.434
65,6.434
66,6.434
67,6.434
68,6.434
69,6.434
70,6.434
71,6.434
72,6.434
73,6.434
74,6.434
75,6.434
76,6.434
77,6.434
78,6.434
79,6.434
80,6.434
81,6.434
82,6.434
83,6.434
84,6.434
85,6.684
86,6.684
87,6.684
88,6.684
89,6.684
90,6.684
91,6.684
92,6.684
93,6.684
94,6.684
95,6.684
96,6.684
97,6.684
98,6.684
99,6.684
100,6.684
101,6.684
102,6.684
103,6.684
104,6.684
105,6.684
106,6.684
107,6.684
108,6.684
109,6.684
110,6.684
111,6.684
112,6.684
113,6.684
114,6.684
115,6.684
116,6.684
117,6.684
118,6.684
119,6.684
120,6.684
121,6.684
122,6.684
123,6.684
124,6.684
125,6.684
126,6.684
127,6.684
128,6.684
129,6.684
130,6.684
131,6.684
132,6.684
133,7.069999999999999
134,7.069999999999999
135,7.069999999999999
136,7.069999999999999
137,7.069999999999999
138,7.069999999999999
139,7.069999999999999
140,7.069999999999999
141,7.069999999999999
142,7.069999999999999
143,7.069999999999999
144,7.069999999999999
145,7.069999999999999
146,7.069999999999999
147,7.069999999999999
148,7.4559999999999995
149,7.4559999999999995
150,7.4559999999999995
151,7.4559999999999995
152,7.4559999999999995
153,7.4559999999999995
154,7.4559999999999995
155,7.4559999999999995
156,7.592
157,7.592
158,7.592
159,7.592
160,7.592
161,7.592
162,7.592
163,7.592
164,7.592
165,7.592
166,7.592
167,7.592
168,7.592
169,7.592
170,7.592
171,7.592
172,7.592
173,7.592
174,7.592
175,7.592
176,7.592
177,7.592
178,7.592
179,7.592
180,7.592
181,7.592
182,7.592
183,7.592
184,7.592
185,7.592
186,7.592
187,7.592
188,7.592
189,7.592
190,7.592
191,7.592
192,7.592
193,7.592
194,7.592
195,7.592
196,7.592
197,7.592
198,7.592
199,7.592
200,7.592
201,7.592
202,7.592
203,7.592
204,7.592
205,7.592
206,7.592
207,7.592
208,7.592
209,7.592
210,7.592
211,7.592
212,7.592
213,7.592
214,7.592
215,7.592
216,7.592
217,7.592
218,7.592
219,7.592
220,7.592
221,7.592
222,7.592
223,7.728
224,7.728
225,7.864
226,7.864
227,7.864
228,7.864
229,7.864
230,7.864
231,7.864
232,7.864
233,7.864
234,7.864
235,7.864
236,7.864
237,7.864
238,7.864
239,7.864
240,7.864
241,7.864
242,7.864
243,7.864
244,7.864
245,7.864
246,7.864
247,7.864
248,7.864
249,7.864
250,7.864
251,7.864
252,7.864
253,7.864
254,7.864
255,7.864
256,7.864
257,7.864
258,7.864
259,7.864
260,7.864
261,7.864
262,7.864
263,7.864
264,7.864
265,7.864
266,7.864
267,7.864
268,7.864
269,7.864
270,7.864
271,7.864
272,7.864
273,7.864
274,7.864
275,7.864
276,7.864
277,7.864
278,7.864
279,7.864
280,7.864
281,7.864
282,7.864
283,7.864
284,7.864
285,7.864
286,7.864
287,7.864
288,7.864
289,7.864
290,7.864
291,7.864
292,7.864
293,7.864
294,7.864
295,7.864
296,7.864
297,7.864
298,7.864
299,7.864
300,7.864
