actions,scores
0,0
1,0.614
2,1.228
3,1.842
4,1.842
5,1.842
6,1.842
7,1.842
8,2.023
9,2.637
10,2.637
11,2.637
12,3.251
13,3.251
14,3.8649999999999998
15,3.8649999999999998
16,3.6599999999999997
17,3.9099999999999997
18,3.9099999999999997
19,3.9099999999999997
20,4.524
21,4.524
22,5.114999999999999
23,5.114999999999999
24,5.114999999999999
25,5.114999999999999
26,5.114999999999999
27,5.114999999999999
28,5.114999999999999
29,5.114999999999999
30,5.114999999999999
31,5.114999999999999
32,5.114999999999999
33,5.114999999999999
34,5.5009999999999994
35,5.5009999999999994
36,5.5009999999999994
37,5.5009999999999994
38,5.5009999999999994
39,5.5009999999999994
40,5.5009999999999994
41,5.5009999999999994
42,5.5009999999999994
43,6.295999999999999
44,6.295999999999999
45,6.295999999999999
46,6.295999999999999
47,6.295999999999999
48,6.295999999999999
49,6.295999999999999
50,6.295999999999999
51,6.295999999999999
52,6.5009999999999994
53,6.5009999999999994
54,6.887
55,6.887
56,6.887
57,6.887
58,6.887
59,6.887
60,6.887
61,6.887
62,6.887
63,7.137
64,7.137
65,7.137
66,7.137
67,7.137
68,7.137
69,7.137
70,7.137
71,7.137
72,7.137
73,7.137
74,7.137
75,7.137
76,7.137
77,7.137
78,7.137
79,7.137
80,7.137
81,7.137
82,7.137
83,7.137
84,7.137
85,7.137
86,7.137
87,7.137
88,7.137
89,7.137
90,7.137
91,7.137
92,7.137
93,7.137
94,7.137
95,7.137
96,7.137
97,7.137
98,7.137
99,7.137
100,7.137
101,7.137
102,7.137
103,7.137
104,7.137
105,7.137
106,7.137
107,7.137
108,7.137
109,7.137
110,7.137
111,7.137
112,7.137
113,7.137
114,7.137
115,7.137
116,7.137
117,7.137
118,7.137
119,7.137
120,7.137
121,7.137
122,7.137
123,7.137
124,7.137
125,7.137
126,7.137
127,7.137
128,7.137
129,7.137
130,7.137
131,7.137
132,7.137
133,7.137
134,7.137
135,7.137
136,7.137
137,7.137
138,7.137
139,7.137
140,7.137
141,7.137
142,7.137
143,7.137
144,7.137
145,7.137
146,7.137
147,7.137
148,7.137
149,7.137
150,7.137
151,7.137
152,7.137
153,7.137
154,7.137
155,7.137
156,7.137
157,7.137
158,7.137
159,7.137
160,7.137
161,7.137
162,7.137
163,7.137
164,7.137
165,7.137
166,7.137
167,7.137
168,7.137
169,7.137
170,7.137
171,7.137
172,7.137
173,7.137
174,7.137
175,7.137
176,7.137
177,7.137
178,7.137
179,7.137
180,7.137
181,7.137
182,7.137
183,7.137
184,7.137
185,7.137
186,7.137
187,7.137
188,7.137
189,7.137
190,7.137
191,7.137
192,7.137
193,7.137
194,7.137
195,7.137
196,7.137
197,7.137
198,7.137
199,7.137
200,7.137
201,7.137
202,7.137
203,7.137
204,7.137
205,7.137
206,7.273
207,7.273
208,7.273
209,7.273
210,7.659
211,7.659
212,7.659
213,7.659
214,7.659
215,7.659
216,7.659
217,7.659
218,7.659
219,7.659
220,7.659
221,7.659
222,7.659
223,7.659
224,7.659
225,7.659
226,7.659
227,7.659
228,7.659
229,7.659
230,7.659
231,7.659
232,7.659
233,7.659
234,7.659
235,7.659
236,7.659
237,7.659
238,7.659
239,7.864
240,7.864
241,7.864
242,7.864
243,7.864
244,7.864
245,7.864
246,7.864
247,7.728
248,7.728
249,7.728
250,7.728
251,7.728
252,7.728
253,7.728
254,7.728
255,7.728
256,7.728
257,7.728
258,7.728
259,7.728
260,7.728
261,7.728
262,7.728
263,7.728
264,7.728
265,7.728
266,7.728
267,7.728
268,7.728
269,7.728
270,7.728
271,7.728
272,7.728
273,7.728
274,7.728
275,7.728
276,7.728
277,7.728
278,7.728
279,7.728
280,7.728
281,7.728
282,7.728
283,7.728
284,7.728
285,7.728
286,7.728
287,7.728
288,7.728
289,7.728
290,7.728
291,7.728
292,7.728
293,7.728
294,7.728
295,7.728
296,7.728
297,7.728
298,7.728
299,7.728
300,7.728
