actions,scores
0,0
1,0
2,0
3,0
4,0.614
5,1.228
6,1.842
7,2.456
8,3.07
9,3.07
10,4.069999999999999
11,4.069999999999999
12,4.069999999999999
13,4.319999999999999
14,4.569999999999999
15,4.989999999999999
16,4.989999999999999
17,5.433999999999999
18,5.433999999999999
19,5.433999999999999
20,5.433999999999999
21,5.433999999999999
22,5.433999999999999
23,5.433999999999999
24,6.297999999999999
25,6.297999999999999
26,6.297999999999999
27,6.297999999999999
28,6.297999999999999
29,6.297999999999999
30,6.297999999999999
31,6.297999999999999
32,6.297999999999999
33,6.297999999999999
34,6.297999999999999
35,6.297999999999999
36,6.297999999999999
37,6.297999999999999
38,6.297999999999999
39,6.297999999999999
40,6.297999999999999
41,6.297999999999999
42,6.433999999999999
43,6.433999999999999
44,6.433999999999999
45,6.433999999999999
46,6.433999999999999
47,6.433999999999999
48,6.433999999999999
49,6.433999999999999
50,6.433999999999999
51,6.433999999999999
52,6.433999999999999
53,6.433999999999999
54,6.433999999999999
55,6.433999999999999
56,6.433999999999999
57,6.433999999999999
58,6.433999999999999
59,6.433999999999999
60,6.433999999999999
61,6.433999999999999
62,6.433999999999999
63,6.433999999999999
64,6.433999999999999
65,6.819999999999999
66,6.819999999999999
67,7.2059999999999995
68,7.2059999999999995
69,7.2059999999999995
70,7.2059999999999995
71,7.2059999999999995
72,7.2059999999999995
73,7.2059999999999995
74,7.2059999999999995
75,7.2059999999999995
76,7.2059999999999995
77,7.2059999999999995
78,7.2059999999999995
79,7.2059999999999995
80,7.2059999999999995
81,7.2059999999999995
82,7.2059999999999995
83,7.592
84,7.592
85,7.592
86,7.592
87,7.592
88,7.592
89,7.592
90,7.592
91,7.592
92,7.592
93,7.592
94,7.592
95,7.592
96,7.592
97,7.592
98,7.592
99,7.592
100,7.592
101,7.592
102,7.592
103,7.592
104,7.592
105,7.592
106,7.592
107,7.592
108,7.592
109,7.592
110,7.592
111,7.592
112,7.592
113,7.592
114,7.592
115,7.592
116,7.592
117,7.592
118,7.592
119,7.592
120,7.592
121,7.592
122,7.592
123,7.592
124,7.592
125,7.592
126,7.592
127,7.592
128,7.592
129,7.592
130,7.592
131,7.592
132,7.592
133,7.592
134,7.592
135,7.592
136,7.592
137,7.592
138,7.592
139,7.592
140,7.728
141,7.728
142,7.728
143,7.728
144,7.728
145,7.728
146,7.728
147,7.728
148,7.728
149,7.728
150,7.728
151,7.728
152,7.728
153,7.728
154,7.728
155,7.728
156,7.728
157,7.728
158,7.728
159,7.728
160,7.728
161,7.728
162,7.728
163,7.728
164,7.728
165,7.728
166,7.728
167,7.728
168,7.728
169,7.728
170,7.728
171,7.728
172,7.728
173,7.728
174,7.728
175,7.728
176,7.728
177,7.728
178,7.728
179,7.728
180,7.728
181,7.728
182,7.728
183,7.728
184,7.728
185,7.728
186,7.728
187,7.728
188,7.728
189,7.728
190,7.728
191,7.728
192,7.728
193,7.728
194,7.728
195,7.728
196,7.728
197,7.728
198,7.728
199,7.728
200,7.728
201,7.728
202,7.864
203,7.864
204,7.864
205,7.864
206,7.864
207,7.864
208,8.0
209,8.0
210,8.0
211,8.0
212,8.0
213,8.0
214,8.0
215,8.0
216,8.0
217,8.0
218,8.0
219,8.0
220,8.0
221,8.0
222,8.0
223,8.0
224,8.0
225,8.0
226,8.0
227,8.0
228,8.0
229,8.0
230,8.0
231,8.0
232,8.0
233,8.0
234,8.0
235,8.0
236,8.0
237,8.0
238,8.0
239,8.0
240,8.0
241,8.0
242,8.0
243,8.0
244,8.0
245,8.0
246,8.0
247,8.0
248,8.0
249,8.0
250,8.0
251,8.0
252,8.0
253,8.0
254,8.0
255,8.0
256,8.0
257,8.0
258,8.0
259,8.0
260,8.0
261,8.0
262,8.0
263,8.0
264,8.0
265,8.0
266,8.0
267,8.0
268,8.0
269,8.0
270,8.0
271,8.0
272,8.0
273,8.0
274,8.0
275,8.0
276,8.0
277,8.0
278,8.0
279,8.0
280,8.0
281,8.0
282,8.0
283,8.0
284,8.0
285,8.0
286,8.0
287,8.0
288,8.0
289,8.0
290,8.0
291,8.0
292,8.0
293,8.0
294,8.0
295,8.0
296,8.0
297,8.0
298,8.0
299,8.0
300,8.0
