actions,scores
0,0
1,0
2,0.614
3,1.228
4,1.842
5,2.456
6,3.07
7,3.6839999999999997
8,4.298
9,4.298
10,4.298
11,4.298
12,4.298
13,4.298
14,4.298
15,4.479
16,4.479
17,5.343
18,5.412
19,5.412
20,5.412
21,5.412
22,5.547999999999999
23,5.547999999999999
24,5.547999999999999
25,5.547999999999999
26,5.547999999999999
27,5.547999999999999
28,5.933999999999999
29,5.933999999999999
30,5.933999999999999
31,5.933999999999999
32,5.933999999999999
33,5.933999999999999
34,5.933999999999999
35,5.933999999999999
36,5.933999999999999
37,5.933999999999999
38,5.933999999999999
39,5.933999999999999
40,5.933999999999999
41,5.933999999999999
42,5.933999999999999
43,5.933999999999999
44,6.114999999999999
45,6.114999999999999
46,6.114999999999999
47,6.114999999999999
48,6.114999999999999
49,6.114999999999999
50,6.114999999999999
51,6.114999999999999
52,6.114999999999999
53,6.114999999999999
54,6.114999999999999
55,6.114999999999999
56,6.114999999999999
57,6.114999999999999
58,6.114999999999999
59,6.114999999999999
60,6.114999999999999
61,6.114999999999999
62,6.114999999999999
63,6.114999999999999
64,6.364999999999999
65,6.364999999999999
66,6.364999999999999
67,6.5009999999999994
68,6.5009999999999994
69,6.5009999999999994
70,6.7059999999999995
71,6.7059999999999995
72,6.7059999999999995
73,6.7059999999999995
74,6.7059999999999995
75,6.7059999999999995
76,6.7059999999999995
77,6.7059999999999995
78,6.7059999999999995
79,6.7059999999999995
80,6.7059999999999995
81,6.7059999999999995
82,6.7059999999999995
83,6.7059999999999995
84,6.7059999999999995
85,6.7059999999999995
86,6.7059999999999995
87,6.7059999999999995
88,6.7059999999999995
89,6.7059999999999995
90,6.7059999999999995
91,6.7059999999999995
92,6.7059999999999995
93,6.7059999999999995
94,6.7059999999999995
95,7.092
96,7.092
97,7.092
98,7.092
99,7.092
100,7.092
101,7.092
102,7.092
103,7.092
104,7.092
105,7.092
106,7.092
107,7.092
108,7.092
109,7.092
110,7.092
111,7.092
112,7.092
113,7.092
114,7.092
115,7.092
116,7.092
117,7.092
118,7.092
119,7.092
120,7.092
121,7.092
122,7.092
123,7.092
124,7.092
125,7.092
126,7.092
127,7.092
128,7.092
129,7.092
130,7.092
131,7.092
132,7.092
133,7.092
134,7.092
135,7.092
136,7.092
137,7.092
138,7.092
139,7.092
140,7.092
141,7.092
142,7.092
143,7.092
144,7.092
145,7.092
146,7.092
147,7.092
148,7.092
149,7.092
150,7.092
151,7.092
152,7.092
153,7.092
154,7.092
155,7.092
156,7.092
157,7.092
158,7.092
159,7.092
160,7.092
161,7.092
162,7.092
163,7.092
164,7.092
165,7.092
166,7.092
167,7.092
168,7.092
169,7.092
170,7.092
171,7.092
172,7.092
173,7.092
174,7.092
175,7.092
176,7.092
177,7.092
178,7.092
179,7.092
180,7.092
181,7.092
182,7.092
183,7.092
184,7.092
185,7.092
186,7.092
187,7.092
188,7.092
189,7.092
190,7.092
191,7.092
192,7.092
193,7.092
194,7.092
195,7.092
196,7.092
197,7.092
198,7.092
199,7.092
200,7.092
201,7.092
202,7.092
203,7.092
204,7.092
205,7.092
206,7.092
207,7.092
208,7.092
209,7.092
210,7.092
211,7.092
212,7.092
213,7.092
214,7.092
215,7.092
216,7.092
217,7.092
218,7.092
219,7.092
220,7.092
221,7.092
222,7.092
223,7.092
224,7.478
225,7.478
226,7.478
227,7.478
228,7.478
229,7.478
230,7.478
231,7.478
232,7.478
233,7.478
234,7.478
235,7.478
236,7.478
237,7.478
238,7.478
239,7.478
240,7.478
241,7.478
242,7.478
243,7.478
244,7.478
245,7.478
246,7.478
247,7.478
248,7.478
249,7.478
250,7.478
251,7.478
252,7.478
253,7.478
254,7.478
255,7.478
256,7.478
257,7.478
258,7.478
259,7.478
260,7.478
261,7.478
262,7.478
263,7.478
264,7.478
265,7.478
266,7.478
267,7.478
268,7.478
269,7.478
270,7.478
271,7.478
272,7.478
273,7.478
274,7.478
275,7.478
276,7.478
277,7.478
278,7.478
279,7.478
280,7.478
281,7.478
282,7.478
283,7.478
284,7.478
285,7.478
286,7.478
287,7.478
288,7.478
289,7.478
290,7.478
291,7.478
292,7.478
293,7.478
294,7.478
295,7.478
296,7.478
297,7.478
298,7.478
299,7.478
300,7.478
