move_ne(V3,V0) :- north(V0,V1), west(V2,V3), cdoor(V2,V4), agentat(V2,V1).
move_ne(V3,V0) :- north(V0,V1), west(V2,V3), cdoor(V4,V1), agentat(V2,V1).
Pre-processing  : 6.527s
Solve time      : 34754.2s
Total           : 34760.8s
