actions,scores
0,0
1,0
2,0
3,0
4,0
5,0
6,0
7,0
8,0
9,1.0
10,1.8639999999999999
11,1.8639999999999999
12,1.8639999999999999
13,1.8639999999999999
14,1.8639999999999999
15,1.8639999999999999
16,1.8639999999999999
17,1.8639999999999999
18,1.8639999999999999
19,1.8639999999999999
20,1.8639999999999999
21,1.8639999999999999
22,1.8639999999999999
23,1.8639999999999999
24,1.8639999999999999
25,1.8639999999999999
26,1.8639999999999999
27,1.8639999999999999
28,2.864
29,2.864
30,2.864
31,2.864
32,2.864
33,2.864
34,2.864
35,2.864
36,3.864
37,3.864
38,3.864
39,3.864
40,3.864
41,3.864
42,3.864
43,3.864
44,4.728
45,4.728
46,4.728
47,4.728
48,4.728
49,5.728
50,5.728
51,5.728
52,5.728
53,5.728
54,5.728
55,5.728
56,5.728
57,5.728
58,5.728
59,5.728
60,5.728
61,5.728
62,5.728
63,5.728
64,5.728
65,5.728
66,5.728
67,5.728
68,5.728
69,5.728
70,5.728
71,5.728
72,5.728
73,5.728
74,5.728
75,5.728
76,5.728
77,5.728
78,5.864
79,5.864
80,5.864
81,5.864
82,5.864
83,5.864
84,5.864
85,5.864
86,5.864
87,6.0
88,6.0
89,6.0
90,6.0
91,6.0
92,6.0
93,6.0
94,6.0
95,6.0
96,6.0
97,6.0
98,6.0
99,6.0
100,6.0
101,6.0
102,6.0
103,6.0
104,6.0
105,6.0
106,6.0
107,6.0
108,6.0
109,6.0
110,6.0
111,6.0
112,6.0
113,6.0
114,6.0
115,6.0
116,6.0
117,6.0
118,6.0
119,6.0
120,6.0
121,7.0
122,7.0
123,7.0
124,7.0
125,7.0
126,7.0
127,7.864
128,7.864
129,7.864
130,7.864
131,7.864
132,7.864
133,7.864
134,7.864
135,7.864
136,7.864
137,7.864
138,7.864
139,7.864
140,7.864
141,7.864
142,7.864
143,7.864
144,7.864
145,7.864
146,7.864
147,7.864
148,7.864
149,7.864
150,7.864
151,7.864
152,7.864
153,7.864
154,7.864
155,7.864
156,7.864
157,7.864
158,7.864
159,7.864
160,7.864
161,7.864
162,7.864
163,7.864
164,7.864
165,7.864
166,7.864
167,7.864
168,7.864
169,7.864
170,7.864
171,7.864
172,7.864
173,7.864
174,7.864
175,7.864
176,7.864
177,7.864
178,7.864
179,7.864
180,7.864
181,7.864
182,7.864
183,7.864
184,7.864
185,7.864
186,7.864
187,7.864
188,7.864
189,7.864
190,7.864
191,7.864
192,7.864
193,7.864
194,7.864
195,7.864
196,7.864
197,7.864
198,7.864
199,7.864
200,7.864
201,7.864
202,7.864
203,7.864
204,7.864
205,7.864
206,7.864
207,7.864
208,7.864
209,7.864
210,7.864
211,7.864
212,7.864
213,7.864
214,7.864
215,7.864
216,7.864
217,7.864
218,7.864
219,7.864
220,7.864
221,7.864
222,7.864
223,7.864
224,7.864
225,7.864
226,7.864
227,7.864
228,7.864
229,7.864
230,7.864
231,7.864
232,7.864
233,7.864
234,7.864
235,7.864
236,7.864
237,7.864
238,7.864
239,7.864
240,7.864
241,7.864
242,7.864
243,7.864
244,7.864
245,7.864
246,7.864
247,7.864
248,7.864
249,7.864
250,7.864
251,7.864
252,7.864
253,7.864
254,7.864
255,7.864
256,7.864
257,7.864
258,7.864
259,7.864
260,7.864
261,7.864
262,7.864
263,7.864
264,7.864
265,7.864
266,7.864
267,7.864
268,7.864
269,7.864
270,7.864
271,7.864
272,7.864
273,7.864
274,7.864
275,7.864
276,7.864
277,7.864
278,7.864
279,7.864
280,7.864
281,7.864
282,7.864
283,7.864
284,7.864
285,7.864
286,7.864
287,7.864
288,7.864
289,7.864
290,7.864
291,7.864
292,7.864
293,7.864
294,7.864
295,7.864
296,7.864
297,8.0
298,8.0
299,8.0
300,8.0
301,8.0
